PCBNEW-LibModule-V1  Tue 08 Oct 2013 03:57:36 PM PDT
# encoding utf-8
Units mm
$INDEX
AHRF200
CBS350-450
Fuse-Holder-3AG
QW050B1
RGEF800
RUEF800
diode_5kp58a
terminal-1x2-large
terminal-2x3-medium
terminal-2x4-medium
$EndINDEX
$MODULE AHRF200
Po 0 0 0 15 518C90A6 00000000 ~~
Li AHRF200
Sc 0
AR 
Op 0 0 0
T0 0 -2.921 1.5 1.5 0 0.15 N V 21 N "AHRF200"
T1 0 3.302 1.5 1.5 0 0.15 N V 21 N "TH**"
DS -0.127 0.635 0.508 0.635 0.15 21
DS 0.508 0.635 0.508 1.27 0.15 21
DS 0.508 1.27 1.016 1.778 0.15 21
DS -0.508 -0.635 1.905 -0.635 0.15 21
DS 1.905 -0.635 2.54 0 0.15 21
DS 2.54 0 2.54 1.143 0.15 21
DS 2.54 1.143 1.905 1.778 0.15 21
DS 1.905 1.778 1.016 1.778 0.15 21
DS -0.127 0.635 -2.032 0.635 0.15 21
DS -2.032 0.635 -2.667 0 0.15 21
DS -2.667 0 -2.667 -0.889 0.15 21
DS -2.667 -0.889 -2.667 -1.016 0.15 21
DS -2.667 -1.016 -1.905 -1.778 0.15 21
DS -1.905 -1.778 -1.016 -1.778 0.15 21
DS -1.016 -1.778 -0.508 -1.27 0.15 21
DS -0.508 -1.27 -0.508 -0.635 0.15 21
$PAD
Sh "1" C 1.27 1.27 0 0 0
Dr 0.762 0 0
At STD N 00E0FFFF
Ne 0 ""
Po -1.524 -0.635
$EndPAD
$PAD
Sh "2" C 1.27 1.27 0 0 0
Dr 0.762 0 0
At STD N 00E0FFFF
Ne 0 ""
Po 1.524 0.635
$EndPAD
$EndMODULE AHRF200
$MODULE CBS350-450
Po 0 0 0 15 518C8F7A 00000000 ~~
Li CBS350-450
Sc 0
AR 
Op 0 0 0
T0 0 -33.02 1.5 1.5 0 0.15 N V 21 N "CBS350-450"
T1 0 33.02 1.5 1.5 0 0.15 N V 21 N "PS**"
DS 20.955 -10.16 20.955 10.16 0.15 21
DS -20.955 5.08 -20.955 20.32 0.15 21
DS -20.955 -20.32 -20.955 -5.08 0.15 21
DS 20.32 -10.16 20.32 10.16 0.15 21
DS -28.956 -5.08 -20.32 -5.08 0.15 21
DS -20.32 -5.08 -20.32 -20.32 0.15 21
DS -20.32 -20.32 -28.956 -20.32 0.15 21
DS -28.956 5.08 -20.32 5.08 0.15 21
DS -20.32 5.08 -20.32 20.32 0.15 21
DS -20.32 20.32 -28.956 20.32 0.15 21
DS 28.956 -10.16 20.32 -10.16 0.15 21
DS 20.32 10.16 28.956 10.16 0.15 21
DS -28.956 -30.48 28.956 -30.48 0.15 21
DS 28.956 -30.48 28.956 30.48 0.15 21
DS 28.956 30.48 -28.956 30.48 0.15 21
DS -28.956 30.48 -28.956 -30.48 0.15 21
$PAD
Sh "10" T 4.064 4.064 0 0 450
Dr 3.556 0 0
At STD N 00E0FFFF
Ne 0 ""
Po 24.13 25.4
$EndPAD
$PAD
Sh "10" T 4.064 4.064 0 0 450
Dr 3.556 0 0
At STD N 00E0FFFF
Ne 0 ""
Po -24.13 25.4
$EndPAD
$PAD
Sh "10" T 4.064 4.064 0 0 450
Dr 3.556 0 0
At STD N 00E0FFFF
Ne 0 ""
Po 24.13 -25.4
$EndPAD
$PAD
Sh "10" T 4.064 4.064 0 0 450
Dr 3.556 0 0
At STD N 00E0FFFF
Ne 0 ""
Po -24.13 -25.4
$EndPAD
$PAD
Sh "9" C 4.318 4.318 0 0 450
Dr 2.54 0 0
At STD N 00E0FFFF
Ne 0 ""
Po 24.13 17.78
$EndPAD
$PAD
Sh "8" C 2.286 2.286 0 0 450
Dr 1.524 0 0
At STD N 00E0FFFF
Ne 0 ""
Po 24.13 7.62
$EndPAD
$PAD
Sh "7" C 2.286 2.286 0 0 450
Dr 1.524 0 0
At STD N 00E0FFFF
Ne 0 ""
Po 24.13 0
$EndPAD
$PAD
Sh "6" C 2.286 2.286 0 0 450
Dr 1.524 0 0
At STD N 00E0FFFF
Ne 0 ""
Po 24.13 -7.62
$EndPAD
$PAD
Sh "5" C 4.318 4.318 0 0 450
Dr 2.54 0 0
At STD N 00E0FFFF
Ne 0 ""
Po 24.13 -17.78
$EndPAD
$PAD
Sh "1" C 2.286 2.286 0 0 450
Dr 1.524 0 0
At STD N 00E0FFFF
Ne 0 ""
Po -24.13 -17.78
$EndPAD
$PAD
Sh "2" C 2.286 2.286 0 0 450
Dr 1.524 0 0
At STD N 00E0FFFF
Ne 0 ""
Po -24.13 -7.62
$EndPAD
$PAD
Sh "3" C 2.286 2.286 0 0 450
Dr 1.524 0 0
At STD N 00E0FFFF
Ne 0 ""
Po -24.13 7.62
$EndPAD
$PAD
Sh "4" C 2.286 2.286 0 0 450
Dr 1.524 0 0
At STD N 00E0FFFF
Ne 0 ""
Po -24.13 17.78
$EndPAD
$EndMODULE CBS350-450
$MODULE Fuse-Holder-3AG
Po 0 0 0 15 518C90E6 00000000 ~~
Li Fuse-Holder-3AG
Sc 0
AR 
Op 0 0 0
T0 0 -8.89 1.5 1.5 0 0.15 N V 21 N "Fuse-Holder-3AG"
T1 0 8.89 1.5 1.5 0 0.15 N V 21 N "F**"
DS 17.78 -6.35 -17.78 -6.35 0.15 21
DS -17.78 -6.35 -17.78 6.35 0.15 21
DS -17.78 6.35 17.78 6.35 0.15 21
DS 17.78 6.35 17.78 -6.35 0.15 21
$PAD
Sh "1" C 3.048 3.048 0 0 0
Dr 1.778 0 0
At STD N 00E0FFFF
Ne 0 ""
Po -17.78 0
$EndPAD
$PAD
Sh "2" C 3.048 3.048 0 0 0
Dr 1.778 0 0
At STD N 00E0FFFF
Ne 0 ""
Po 17.78 0
$EndPAD
$PAD
Sh "3" C 4.318 4.318 0 0 0
Dr 3.81 0 0
At STD N 00E0FFFF
Ne 0 ""
Po 0 0
.ZoneConnection 0
$EndPAD
$SHAPE3D
Na "lib/fuse_socket.wrl"
Sc 1.58 1.3 1
Of 0 0 0
Ro 0 0 0
$EndSHAPE3D
$EndMODULE Fuse-Holder-3AG
$MODULE QW050B1
Po 0 0 0 15 518C9762 00000000 ~~
Li QW050B1
Sc 0
AR 
Op 0 0 0
T0 0 -20.32 1.5 1.5 0 0.15 N V 21 N "QW050B1"
T1 0 20.955 1.5 1.5 0 0.15 N V 21 N "PS**"
DS -28.956 18.415 28.956 18.415 0.15 21
DS 28.956 18.415 28.956 -18.415 0.15 21
DS 28.956 -18.415 -28.956 -18.415 0.15 21
DS -28.956 -18.415 -28.956 18.415 0.15 21
$PAD
Sh "8" C 3.048 3.048 0 0 0
Dr 2.032 0 0
At STD N 00E0FFFF
Ne 0 ""
Po 25.4 7.62
$EndPAD
$PAD
Sh "6" C 2.032 2.032 0 0 0
Dr 1.524 0 0
At STD N 00E0FFFF
Ne 0 ""
Po 25.4 0
$EndPAD
$PAD
Sh "7" C 2.032 2.032 0 0 0
Dr 1.524 0 0
At STD N 00E0FFFF
Ne 0 ""
Po 25.4 3.81
$EndPAD
$PAD
Sh "5" C 2.032 2.032 0 0 0
Dr 1.524 0 0
At STD N 00E0FFFF
Ne 0 ""
Po 25.4 -3.81
$EndPAD
$PAD
Sh "4" C 3.048 3.048 0 0 0
Dr 2.032 0 0
At STD N 00E0FFFF
Ne 0 ""
Po 25.4 -7.62
$EndPAD
$PAD
Sh "3" C 2.032 2.032 0 0 0
Dr 1.524 0 0
At STD N 00E0FFFF
Ne 0 ""
Po -25.4 7.62
$EndPAD
$PAD
Sh "2" C 2.032 2.032 0 0 0
Dr 1.524 0 0
At STD N 00E0FFFF
Ne 0 ""
Po -25.4 0
$EndPAD
$PAD
Sh "9" C 4.572 4.572 0 0 0
Dr 3.556 0 0
At STD N 00E0FFFF
Ne 0 ""
Po 23.622 13.081
$EndPAD
$PAD
Sh "9" C 4.572 4.572 0 0 0
Dr 3.556 0 0
At STD N 00E0FFFF
Ne 0 ""
Po 23.622 -13.081
$EndPAD
$PAD
Sh "9" C 4.572 4.572 0 0 0
Dr 3.556 0 0
At STD N 00E0FFFF
Ne 0 ""
Po -23.622 -13.081
$EndPAD
$PAD
Sh "9" C 4.572 4.572 0 0 0
Dr 3.556 0 0
At STD N 00E0FFFF
Ne 0 ""
Po -23.622 13.081
$EndPAD
$PAD
Sh "1" C 2.032 2.032 0 0 0
Dr 1.524 0 0
At STD N 00E0FFFF
Ne 0 ""
Po -25.4 -7.62
$EndPAD
$PAD
Sh "9" R 2.54 1.27 0 0 0
Dr 1.143 0 0
At STD N 00E0FFFF
Ne 0 ""
Po 13.2461 18.796
$EndPAD
$EndMODULE QW050B1
$MODULE RGEF800
Po 0 0 0 15 518C90FA 00000000 ~~
Li RGEF800
Sc 0
AR 
Op 0 0 0
T0 0 -3.302 1.5 1.5 0 0.15 N V 21 N "RGEF800"
T1 0 3.556 1.5 1.5 0 0.15 N V 21 N "TH**"
DS -6.35 -1.778 6.35 -1.778 0.15 21
DS -6.35 1.778 6.35 1.778 0.15 21
DS 6.35 1.778 6.35 -1.778 0.15 21
DS -6.35 -1.778 -6.35 1.778 0.15 21
$PAD
Sh "1" C 2.032 2.032 0 0 0
Dr 1.016 0 0
At STD N 00E0FFFF
Ne 0 ""
Po -2.921 0
$EndPAD
$PAD
Sh "2" C 2.032 2.032 0 0 0
Dr 1.016 0 0
At STD N 00E0FFFF
Ne 0 ""
Po 2.921 0
$EndPAD
$EndMODULE RGEF800
$MODULE RUEF800
Po 0 0 0 15 518C9105 00000000 ~~
Li RUEF800
Sc 0
AR 
Op 0 0 0
T0 0 -3.302 1.5 1.5 0 0.15 N V 21 N "RUEF800"
T1 0 3.556 1.5 1.5 0 0.15 N V 21 N "TH**"
DS -10.922 1.778 10.922 1.778 0.15 21
DS 10.922 -1.778 -10.922 -1.778 0.15 21
DS 10.922 1.778 10.922 -1.778 0.15 21
DS -10.922 -1.778 -10.922 1.778 0.15 21
$PAD
Sh "1" C 2.032 2.032 0 0 0
Dr 1.016 0 0
At STD N 00E0FFFF
Ne 0 ""
Po -5.461 0
$EndPAD
$PAD
Sh "2" C 2.032 2.032 0 0 0
Dr 1.016 0 0
At STD N 00E0FFFF
Ne 0 ""
Po 5.461 0
$EndPAD
$EndMODULE RUEF800
$MODULE diode_5kp58a
Po 0 0 0 15 518C90C0 00000000 ~~
Li diode_5kp58a
Cd Diode, DO-201 package
Sc 0
AR 
Op 0 0 0
T0 0 6.096 1.524 1.524 0 0.3048 N V 21 N "diode_5kp58a"
T1 0 -6.096 1.524 1.524 0 0.3048 N V 21 N "D***"
DS 2.413 4.572 2.413 -4.572 0.3048 21
DS 2.667 -4.572 2.667 4.572 0.3048 21
DS 2.921 4.572 2.921 -4.572 0.3048 21
DS 3.175 -4.572 3.175 4.572 0.3048 21
DS 7.62 0 4.699 0 0.3048 21
DS -7.62 0 -4.699 0 0.3048 21
DS -4.699 4.572 -4.699 -4.572 0.3048 21
DS -4.699 -4.572 4.699 -4.572 0.3048 21
DS 4.699 -4.572 4.699 4.572 0.3048 21
DS 4.699 4.572 -4.699 4.572 0.3048 21
$PAD
Sh "1" C 2.49936 2.49936 0 0 0
Dr 1.5748 0 0
At STD N 00E0FFFF
Ne 0 ""
Po -7.62 0
$EndPAD
$PAD
Sh "2" C 2.49936 2.49936 0 0 0
Dr 1.5748 0 0
At STD N 00E0FFFF
Ne 0 ""
Po 7.62 0
$EndPAD
$SHAPE3D
Na "walter/pth_diodes/diode_do201.wrl"
Sc 1 2 2
Of 0 0 0
Ro 0 0 0
$EndSHAPE3D
$EndMODULE diode_5kp58a
$MODULE terminal-1x2-large
Po 0 0 0 15 518CA39F 00000000 ~~
Li terminal-1x2-large
Sc 0
AR 
Op 0 0 0
T0 0 -10.795 1.5 1.5 0 0.15 N V 21 N "terminal-1x2-large"
T1 0 10.795 1.5 1.5 0 0.15 N V 21 N "P**"
DS 12.7 9.525 -12.7 9.525 0.15 21
DS -12.7 -9.525 12.7 -9.525 0.15 21
DS 12.7 -9.525 12.7 9.525 0.15 21
DS -12.7 -9.525 -12.7 9.525 0.15 21
$PAD
Sh "2" O 6.35 3.81 0 0 0
Dr 1.524 0 0
At STD N 00E0FFFF
Ne 0 ""
Po 7.0866 5.08
$EndPAD
$PAD
Sh "2" O 6.35 3.81 0 0 0
Dr 1.524 0 0
At STD N 00E0FFFF
Ne 0 ""
Po 3.0734 5.08
$EndPAD
$PAD
Sh "1" O 6.35 3.81 0 0 0
Dr 1.524 0 0
At STD N 00E0FFFF
Ne 0 ""
Po -7.0866 -5.08
$EndPAD
$PAD
Sh "1" O 6.35 3.81 0 0 0
Dr 1.524 0 0
At STD N 00E0FFFF
Ne 0 ""
Po -3.0734 -5.08
$EndPAD
$SHAPE3D
Na "walter/conn_mpt/mpt_0,5-2-2,54.wrl"
Sc 3.75 3 2.5
Of 0 0 0
Ro 0 0 0
$EndSHAPE3D
$EndMODULE terminal-1x2-large
$MODULE terminal-2x3-medium
Po 0 0 0 15 518CA3DA 00000000 ~~
Li terminal-2x3-medium
Sc 0
AR 
Op 0 0 0
T0 0 -12.7 1.5 1.5 0 0.15 N V 21 N "terminal-2x3-medium"
T1 0 12.7 1.5 1.5 0 0.15 N V 21 N "P**"
DS 8.89 0 6.35 0 0.15 21
DS 6.35 0 6.35 -10.7442 0.15 21
DS 6.35 -10.7442 -8.89 -10.7442 0.15 21
DS -8.89 0 -6.35 0 0.15 21
DS -6.35 0 -6.35 10.7442 0.15 21
DS -6.35 10.7442 8.89 10.7442 0.15 21
DS 8.89 0 8.89 10.7442 0.15 21
DS -8.89 -10.7442 -8.89 0 0.15 21
$PAD
Sh "2" C 2.286 2.286 0 0 0
Dr 1.524 0 0
At STD N 00E0FFFF
Ne 0 ""
Po -3.81 7.62
$EndPAD
$PAD
Sh "4" C 2.286 2.286 0 0 0
Dr 1.524 0 0
At STD N 00E0FFFF
Ne 0 ""
Po 1.27 7.62
$EndPAD
$PAD
Sh "6" C 2.286 2.286 0 0 0
Dr 1.524 0 0
At STD N 00E0FFFF
Ne 0 ""
Po 6.35 7.62
$EndPAD
$PAD
Sh "5" C 2.286 2.286 0 0 0
Dr 1.524 0 0
At STD N 00E0FFFF
Ne 0 ""
Po 3.81 -7.62
$EndPAD
$PAD
Sh "3" C 2.286 2.286 0 0 0
Dr 1.524 0 0
At STD N 00E0FFFF
Ne 0 ""
Po -1.27 -7.62
$EndPAD
$PAD
Sh "1" C 2.286 2.286 0 0 0
Dr 1.524 0 0
At STD N 00E0FFFF
Ne 0 ""
Po -6.35 -7.62
$EndPAD
$SHAPE3D
Na "walter/conn_mpt/mpt_0,5-3-2,54.wrl"
Sc 1.95 1.68 1.5
Of 0.05 -0.3 0
Ro 0 0 0
$EndSHAPE3D
$SHAPE3D
Na "walter/conn_mpt/mpt_0,5-3-2,54.wrl"
Sc 1.95 1.68 1.5
Of -0.05 0.1 0.45
Ro 0 0 0
$EndSHAPE3D
$SHAPE3D
Na "walter/conn_mpt/mpt_0,5-3-2,54.wrl"
Sc 1.95 1.68 1.5
Of -0.05 0.2 0
Ro 0 0 0
$EndSHAPE3D
$SHAPE3D
Na "walter/conn_mpt/mpt_0,5-3-2,54.wrl"
Sc 1.95 1.68 1.5
Of -0.05 0 0
Ro 0 0 180
$EndSHAPE3D
$EndMODULE terminal-2x3-medium
$MODULE terminal-2x4-medium
Po 0 0 0 15 52548D71 00000000 ~~
Li terminal-2x4-medium
Sc 0
AR 
Op 0 0 0
T0 0 -12.7 1.5 1.5 0 0.15 N V 21 N "terminal-2x4-medium"
T1 0 15.24 1.5 1.5 0 0.15 N V 21 N "P**"
DS -11.43 -6.35 -11.43 2.54 0.15 21
DS 8.89 -6.35 8.89 2.54 0.15 21
DS -8.89 10.922 11.43 10.922 0.15 21
DS -11.43 2.54 -8.89 2.54 0.15 21
DS -8.89 2.54 -8.89 11.43 0.15 21
DS -8.89 11.43 11.43 11.43 0.15 21
DS 11.43 11.43 11.43 2.54 0.15 21
DS 11.43 2.54 8.89 2.54 0.15 21
DS -11.43 -6.35 8.89 -6.35 0.15 21
$PAD
Sh "1" C 2.286 2.286 0 0 0
Dr 1.524 0 0
At STD N 00E0FFFF
Ne 0 ""
Po -8.89 -2.54
$EndPAD
$PAD
Sh "3" C 2.286 2.286 0 0 0
Dr 1.524 0 0
At STD N 00E0FFFF
Ne 0 ""
Po -3.81 -2.54
$EndPAD
$PAD
Sh "5" C 2.286 2.286 0 0 0
Dr 1.524 0 0
At STD N 00E0FFFF
Ne 0 ""
Po 1.27 -2.54
$EndPAD
$PAD
Sh "2" C 2.286 2.286 0 0 0
Dr 1.524 0 0
At STD N 00E0FFFF
Ne 0 ""
Po -6.35 7.62
$EndPAD
$PAD
Sh "4" C 2.286 2.286 0 0 0
Dr 1.524 0 0
At STD N 00E0FFFF
Ne 0 ""
Po -1.27 7.62
$EndPAD
$PAD
Sh "6" C 2.286 2.286 0 0 0
Dr 1.524 0 0
At STD N 00E0FFFF
Ne 0 ""
Po 3.81 7.62
$EndPAD
$PAD
Sh "8" C 2.286 2.286 0 0 0
Dr 1.524 0 0
At STD N 00E0FFFF
Ne 0 ""
Po 8.89 7.62
$EndPAD
$PAD
Sh "7" C 2.286 2.286 0 0 0
Dr 1.524 0 0
At STD N 00E0FFFF
Ne 0 ""
Po 6.35 -2.54
$EndPAD
$SHAPE3D
Na "walter/conn_mpt/mpt_0,5-4-2,54.wrl"
Sc 1.95 1.68 1.5
Of 0.05 -0.3 0.01
Ro 0 0 0
$EndSHAPE3D
$SHAPE3D
Na "walter/conn_mpt/mpt_0,5-4-2,54.wrl"
Sc 1.95 1.68 1.5
Of -0.05 0.1 0.45
Ro 0 0 0
$EndSHAPE3D
$SHAPE3D
Na "walter/conn_mpt/mpt_0,5-4-2,54.wrl"
Sc 1.95 1.68 1.5
Of -0.05 0.2 0
Ro 0 0 0
$EndSHAPE3D
$SHAPE3D
Na "walter/conn_mpt/mpt_0,5-4-2,54.wrl"
Sc 1.95 1.68 1.5
Of -0.05 0 0
Ro 0 0 180
$EndSHAPE3D
$EndMODULE terminal-2x4-medium
$EndLIBRARY
