EESchema Schematic File Version 2  date Wed 01 Jan 2014 04:25:12 PM PST
LIBS:power
LIBS:device
LIBS:transistors
LIBS:conn
LIBS:linear
LIBS:regul
LIBS:74xx
LIBS:cmos4000
LIBS:adc-dac
LIBS:memory
LIBS:xilinx
LIBS:special
LIBS:microcontrollers
LIBS:dsp
LIBS:microchip
LIBS:analog_switches
LIBS:motorola
LIBS:texas
LIBS:intel
LIBS:audio
LIBS:interface
LIBS:digital-audio
LIBS:philips
LIBS:display
LIBS:cypress
LIBS:siliconi
LIBS:opto
LIBS:atmel
LIBS:contrib
LIBS:valves
LIBS:coseldcdc
LIBS:PowerBlock-cache
EELAYER 24 0
EELAYER END
$Descr USLetter 11000 8500
encoding utf-8
Sheet 1 1
Title "ROV Power Board"
Date "2 jan 2014"
Rev "1"
Comp "Linn-Benton Community College"
Comment1 "Design by Devon Goode"
Comment2 "2013 ROV Team"
Comment3 ""
Comment4 ""
$EndDescr
$Comp
L CONN_2 P1
U 1 1 5298FE04
P 1100 850
F 0 "P1" V 1050 850 40  0000 C CNN
F 1 "48VIN" V 1150 850 40  0000 C CNN
F 2 "~" H 1100 850 60  0000 C CNN
F 3 "~" H 1100 850 60  0000 C CNN
	1    1100 850 
	0    -1   -1   0   
$EndComp
$Comp
L R R4
U 1 1 5298FE1A
P 1200 6250
F 0 "R4" V 1280 6250 40  0000 C CNN
F 1 "10k 1W" V 1207 6251 40  0000 C CNN
F 2 "~" V 1130 6250 30  0000 C CNN
F 3 "~" H 1200 6250 30  0000 C CNN
	1    1200 6250
	1    0    0    -1  
$EndComp
$Comp
L LED D7
U 1 1 5298FE29
P 1000 6300
F 0 "D7" H 1000 6400 50  0000 C CNN
F 1 "YLW" H 1000 6200 50  0000 C CNN
F 2 "~" H 1000 6300 60  0000 C CNN
F 3 "~" H 1000 6300 60  0000 C CNN
	1    1000 6300
	0    -1   -1   0   
$EndComp
$Comp
L FUSE F1
U 1 1 5298FE4C
P 1650 1300
F 0 "F1" H 1750 1350 40  0000 C CNN
F 1 "30A" H 1550 1250 40  0000 C CNN
F 2 "~" H 1650 1300 60  0000 C CNN
F 3 "~" H 1650 1300 60  0000 C CNN
	1    1650 1300
	1    0    0    -1  
$EndComp
$Comp
L CP1 C1
U 1 1 5298FE6A
P 2300 1600
F 0 "C1" H 2350 1700 50  0000 L CNN
F 1 "680uF" H 2350 1500 50  0000 L CNN
F 2 "~" H 2300 1600 60  0000 C CNN
F 3 "~" H 2300 1600 60  0000 C CNN
	1    2300 1600
	1    0    0    -1  
$EndComp
$Comp
L COSEL600 PS1
U 1 1 5298FE94
P 3550 1600
F 0 "PS1" H 3100 2200 60  0000 C CNN
F 1 "COSEL600" H 3900 2200 60  0000 C CNN
F 2 "" H 3550 1600 60  0000 C CNN
F 3 "" H 3550 1600 60  0000 C CNN
	1    3550 1600
	1    0    0    -1  
$EndComp
$Comp
L CP1 C2
U 1 1 5298FF97
P 4650 1650
F 0 "C2" H 4700 1750 50  0000 L CNN
F 1 "1000uF" H 4700 1550 50  0000 L CNN
F 2 "~" H 4650 1650 60  0000 C CNN
F 3 "~" H 4650 1650 60  0000 C CNN
	1    4650 1650
	1    0    0    -1  
$EndComp
$Comp
L R R1
U 1 1 5298FFA6
P 5050 1500
F 0 "R1" V 5130 1500 40  0000 C CNN
F 1 "1k" V 5057 1501 40  0000 C CNN
F 2 "~" V 4980 1500 30  0000 C CNN
F 3 "~" H 5050 1500 30  0000 C CNN
	1    5050 1500
	1    0    0    -1  
$EndComp
$Comp
L LED D2
U 1 1 5298FFB5
P 5050 1950
F 0 "D2" H 5050 2050 50  0000 C CNN
F 1 "GRN" H 5050 1850 50  0000 C CNN
F 2 "~" H 5050 1950 60  0000 C CNN
F 3 "~" H 5050 1950 60  0000 C CNN
	1    5050 1950
	0    1    1    0   
$EndComp
$Comp
L FUSE F2
U 1 1 5299044F
P 1650 3100
F 0 "F2" H 1750 3150 40  0000 C CNN
F 1 "30A" H 1550 3050 40  0000 C CNN
F 2 "~" H 1650 3100 60  0000 C CNN
F 3 "~" H 1650 3100 60  0000 C CNN
	1    1650 3100
	1    0    0    -1  
$EndComp
$Comp
L DIODE D3
U 1 1 52990455
P 2000 3400
F 0 "D3" H 2000 3500 40  0000 C CNN
F 1 "5kW TVS" H 2000 3300 40  0000 C CNN
F 2 "~" H 2000 3400 60  0000 C CNN
F 3 "~" H 2000 3400 60  0000 C CNN
	1    2000 3400
	0    -1   -1   0   
$EndComp
$Comp
L CP1 C3
U 1 1 5299045B
P 2300 3400
F 0 "C3" H 2350 3500 50  0000 L CNN
F 1 "680uF" H 2350 3300 50  0000 L CNN
F 2 "~" H 2300 3400 60  0000 C CNN
F 3 "~" H 2300 3400 60  0000 C CNN
	1    2300 3400
	1    0    0    -1  
$EndComp
$Comp
L COSEL600 PS2
U 1 1 5299046A
P 3550 3400
F 0 "PS2" H 3100 4000 60  0000 C CNN
F 1 "COSEL600" H 3900 4000 60  0000 C CNN
F 2 "" H 3550 3400 60  0000 C CNN
F 3 "" H 3550 3400 60  0000 C CNN
	1    3550 3400
	1    0    0    -1  
$EndComp
$Comp
L CP1 C4
U 1 1 52990477
P 4650 3450
F 0 "C4" H 4700 3550 50  0000 L CNN
F 1 "1000uF" H 4700 3350 50  0000 L CNN
F 2 "~" H 4650 3450 60  0000 C CNN
F 3 "~" H 4650 3450 60  0000 C CNN
	1    4650 3450
	1    0    0    -1  
$EndComp
$Comp
L R R2
U 1 1 5299047D
P 5050 3300
F 0 "R2" V 5130 3300 40  0000 C CNN
F 1 "1k" V 5057 3301 40  0000 C CNN
F 2 "~" V 4980 3300 30  0000 C CNN
F 3 "~" H 5050 3300 30  0000 C CNN
	1    5050 3300
	1    0    0    -1  
$EndComp
$Comp
L LED D4
U 1 1 52990483
P 5050 3750
F 0 "D4" H 5050 3850 50  0000 C CNN
F 1 "GRN" H 5050 3650 50  0000 C CNN
F 2 "~" H 5050 3750 60  0000 C CNN
F 3 "~" H 5050 3750 60  0000 C CNN
	1    5050 3750
	0    1    1    0   
$EndComp
$Comp
L FUSE F3
U 1 1 5299063F
P 1650 5050
F 0 "F3" H 1750 5100 40  0000 C CNN
F 1 "7A" H 1550 5000 40  0000 C CNN
F 2 "~" H 1650 5050 60  0000 C CNN
F 3 "~" H 1650 5050 60  0000 C CNN
	1    1650 5050
	1    0    0    -1  
$EndComp
$Comp
L CP1 C6
U 1 1 5299064B
P 2300 5350
F 0 "C6" H 2350 5450 50  0000 L CNN
F 1 "68uF" H 2350 5250 50  0000 L CNN
F 2 "~" H 2300 5350 60  0000 C CNN
F 3 "~" H 2300 5350 60  0000 C CNN
	1    2300 5350
	1    0    0    -1  
$EndComp
$Comp
L COSEL30 PS3
U 1 1 52990660
P 3550 5350
F 0 "PS3" H 3100 5950 60  0000 C CNN
F 1 "COSEL30" H 3900 5950 60  0000 C CNN
F 2 "" H 3550 5350 60  0000 C CNN
F 3 "" H 3550 5350 60  0000 C CNN
	1    3550 5350
	1    0    0    -1  
$EndComp
$Comp
L CP1 C5
U 1 1 529909F1
P 4650 5200
F 0 "C5" H 4700 5300 50  0000 L CNN
F 1 "470uF" H 4700 5100 50  0000 L CNN
F 2 "~" H 4650 5200 60  0000 C CNN
F 3 "~" H 4650 5200 60  0000 C CNN
	1    4650 5200
	1    0    0    -1  
$EndComp
$Comp
L R R3
U 1 1 52990AB6
P 5050 4800
F 0 "R3" V 5130 4800 40  0000 C CNN
F 1 "330" V 5057 4801 40  0000 C CNN
F 2 "~" V 4980 4800 30  0000 C CNN
F 3 "~" H 5050 4800 30  0000 C CNN
	1    5050 4800
	0    -1   -1   0   
$EndComp
$Comp
L LED D5
U 1 1 52990AC5
P 5400 5100
F 0 "D5" H 5400 5200 50  0000 C CNN
F 1 "GRN" H 5400 5000 50  0000 C CNN
F 2 "~" H 5400 5100 60  0000 C CNN
F 3 "~" H 5400 5100 60  0000 C CNN
	1    5400 5100
	0    1    1    0   
$EndComp
Wire Wire Line
	1200 1200 1200 6000
Wire Wire Line
	1200 1300 1400 1300
Wire Wire Line
	1900 1300 2300 1300
Wire Wire Line
	2300 1200 2300 1400
Connection ~ 2000 1300
Wire Wire Line
	1000 1200 1000 6100
Wire Wire Line
	1000 1900 2300 1900
Wire Wire Line
	2300 1800 2300 2000
Connection ~ 2000 1900
Wire Wire Line
	2300 2000 2700 2000
Wire Wire Line
	2600 2000 2600 1850
Wire Wire Line
	2600 1850 2700 1850
Connection ~ 2300 1900
Connection ~ 2600 2000
Wire Wire Line
	2300 1200 2700 1200
Connection ~ 2300 1300
Wire Wire Line
	4400 1350 4500 1350
Wire Wire Line
	4500 1350 4500 1200
Wire Wire Line
	4400 2000 4500 2000
Wire Wire Line
	4500 2000 4500 2150
Wire Wire Line
	4650 1200 4650 1450
Connection ~ 4500 1200
Wire Wire Line
	4650 2150 4650 1850
Connection ~ 4500 2150
Connection ~ 4650 2150
Connection ~ 4650 1200
Wire Wire Line
	4400 1200 5250 1200
Wire Wire Line
	4400 2150 5250 2150
Wire Wire Line
	5050 1200 5050 1250
Wire Wire Line
	1200 3100 1400 3100
Wire Wire Line
	1900 3100 2300 3100
Wire Wire Line
	2000 3100 2000 3200
Wire Wire Line
	2300 3000 2300 3200
Connection ~ 2000 3100
Wire Wire Line
	1000 3700 2300 3700
Wire Wire Line
	2000 3700 2000 3600
Wire Wire Line
	2300 3600 2300 3800
Connection ~ 2000 3700
Wire Wire Line
	2300 3800 2700 3800
Wire Wire Line
	2600 3800 2600 3650
Wire Wire Line
	2600 3650 2700 3650
Connection ~ 2300 3700
Connection ~ 2600 3800
Wire Wire Line
	2300 3000 2700 3000
Connection ~ 2300 3100
Wire Wire Line
	4400 3150 4500 3150
Wire Wire Line
	4500 3150 4500 3000
Wire Wire Line
	4400 3800 4500 3800
Wire Wire Line
	4500 3800 4500 3950
Wire Wire Line
	4650 3000 4650 3250
Connection ~ 4500 3000
Wire Wire Line
	4650 3950 4650 3650
Connection ~ 4500 3950
Connection ~ 4650 3950
Connection ~ 4650 3000
Wire Wire Line
	4400 3000 5250 3000
Wire Wire Line
	4400 3950 5250 3950
Wire Wire Line
	5050 3000 5050 3050
Connection ~ 1000 1900
Connection ~ 1200 1300
Wire Wire Line
	1200 5050 1400 5050
Wire Wire Line
	1900 5050 2300 5050
Wire Wire Line
	2300 4950 2300 5150
Wire Wire Line
	1000 5650 2300 5650
Wire Wire Line
	2300 5550 2300 5750
Wire Wire Line
	2300 5750 2700 5750
Connection ~ 2300 5650
Connection ~ 2300 5050
Wire Wire Line
	2700 4950 2300 4950
Wire Wire Line
	2700 5450 2700 5900
Connection ~ 2700 5750
Connection ~ 1200 3100
Connection ~ 1000 3700
Wire Wire Line
	1200 6500 1200 6600
Wire Wire Line
	1000 6600 1400 6600
Wire Wire Line
	1000 6600 1000 6500
Connection ~ 1200 5050
Connection ~ 1000 5650
Wire Wire Line
	4400 4950 4800 4950
Wire Wire Line
	4650 4800 4650 5000
Wire Wire Line
	4650 5400 4650 5450
Wire Wire Line
	4400 5450 5400 5450
Wire Wire Line
	4650 4800 4800 4800
Connection ~ 4650 4950
Wire Wire Line
	5300 4800 5400 4800
Wire Wire Line
	5400 4800 5400 4900
Wire Wire Line
	5400 5450 5400 5300
Connection ~ 4650 5450
$Comp
L CONN_2 P4
U 1 1 52990D21
P 5150 5100
F 0 "P4" V 5100 5100 40  0000 C CNN
F 1 "5VOUT" V 5200 5100 40  0000 C CNN
F 2 "~" H 5150 5100 60  0000 C CNN
F 3 "~" H 5150 5100 60  0000 C CNN
	1    5150 5100
	1    0    0    -1  
$EndComp
Wire Wire Line
	4800 4950 4800 5000
Wire Wire Line
	4800 5200 4800 5450
Connection ~ 4800 5450
$Comp
L CONN_2 P3
U 1 1 52990DEF
P 5600 3450
F 0 "P3" V 5550 3450 40  0000 C CNN
F 1 "12VOUT2" V 5650 3450 40  0000 C CNN
F 2 "~" H 5600 3450 60  0000 C CNN
F 3 "~" H 5600 3450 60  0000 C CNN
	1    5600 3450
	1    0    0    -1  
$EndComp
Wire Wire Line
	5250 3000 5250 3350
Connection ~ 5050 3000
Wire Wire Line
	5250 3950 5250 3550
Connection ~ 5050 3950
$Comp
L CONN_2 P2
U 1 1 52990EC4
P 5600 1650
F 0 "P2" V 5550 1650 40  0000 C CNN
F 1 "12VOUT1" V 5650 1650 40  0000 C CNN
F 2 "~" H 5600 1650 60  0000 C CNN
F 3 "~" H 5600 1650 60  0000 C CNN
	1    5600 1650
	1    0    0    -1  
$EndComp
Wire Wire Line
	5250 1200 5250 1550
Connection ~ 5050 1200
Wire Wire Line
	5250 2150 5250 1750
Connection ~ 5050 2150
$Comp
L R R5
U 1 1 529912A5
P 1400 6250
F 0 "R5" V 1480 6250 40  0000 C CNN
F 1 "10k 1W" V 1407 6251 40  0000 C CNN
F 2 "~" V 1330 6250 30  0000 C CNN
F 3 "~" H 1400 6250 30  0000 C CNN
	1    1400 6250
	1    0    0    -1  
$EndComp
Wire Wire Line
	1400 6600 1400 6500
Connection ~ 1200 6600
Wire Wire Line
	1400 6000 1400 5900
Wire Wire Line
	1400 5900 1200 5900
Connection ~ 1200 5900
NoConn ~ 4400 5900
NoConn ~ 2700 3950
NoConn ~ 2700 2150
Text GLabel 3600 2550 3    60   BiDi ~ 0
CB
Text GLabel 3750 2550 3    60   BiDi ~ 0
VB
Text GLabel 3600 4350 3    60   BiDi ~ 0
CB
Text GLabel 3750 4350 3    60   BiDi ~ 0
VB
Wire Wire Line
	2000 1300 2000 1400
Wire Wire Line
	2000 1900 2000 1800
$Comp
L DIODE D1
U 1 1 5298FE5B
P 2000 1600
F 0 "D1" H 2000 1700 40  0000 C CNN
F 1 "5kW TVS" H 2000 1500 40  0000 C CNN
F 2 "~" H 2000 1600 60  0000 C CNN
F 3 "~" H 2000 1600 60  0000 C CNN
	1    2000 1600
	0    -1   -1   0   
$EndComp
$EndSCHEMATC
