PCBNEW-LibModule-V1  Wed 01 Jan 2014 05:06:06 PM PST
# encoding utf-8
Units mm
$INDEX
AHRF200
CBS350-450
COSELCDS600
COSELMGS30
Fuse-Holder-2AG
Fuse-Holder-3AG
QW050B1
RGEF800
RUEF800
Terminal-Block-90A
diode_5kp58a
hole_1mm_front
hole_3mm_thick
terminal-1x2-large
terminal-2x3-medium
terminal-2x4-medium
$EndINDEX
$MODULE AHRF200
Po 0 0 0 15 518C90A6 00000000 ~~
Li AHRF200
Sc 0
AR 
Op 0 0 0
T0 0 -2.921 1.5 1.5 0 0.15 N V 21 N "AHRF200"
T1 0 3.302 1.5 1.5 0 0.15 N V 21 N "TH**"
DS -0.127 0.635 0.508 0.635 0.15 21
DS 0.508 0.635 0.508 1.27 0.15 21
DS 0.508 1.27 1.016 1.778 0.15 21
DS -0.508 -0.635 1.905 -0.635 0.15 21
DS 1.905 -0.635 2.54 0 0.15 21
DS 2.54 0 2.54 1.143 0.15 21
DS 2.54 1.143 1.905 1.778 0.15 21
DS 1.905 1.778 1.016 1.778 0.15 21
DS -0.127 0.635 -2.032 0.635 0.15 21
DS -2.032 0.635 -2.667 0 0.15 21
DS -2.667 0 -2.667 -0.889 0.15 21
DS -2.667 -0.889 -2.667 -1.016 0.15 21
DS -2.667 -1.016 -1.905 -1.778 0.15 21
DS -1.905 -1.778 -1.016 -1.778 0.15 21
DS -1.016 -1.778 -0.508 -1.27 0.15 21
DS -0.508 -1.27 -0.508 -0.635 0.15 21
$PAD
Sh "1" C 1.27 1.27 0 0 0
Dr 0.762 0 0
At STD N 00E0FFFF
Ne 0 ""
Po -1.524 -0.635
$EndPAD
$PAD
Sh "2" C 1.27 1.27 0 0 0
Dr 0.762 0 0
At STD N 00E0FFFF
Ne 0 ""
Po 1.524 0.635
$EndPAD
$EndMODULE AHRF200
$MODULE CBS350-450
Po 0 0 0 15 518C8F7A 00000000 ~~
Li CBS350-450
Sc 0
AR 
Op 0 0 0
T0 0 -33.02 1.5 1.5 0 0.15 N V 21 N "CBS350-450"
T1 0 33.02 1.5 1.5 0 0.15 N V 21 N "PS**"
DS 20.955 -10.16 20.955 10.16 0.15 21
DS -20.955 5.08 -20.955 20.32 0.15 21
DS -20.955 -20.32 -20.955 -5.08 0.15 21
DS 20.32 -10.16 20.32 10.16 0.15 21
DS -28.956 -5.08 -20.32 -5.08 0.15 21
DS -20.32 -5.08 -20.32 -20.32 0.15 21
DS -20.32 -20.32 -28.956 -20.32 0.15 21
DS -28.956 5.08 -20.32 5.08 0.15 21
DS -20.32 5.08 -20.32 20.32 0.15 21
DS -20.32 20.32 -28.956 20.32 0.15 21
DS 28.956 -10.16 20.32 -10.16 0.15 21
DS 20.32 10.16 28.956 10.16 0.15 21
DS -28.956 -30.48 28.956 -30.48 0.15 21
DS 28.956 -30.48 28.956 30.48 0.15 21
DS 28.956 30.48 -28.956 30.48 0.15 21
DS -28.956 30.48 -28.956 -30.48 0.15 21
$PAD
Sh "10" T 4.064 4.064 0 0 450
Dr 3.556 0 0
At STD N 00E0FFFF
Ne 0 ""
Po 24.13 25.4
$EndPAD
$PAD
Sh "10" T 4.064 4.064 0 0 450
Dr 3.556 0 0
At STD N 00E0FFFF
Ne 0 ""
Po -24.13 25.4
$EndPAD
$PAD
Sh "10" T 4.064 4.064 0 0 450
Dr 3.556 0 0
At STD N 00E0FFFF
Ne 0 ""
Po 24.13 -25.4
$EndPAD
$PAD
Sh "10" T 4.064 4.064 0 0 450
Dr 3.556 0 0
At STD N 00E0FFFF
Ne 0 ""
Po -24.13 -25.4
$EndPAD
$PAD
Sh "9" C 4.318 4.318 0 0 450
Dr 2.54 0 0
At STD N 00E0FFFF
Ne 0 ""
Po 24.13 17.78
$EndPAD
$PAD
Sh "8" C 2.286 2.286 0 0 450
Dr 1.524 0 0
At STD N 00E0FFFF
Ne 0 ""
Po 24.13 7.62
$EndPAD
$PAD
Sh "7" C 2.286 2.286 0 0 450
Dr 1.524 0 0
At STD N 00E0FFFF
Ne 0 ""
Po 24.13 0
$EndPAD
$PAD
Sh "6" C 2.286 2.286 0 0 450
Dr 1.524 0 0
At STD N 00E0FFFF
Ne 0 ""
Po 24.13 -7.62
$EndPAD
$PAD
Sh "5" C 4.318 4.318 0 0 450
Dr 2.54 0 0
At STD N 00E0FFFF
Ne 0 ""
Po 24.13 -17.78
$EndPAD
$PAD
Sh "1" C 2.286 2.286 0 0 450
Dr 1.524 0 0
At STD N 00E0FFFF
Ne 0 ""
Po -24.13 -17.78
$EndPAD
$PAD
Sh "2" C 2.286 2.286 0 0 450
Dr 1.524 0 0
At STD N 00E0FFFF
Ne 0 ""
Po -24.13 -7.62
$EndPAD
$PAD
Sh "3" C 2.286 2.286 0 0 450
Dr 1.524 0 0
At STD N 00E0FFFF
Ne 0 ""
Po -24.13 7.62
$EndPAD
$PAD
Sh "4" C 2.286 2.286 0 0 450
Dr 1.524 0 0
At STD N 00E0FFFF
Ne 0 ""
Po -24.13 17.78
$EndPAD
$EndMODULE CBS350-450
$MODULE COSELCDS600
Po 0 0 0 15 52995117 00000000 ~~
Li COSELCDS600
Sc 0
AR 
Op 0 0 0
T0 0 -33.02 1 1 0 0.15 N V 21 N "COSELCDS600"
T1 0 33.02 1 1 0 0.15 N V 21 N "VAL**"
DS -58.42 -30.48 58.42 -30.48 0.15 21
DS 58.42 -30.48 58.42 30.48 0.15 21
DS 58.42 30.48 -58.42 30.48 0.15 21
DS -58.42 30.48 -58.42 -30.48 0.15 21
$PAD
Sh "50" C 6.096 6.096 0 0 0
Dr 3.556 0 0
At STD N 00E0FFFF
Ne 0 ""
Po -53.34 -25.4
$EndPAD
$PAD
Sh "50" C 6.096 6.096 0 0 0
Dr 3.556 0 0
At STD N 00E0FFFF
Ne 0 ""
Po -53.34 25.4
$EndPAD
$PAD
Sh "50" C 6.096 6.096 0 0 0
Dr 3.556 0 0
At STD N 00E0FFFF
Ne 0 ""
Po 53.34 25.4
$EndPAD
$PAD
Sh "50" C 6.096 6.096 0 0 0
Dr 3.556 0 0
At STD N 00E0FFFF
Ne 0 ""
Po 53.34 -25.4
$EndPAD
$PAD
Sh "18" C 2.032 2.032 0 0 0
Dr 1.27 0 0
At STD N 00E0FFFF
Ne 0 ""
Po 16.51 25.146
$EndPAD
$PAD
Sh "17" C 2.032 2.032 0 0 0
Dr 1.27 0 0
At STD N 00E0FFFF
Ne 0 ""
Po 13.97 25.146
$EndPAD
$PAD
Sh "16" C 2.032 2.032 0 0 0
Dr 1.27 0 0
At STD N 00E0FFFF
Ne 0 ""
Po 11.43 25.146
$EndPAD
$PAD
Sh "15" C 2.032 2.032 0 0 0
Dr 1.27 0 0
At STD N 00E0FFFF
Ne 0 ""
Po 8.89 25.146
$EndPAD
$PAD
Sh "14" C 2.032 2.032 0 0 0
Dr 1.27 0 0
At STD N 00E0FFFF
Ne 0 ""
Po 6.35 25.146
$EndPAD
$PAD
Sh "23" C 2.032 2.032 0 0 0
Dr 1.27 0 0
At STD N 00E0FFFF
Ne 0 ""
Po 16.51 22.606
$EndPAD
$PAD
Sh "22" C 2.032 2.032 0 0 0
Dr 1.27 0 0
At STD N 00E0FFFF
Ne 0 ""
Po 13.97 22.606
$EndPAD
$PAD
Sh "21" C 2.032 2.032 0 0 0
Dr 1.27 0 0
At STD N 00E0FFFF
Ne 0 ""
Po 11.43 22.606
$EndPAD
$PAD
Sh "20" C 2.032 2.032 0 0 0
Dr 1.27 0 0
At STD N 00E0FFFF
Ne 0 ""
Po 8.89 22.606
$EndPAD
$PAD
Sh "19" C 2.032 2.032 0 0 0
Dr 1.27 0 0
At STD N 00E0FFFF
Ne 0 ""
Po 6.35 22.606
$EndPAD
$PAD
Sh "10" C 2.54 2.54 0 0 0
Dr 1.778 0 0
At STD N 00E0FFFF
Ne 0 ""
Po 50.8 15.24
$EndPAD
$PAD
Sh "10" C 2.54 2.54 0 0 0
Dr 1.778 0 0
At STD N 00E0FFFF
Ne 0 ""
Po 50.8 11.43
$EndPAD
$PAD
Sh "10" C 2.54 2.54 0 0 0
Dr 1.778 0 0
At STD N 00E0FFFF
Ne 0 ""
Po 50.8 7.62
$EndPAD
$PAD
Sh "10" C 2.54 2.54 0 0 0
Dr 1.778 0 0
At STD N 00E0FFFF
Ne 0 ""
Po 50.8 3.81
$EndPAD
$PAD
Sh "6" C 2.54 2.54 0 0 0
Dr 1.778 0 0
At STD N 00E0FFFF
Ne 0 ""
Po 50.8 -3.81
$EndPAD
$PAD
Sh "6" C 2.54 2.54 0 0 0
Dr 1.778 0 0
At STD N 00E0FFFF
Ne 0 ""
Po 50.8 -7.62
$EndPAD
$PAD
Sh "6" C 2.54 2.54 0 0 0
Dr 1.778 0 0
At STD N 00E0FFFF
Ne 0 ""
Po 50.8 -11.43
$EndPAD
$PAD
Sh "6" C 2.54 2.54 0 0 0
Dr 1.778 0 0
At STD N 00E0FFFF
Ne 0 ""
Po 50.8 -15.24
$EndPAD
$PAD
Sh "5" C 2.54 2.54 0 0 0
Dr 1.778 0 0
At STD N 00E0FFFF
Ne 0 ""
Po -50.8 11.43
$EndPAD
$PAD
Sh "3" C 2.54 2.54 0 0 0
Dr 1.778 0 0
At STD N 00E0FFFF
Ne 0 ""
Po -50.8 7.62
$EndPAD
$PAD
Sh "3" C 2.54 2.54 0 0 0
Dr 1.778 0 0
At STD N 00E0FFFF
Ne 0 ""
Po -50.8 3.81
$EndPAD
$PAD
Sh "1" C 2.54 2.54 0 0 0
Dr 1.778 0 0
At STD N 00E0FFFF
Ne 0 ""
Po -50.8 -3.81
$EndPAD
$PAD
Sh "1" C 2.54 2.54 0 0 0
Dr 1.778 0 0
At STD N 00E0FFFF
Ne 0 ""
Po -50.8 -7.62
$EndPAD
$EndMODULE COSELCDS600
$MODULE COSELMGS30
Po 0 0 0 15 52992397 00000000 ~~
Li COSELMGS30
Sc 0
AR 
Op 0 0 0
T0 0 -13.97 1 1 0 0.15 N V 21 N "COSELMGS30"
T1 0 13.97 1 1 0 0.15 N V 21 N "VAL**"
DS -25.4 -12.7 25.4 -12.7 0.15 21
DS 25.4 -12.7 25.4 12.7 0.15 21
DS 25.4 12.7 -25.4 12.7 0.15 21
DS -25.4 12.7 -25.4 -12.7 0.15 21
$PAD
Sh "5" C 2.54 2.54 0 0 0
Dr 1.524 0 0
At STD N 00E0FFFF
Ne 0 ""
Po 22.86 0
$EndPAD
$PAD
Sh "6" C 2.54 2.54 0 0 0
Dr 1.524 0 0
At STD N 00E0FFFF
Ne 0 ""
Po 22.86 -10.16
$EndPAD
$PAD
Sh "4" C 2.54 2.54 0 0 0
Dr 1.524 0 0
At STD N 00E0FFFF
Ne 0 ""
Po 22.86 10.16
$EndPAD
$PAD
Sh "3" C 2.54 2.54 0 0 0
Dr 1.524 0 0
At STD N 00E0FFFF
Ne 0 ""
Po -22.86 -7.62
$EndPAD
$PAD
Sh "2" C 2.54 2.54 0 0 0
Dr 1.524 0 0
At STD N 00E0FFFF
Ne 0 ""
Po -22.86 2.54
$EndPAD
$PAD
Sh "1" C 2.54 2.54 0 0 0
Dr 1.524 0 0
At STD N 00E0FFFF
Ne 0 ""
Po -22.86 7.62
$EndPAD
$EndMODULE COSELMGS30
$MODULE Fuse-Holder-2AG
Po 0 0 0 15 52992C7F 00000000 ~~
Li Fuse-Holder-2AG
Sc 0
AR 
Op 0 0 0
T0 0 -5.461 1 1 0 0.15 N V 21 N "Fuse-Holder-2AG"
T1 0 5.588 1 1 0 0.15 N V 21 N "VAL**"
DS -8.89 -4.445 8.89 -4.445 0.15 21
DS 8.89 -4.445 8.89 4.445 0.15 21
DS 8.89 4.445 -8.89 4.445 0.15 21
DS -8.89 4.445 -8.89 -4.445 0.15 21
$PAD
Sh "1" C 1.905 1.905 0 0 0
Dr 1.397 0 0
At STD N 00E0FFFF
Ne 0 ""
Po -9.271 0
$EndPAD
$PAD
Sh "2" C 1.905 1.905 0 0 0
Dr 1.397 0 0
At STD N 00E0FFFF
Ne 0 ""
Po 9.271 0
$EndPAD
$PAD
Sh "" C 2.794 2.794 0 0 0
Dr 2.286 0 0
At STD N 00E0FFFF
Ne 0 ""
Po 0 0
$EndPAD
$EndMODULE Fuse-Holder-2AG
$MODULE Fuse-Holder-3AG
Po 0 0 0 15 52992C88 00000000 ~~
Li Fuse-Holder-3AG
Sc 0
AR 
Op 0 0 0
T0 0 -8.89 1.5 1.5 0 0.15 N V 21 N "Fuse-Holder-3AG"
T1 0 8.89 1.5 1.5 0 0.15 N V 21 N "F**"
DS 17.78 -6.35 -17.78 -6.35 0.15 21
DS -17.78 -6.35 -17.78 6.35 0.15 21
DS -17.78 6.35 17.78 6.35 0.15 21
DS 17.78 6.35 17.78 -6.35 0.15 21
$PAD
Sh "1" C 3.048 3.048 0 0 0
Dr 1.524 0 0
At STD N 00E0FFFF
Ne 0 ""
Po -17.78 0
$EndPAD
$PAD
Sh "2" C 3.048 3.048 0 0 0
Dr 1.524 0 0
At STD N 00E0FFFF
Ne 0 ""
Po 17.78 0
$EndPAD
$PAD
Sh "" C 4.318 4.318 0 0 0
Dr 3.81 0 0
At STD N 00E0FFFF
Ne 0 ""
Po 0 0
.ZoneConnection 0
$EndPAD
$SHAPE3D
Na "lib/fuse_socket.wrl"
Sc 1.58 1.3 1
Of 0 0 0
Ro 0 0 0
$EndSHAPE3D
$EndMODULE Fuse-Holder-3AG
$MODULE QW050B1
Po 0 0 0 15 518C9762 00000000 ~~
Li QW050B1
Sc 0
AR 
Op 0 0 0
T0 0 -20.32 1.5 1.5 0 0.15 N V 21 N "QW050B1"
T1 0 20.955 1.5 1.5 0 0.15 N V 21 N "PS**"
DS -28.956 18.415 28.956 18.415 0.15 21
DS 28.956 18.415 28.956 -18.415 0.15 21
DS 28.956 -18.415 -28.956 -18.415 0.15 21
DS -28.956 -18.415 -28.956 18.415 0.15 21
$PAD
Sh "8" C 3.048 3.048 0 0 0
Dr 2.032 0 0
At STD N 00E0FFFF
Ne 0 ""
Po 25.4 7.62
$EndPAD
$PAD
Sh "6" C 2.032 2.032 0 0 0
Dr 1.524 0 0
At STD N 00E0FFFF
Ne 0 ""
Po 25.4 0
$EndPAD
$PAD
Sh "7" C 2.032 2.032 0 0 0
Dr 1.524 0 0
At STD N 00E0FFFF
Ne 0 ""
Po 25.4 3.81
$EndPAD
$PAD
Sh "5" C 2.032 2.032 0 0 0
Dr 1.524 0 0
At STD N 00E0FFFF
Ne 0 ""
Po 25.4 -3.81
$EndPAD
$PAD
Sh "4" C 3.048 3.048 0 0 0
Dr 2.032 0 0
At STD N 00E0FFFF
Ne 0 ""
Po 25.4 -7.62
$EndPAD
$PAD
Sh "3" C 2.032 2.032 0 0 0
Dr 1.524 0 0
At STD N 00E0FFFF
Ne 0 ""
Po -25.4 7.62
$EndPAD
$PAD
Sh "2" C 2.032 2.032 0 0 0
Dr 1.524 0 0
At STD N 00E0FFFF
Ne 0 ""
Po -25.4 0
$EndPAD
$PAD
Sh "9" C 4.572 4.572 0 0 0
Dr 3.556 0 0
At STD N 00E0FFFF
Ne 0 ""
Po 23.622 13.081
$EndPAD
$PAD
Sh "9" C 4.572 4.572 0 0 0
Dr 3.556 0 0
At STD N 00E0FFFF
Ne 0 ""
Po 23.622 -13.081
$EndPAD
$PAD
Sh "9" C 4.572 4.572 0 0 0
Dr 3.556 0 0
At STD N 00E0FFFF
Ne 0 ""
Po -23.622 -13.081
$EndPAD
$PAD
Sh "9" C 4.572 4.572 0 0 0
Dr 3.556 0 0
At STD N 00E0FFFF
Ne 0 ""
Po -23.622 13.081
$EndPAD
$PAD
Sh "1" C 2.032 2.032 0 0 0
Dr 1.524 0 0
At STD N 00E0FFFF
Ne 0 ""
Po -25.4 -7.62
$EndPAD
$PAD
Sh "9" R 2.54 1.27 0 0 0
Dr 1.143 0 0
At STD N 00E0FFFF
Ne 0 ""
Po 13.2461 18.796
$EndPAD
$EndMODULE QW050B1
$MODULE RGEF800
Po 0 0 0 15 518C90FA 00000000 ~~
Li RGEF800
Sc 0
AR 
Op 0 0 0
T0 0 -3.302 1.5 1.5 0 0.15 N V 21 N "RGEF800"
T1 0 3.556 1.5 1.5 0 0.15 N V 21 N "TH**"
DS -6.35 -1.778 6.35 -1.778 0.15 21
DS -6.35 1.778 6.35 1.778 0.15 21
DS 6.35 1.778 6.35 -1.778 0.15 21
DS -6.35 -1.778 -6.35 1.778 0.15 21
$PAD
Sh "1" C 2.032 2.032 0 0 0
Dr 1.016 0 0
At STD N 00E0FFFF
Ne 0 ""
Po -2.921 0
$EndPAD
$PAD
Sh "2" C 2.032 2.032 0 0 0
Dr 1.016 0 0
At STD N 00E0FFFF
Ne 0 ""
Po 2.921 0
$EndPAD
$EndMODULE RGEF800
$MODULE RUEF800
Po 0 0 0 15 518C9105 00000000 ~~
Li RUEF800
Sc 0
AR 
Op 0 0 0
T0 0 -3.302 1.5 1.5 0 0.15 N V 21 N "RUEF800"
T1 0 3.556 1.5 1.5 0 0.15 N V 21 N "TH**"
DS -10.922 1.778 10.922 1.778 0.15 21
DS 10.922 -1.778 -10.922 -1.778 0.15 21
DS 10.922 1.778 10.922 -1.778 0.15 21
DS -10.922 -1.778 -10.922 1.778 0.15 21
$PAD
Sh "1" C 2.032 2.032 0 0 0
Dr 1.016 0 0
At STD N 00E0FFFF
Ne 0 ""
Po -5.461 0
$EndPAD
$PAD
Sh "2" C 2.032 2.032 0 0 0
Dr 1.016 0 0
At STD N 00E0FFFF
Ne 0 ""
Po 5.461 0
$EndPAD
$EndMODULE RUEF800
$MODULE Terminal-Block-90A
Po 0 0 0 15 52992CDF 00000000 ~~
Li Terminal-Block-90A
Sc 0
AR 
Op 0 0 0
T0 15.24 -1.143 1 1 0 0.15 N V 21 N "Terminal-Block-90A"
T1 13.716 21.717 1 1 0 0.15 N V 21 N "VAL**"
DS 0 0 29.21 0 0.15 21
DS 29.21 0 29.21 20.32 0.15 21
DS 29.21 20.32 0 20.32 0.15 21
DS 0 20.32 0 0 0.15 21
$PAD
Sh "2" C 2.54 2.54 0 0 0
Dr 1.524 0 0
At STD N 00E0FFFF
Ne 0 ""
Po 24.0792 13.97
$EndPAD
$PAD
Sh "2" C 2.54 2.54 0 0 0
Dr 1.524 0 0
At STD N 00E0FFFF
Ne 0 ""
Po 20.0914 13.97
$EndPAD
$PAD
Sh "1" C 2.54 2.54 0 0 0
Dr 1.524 0 0
At STD N 00E0FFFF
Ne 0 ""
Po 9.0678 13.97
$EndPAD
$PAD
Sh "1" C 2.54 2.54 0 0 0
Dr 1.524 0 0
At STD N 00E0FFFF
Ne 0 ""
Po 5.08 13.97
$EndPAD
$PAD
Sh "1" C 2.54 2.54 0 0 0
Dr 1.524 0 0
At STD N 00E0FFFF
Ne 0 ""
Po 5.08 2.286
$EndPAD
$PAD
Sh "1" C 2.54 2.54 0 0 0
Dr 1.524 0 0
At STD N 00E0FFFF
Ne 0 ""
Po 9.0678 2.286
$EndPAD
$PAD
Sh "2" C 2.54 2.54 0 0 0
Dr 1.524 0 0
At STD N 00E0FFFF
Ne 0 ""
Po 20.0914 2.286
$EndPAD
$PAD
Sh "2" C 2.54 2.54 0 0 0
Dr 1.524 0 0
At STD N 00E0FFFF
Ne 0 ""
Po 24.0792 2.286
$EndPAD
$EndMODULE Terminal-Block-90A
$MODULE diode_5kp58a
Po 0 0 0 15 518C90C0 00000000 ~~
Li diode_5kp58a
Cd Diode, DO-201 package
Sc 0
AR 
Op 0 0 0
T0 0 6.096 1.524 1.524 0 0.3048 N V 21 N "diode_5kp58a"
T1 0 -6.096 1.524 1.524 0 0.3048 N V 21 N "D***"
DS 2.413 4.572 2.413 -4.572 0.3048 21
DS 2.667 -4.572 2.667 4.572 0.3048 21
DS 2.921 4.572 2.921 -4.572 0.3048 21
DS 3.175 -4.572 3.175 4.572 0.3048 21
DS 7.62 0 4.699 0 0.3048 21
DS -7.62 0 -4.699 0 0.3048 21
DS -4.699 4.572 -4.699 -4.572 0.3048 21
DS -4.699 -4.572 4.699 -4.572 0.3048 21
DS 4.699 -4.572 4.699 4.572 0.3048 21
DS 4.699 4.572 -4.699 4.572 0.3048 21
$PAD
Sh "1" C 2.49936 2.49936 0 0 0
Dr 1.5748 0 0
At STD N 00E0FFFF
Ne 0 ""
Po -7.62 0
$EndPAD
$PAD
Sh "2" C 2.49936 2.49936 0 0 0
Dr 1.5748 0 0
At STD N 00E0FFFF
Ne 0 ""
Po 7.62 0
$EndPAD
$SHAPE3D
Na "walter/pth_diodes/diode_do201.wrl"
Sc 1 2 2
Of 0 0 0
Ro 0 0 0
$EndSHAPE3D
$EndMODULE diode_5kp58a
$MODULE hole_1mm_front
Po 0 0 0 15 52C4BB79 00000000 ~~
Li hole_1mm_front
Cd Hole 1mm
Sc 0
AR 
Op 0 0 0
T0 0 -2.286 1.524 1.524 0 0.3048 N V 21 N "hole_1mm"
T1 0 2.032 1.524 1.524 0 0.3048 N V 21 N "VAL**"
DS 0 -1.016 0 1.016 0.254 21
DS -1.016 0 1.016 0 0.254 21
DC 0 0 0.762 0 0.254 21
$PAD
Sh "1" C 1.00076 1.00076 0 0 0
Dr 1.00076 0 0
At STD N 00208000
Ne 0 ""
Po 0 0
$EndPAD
$SHAPE3D
Na "walter/details/hole.wrl"
Sc 1 1 1
Of 0 0 0
Ro 0 0 0
$EndSHAPE3D
$EndMODULE hole_1mm_front
$MODULE hole_3mm_thick
Po 0 0 0 15 52C4BAD3 00000000 ~~
Li hole_3mm_thick
Cd Hole 3mm
Sc 0
AR 
Op 0 0 0
T0 0 -3.302 1.524 1.524 0 0.3048 N V 21 N "hole_3mm"
T1 0 3.048 1.524 1.524 0 0.3048 N V 21 N "VAL**"
DS 0 -2.159 0 2.159 0.254 21
DS -2.159 0 2.159 0 0.254 21
DC 0 0 1.778 0 0.254 21
$PAD
Sh "1" C 4.318 4.318 0 0 0
Dr 2.99974 0 0
At STD N 00E00001
Ne 0 ""
Po 0 0
$EndPAD
$SHAPE3D
Na "walter/details/hole.wrl"
Sc 1 1 1
Of 0 0 0
Ro 0 0 0
$EndSHAPE3D
$EndMODULE hole_3mm_thick
$MODULE terminal-1x2-large
Po 0 0 0 15 518CA39F 00000000 ~~
Li terminal-1x2-large
Sc 0
AR 
Op 0 0 0
T0 0 -10.795 1.5 1.5 0 0.15 N V 21 N "terminal-1x2-large"
T1 0 10.795 1.5 1.5 0 0.15 N V 21 N "P**"
DS 12.7 9.525 -12.7 9.525 0.15 21
DS -12.7 -9.525 12.7 -9.525 0.15 21
DS 12.7 -9.525 12.7 9.525 0.15 21
DS -12.7 -9.525 -12.7 9.525 0.15 21
$PAD
Sh "2" O 6.35 3.81 0 0 0
Dr 1.524 0 0
At STD N 00E0FFFF
Ne 0 ""
Po 7.0866 5.08
$EndPAD
$PAD
Sh "2" O 6.35 3.81 0 0 0
Dr 1.524 0 0
At STD N 00E0FFFF
Ne 0 ""
Po 3.0734 5.08
$EndPAD
$PAD
Sh "1" O 6.35 3.81 0 0 0
Dr 1.524 0 0
At STD N 00E0FFFF
Ne 0 ""
Po -7.0866 -5.08
$EndPAD
$PAD
Sh "1" O 6.35 3.81 0 0 0
Dr 1.524 0 0
At STD N 00E0FFFF
Ne 0 ""
Po -3.0734 -5.08
$EndPAD
$SHAPE3D
Na "walter/conn_mpt/mpt_0,5-2-2,54.wrl"
Sc 3.75 3 2.5
Of 0 0 0
Ro 0 0 0
$EndSHAPE3D
$EndMODULE terminal-1x2-large
$MODULE terminal-2x3-medium
Po 0 0 0 15 518CA3DA 00000000 ~~
Li terminal-2x3-medium
Sc 0
AR 
Op 0 0 0
T0 0 -12.7 1.5 1.5 0 0.15 N V 21 N "terminal-2x3-medium"
T1 0 12.7 1.5 1.5 0 0.15 N V 21 N "P**"
DS 8.89 0 6.35 0 0.15 21
DS 6.35 0 6.35 -10.7442 0.15 21
DS 6.35 -10.7442 -8.89 -10.7442 0.15 21
DS -8.89 0 -6.35 0 0.15 21
DS -6.35 0 -6.35 10.7442 0.15 21
DS -6.35 10.7442 8.89 10.7442 0.15 21
DS 8.89 0 8.89 10.7442 0.15 21
DS -8.89 -10.7442 -8.89 0 0.15 21
$PAD
Sh "2" C 2.286 2.286 0 0 0
Dr 1.524 0 0
At STD N 00E0FFFF
Ne 0 ""
Po -3.81 7.62
$EndPAD
$PAD
Sh "4" C 2.286 2.286 0 0 0
Dr 1.524 0 0
At STD N 00E0FFFF
Ne 0 ""
Po 1.27 7.62
$EndPAD
$PAD
Sh "6" C 2.286 2.286 0 0 0
Dr 1.524 0 0
At STD N 00E0FFFF
Ne 0 ""
Po 6.35 7.62
$EndPAD
$PAD
Sh "5" C 2.286 2.286 0 0 0
Dr 1.524 0 0
At STD N 00E0FFFF
Ne 0 ""
Po 3.81 -7.62
$EndPAD
$PAD
Sh "3" C 2.286 2.286 0 0 0
Dr 1.524 0 0
At STD N 00E0FFFF
Ne 0 ""
Po -1.27 -7.62
$EndPAD
$PAD
Sh "1" C 2.286 2.286 0 0 0
Dr 1.524 0 0
At STD N 00E0FFFF
Ne 0 ""
Po -6.35 -7.62
$EndPAD
$SHAPE3D
Na "walter/conn_mpt/mpt_0,5-3-2,54.wrl"
Sc 1.95 1.68 1.5
Of 0.05 -0.3 0
Ro 0 0 0
$EndSHAPE3D
$SHAPE3D
Na "walter/conn_mpt/mpt_0,5-3-2,54.wrl"
Sc 1.95 1.68 1.5
Of -0.05 0.1 0.45
Ro 0 0 0
$EndSHAPE3D
$SHAPE3D
Na "walter/conn_mpt/mpt_0,5-3-2,54.wrl"
Sc 1.95 1.68 1.5
Of -0.05 0.2 0
Ro 0 0 0
$EndSHAPE3D
$SHAPE3D
Na "walter/conn_mpt/mpt_0,5-3-2,54.wrl"
Sc 1.95 1.68 1.5
Of -0.05 0 0
Ro 0 0 180
$EndSHAPE3D
$EndMODULE terminal-2x3-medium
$MODULE terminal-2x4-medium
Po 0 0 0 15 52548D71 00000000 ~~
Li terminal-2x4-medium
Sc 0
AR 
Op 0 0 0
T0 0 -12.7 1.5 1.5 0 0.15 N V 21 N "terminal-2x4-medium"
T1 0 15.24 1.5 1.5 0 0.15 N V 21 N "P**"
DS -11.43 -6.35 -11.43 2.54 0.15 21
DS 8.89 -6.35 8.89 2.54 0.15 21
DS -8.89 10.922 11.43 10.922 0.15 21
DS -11.43 2.54 -8.89 2.54 0.15 21
DS -8.89 2.54 -8.89 11.43 0.15 21
DS -8.89 11.43 11.43 11.43 0.15 21
DS 11.43 11.43 11.43 2.54 0.15 21
DS 11.43 2.54 8.89 2.54 0.15 21
DS -11.43 -6.35 8.89 -6.35 0.15 21
$PAD
Sh "1" C 2.286 2.286 0 0 0
Dr 1.524 0 0
At STD N 00E0FFFF
Ne 0 ""
Po -8.89 -2.54
$EndPAD
$PAD
Sh "3" C 2.286 2.286 0 0 0
Dr 1.524 0 0
At STD N 00E0FFFF
Ne 0 ""
Po -3.81 -2.54
$EndPAD
$PAD
Sh "5" C 2.286 2.286 0 0 0
Dr 1.524 0 0
At STD N 00E0FFFF
Ne 0 ""
Po 1.27 -2.54
$EndPAD
$PAD
Sh "2" C 2.286 2.286 0 0 0
Dr 1.524 0 0
At STD N 00E0FFFF
Ne 0 ""
Po -6.35 7.62
$EndPAD
$PAD
Sh "4" C 2.286 2.286 0 0 0
Dr 1.524 0 0
At STD N 00E0FFFF
Ne 0 ""
Po -1.27 7.62
$EndPAD
$PAD
Sh "6" C 2.286 2.286 0 0 0
Dr 1.524 0 0
At STD N 00E0FFFF
Ne 0 ""
Po 3.81 7.62
$EndPAD
$PAD
Sh "8" C 2.286 2.286 0 0 0
Dr 1.524 0 0
At STD N 00E0FFFF
Ne 0 ""
Po 8.89 7.62
$EndPAD
$PAD
Sh "7" C 2.286 2.286 0 0 0
Dr 1.524 0 0
At STD N 00E0FFFF
Ne 0 ""
Po 6.35 -2.54
$EndPAD
$SHAPE3D
Na "walter/conn_mpt/mpt_0,5-4-2,54.wrl"
Sc 1.95 1.68 1.5
Of 0.05 -0.3 0.01
Ro 0 0 0
$EndSHAPE3D
$SHAPE3D
Na "walter/conn_mpt/mpt_0,5-4-2,54.wrl"
Sc 1.95 1.68 1.5
Of -0.05 0.1 0.45
Ro 0 0 0
$EndSHAPE3D
$SHAPE3D
Na "walter/conn_mpt/mpt_0,5-4-2,54.wrl"
Sc 1.95 1.68 1.5
Of -0.05 0.2 0
Ro 0 0 0
$EndSHAPE3D
$SHAPE3D
Na "walter/conn_mpt/mpt_0,5-4-2,54.wrl"
Sc 1.95 1.68 1.5
Of -0.05 0 0
Ro 0 0 180
$EndSHAPE3D
$EndMODULE terminal-2x4-medium
$EndLIBRARY
