EESchema Schematic File Version 2  date Sun 15 Dec 2013 05:40:19 PM PST
LIBS:power
LIBS:device
LIBS:transistors
LIBS:conn
LIBS:linear
LIBS:regul
LIBS:74xx
LIBS:cmos4000
LIBS:adc-dac
LIBS:memory
LIBS:xilinx
LIBS:special
LIBS:microcontrollers
LIBS:dsp
LIBS:microchip
LIBS:analog_switches
LIBS:motorola
LIBS:texas
LIBS:intel
LIBS:audio
LIBS:interface
LIBS:digital-audio
LIBS:philips
LIBS:display
LIBS:cypress
LIBS:siliconi
LIBS:opto
LIBS:atmel
LIBS:contrib
LIBS:valves
LIBS:MSP430G2231
LIBS:AVRProg910-cache
EELAYER 24 0
EELAYER END
$Descr A4 11693 8268
encoding utf-8
Sheet 1 1
Title ""
Date "16 dec 2013"
Rev ""
Comp ""
Comment1 ""
Comment2 ""
Comment3 ""
Comment4 ""
$EndDescr
$Comp
L MSP430G2231 U3
U 1 1 52AE2FB2
P 3900 3400
F 0 "U3" H 3900 3300 50  0000 C CNN
F 1 "MSP430G2231" H 3900 3500 50  0000 C CNN
F 2 "MODULE" H 3900 3400 50  0001 C CNN
F 3 "DOCUMENTATION" H 3900 3400 50  0001 C CNN
	1    3900 3400
	1    0    0    -1  
$EndComp
$Comp
L LP2950 U2
U 1 1 52AE2FC1
P 3900 2000
F 0 "U2" H 4050 1804 60  0000 C CNN
F 1 "LP2950" H 3900 2200 60  0000 C CNN
F 2 "~" H 3900 2000 60  0000 C CNN
F 3 "~" H 3900 2000 60  0000 C CNN
	1    3900 2000
	1    0    0    -1  
$EndComp
$Comp
L TL317 U1
U 1 1 52AE30A4
P 3900 1350
F 0 "U1" H 3700 1550 40  0000 C CNN
F 1 "TL317" H 3900 1550 40  0000 L CNN
F 2 "TO-92" H 3900 1450 30  0000 C CIN
F 3 "~" H 3900 1350 60  0000 C CNN
	1    3900 1350
	1    0    0    -1  
$EndComp
$Comp
L C C3
U 1 1 52AE30F0
P 3900 2700
F 0 "C3" H 3900 2800 40  0000 L CNN
F 1 "0.1uF" H 3906 2615 40  0000 L CNN
F 2 "~" H 3938 2550 30  0000 C CNN
F 3 "~" H 3900 2700 60  0000 C CNN
	1    3900 2700
	0    -1   -1   0   
$EndComp
Wire Wire Line
	3150 2550 3150 3100
Wire Wire Line
	4100 2700 4650 2700
Wire Wire Line
	4650 2150 4650 3100
Wire Wire Line
	3900 2250 3900 2450
Wire Wire Line
	2700 2450 4800 2450
Connection ~ 4650 2700
Wire Wire Line
	4300 1950 4300 2550
Connection ~ 3150 2700
Wire Wire Line
	3500 1950 3500 1300
$Comp
L DIODE D1
U 1 1 52AE317D
P 3100 1650
F 0 "D1" H 3100 1750 40  0000 C CNN
F 1 "DIODE" H 3100 1550 40  0000 C CNN
F 2 "~" H 3100 1650 60  0000 C CNN
F 3 "~" H 3100 1650 60  0000 C CNN
	1    3100 1650
	1    0    0    -1  
$EndComp
Wire Wire Line
	3500 1650 3300 1650
Connection ~ 3500 1650
$Comp
L CONN_2 P2
U 1 1 52AE3198
P 2350 2250
F 0 "P2" V 2300 2250 40  0000 C CNN
F 1 "PWR" V 2400 2250 40  0000 C CNN
F 2 "~" H 2350 2250 60  0000 C CNN
F 3 "~" H 2350 2250 60  0000 C CNN
	1    2350 2250
	-1   0    0    1   
$EndComp
Wire Wire Line
	2700 2150 2700 1650
Wire Wire Line
	2700 1650 2900 1650
Wire Wire Line
	2700 2350 2700 2450
Connection ~ 3900 2450
$Comp
L R R3
U 1 1 52AE3220
P 4800 2850
F 0 "R3" V 4880 2850 40  0000 C CNN
F 1 "10K" V 4807 2851 40  0000 C CNN
F 2 "~" V 4730 2850 30  0000 C CNN
F 3 "~" H 4800 2850 30  0000 C CNN
	1    4800 2850
	1    0    0    -1  
$EndComp
Connection ~ 4300 2550
$Comp
L CRYSTAL X1
U 1 1 52AE335E
P 5300 3200
F 0 "X1" H 5300 3350 60  0000 C CNN
F 1 "32768" H 5300 3050 60  0000 C CNN
F 2 "~" H 5300 3200 60  0000 C CNN
F 3 "~" H 5300 3200 60  0000 C CNN
	1    5300 3200
	0    -1   -1   0   
$EndComp
Wire Wire Line
	3150 2550 4800 2550
Wire Wire Line
	4800 2550 4800 2600
Wire Wire Line
	4800 3100 4800 3500
Wire Wire Line
	5300 3500 4950 3500
Wire Wire Line
	4950 3500 4950 3300
Wire Wire Line
	4950 3300 4650 3300
Wire Wire Line
	4650 3200 4950 3200
Wire Wire Line
	4950 3200 4950 2900
Wire Wire Line
	4950 2900 5300 2900
$Comp
L R R2
U 1 1 52AE3521
P 4150 1700
F 0 "R2" V 4230 1700 40  0000 C CNN
F 1 "470" V 4157 1701 40  0000 C CNN
F 2 "~" V 4080 1700 30  0000 C CNN
F 3 "~" H 4150 1700 30  0000 C CNN
	1    4150 1700
	0    -1   -1   0   
$EndComp
Wire Wire Line
	3900 1600 3900 1700
Wire Wire Line
	4400 1700 4400 2450
Connection ~ 4400 2450
$Comp
L R R1
U 1 1 52AE359A
P 4550 1550
F 0 "R1" V 4630 1550 40  0000 C CNN
F 1 "150" V 4557 1551 40  0000 C CNN
F 2 "~" V 4480 1550 30  0000 C CNN
F 3 "~" H 4550 1550 30  0000 C CNN
	1    4550 1550
	0    -1   -1   0   
$EndComp
Wire Wire Line
	3900 1600 4300 1600
Wire Wire Line
	4300 1600 4300 1550
Wire Wire Line
	4300 1300 4900 1300
Wire Wire Line
	4800 1300 4800 1750
Text GLabel 4900 1300 2    60   Input ~ 0
5V
Connection ~ 4800 1300
Text GLabel 2900 3500 0    60   Input ~ 0
RESET
Wire Wire Line
	3150 3500 2900 3500
Text GLabel 2450 3600 0    60   Input ~ 0
MOSI
Wire Wire Line
	2450 3600 3150 3600
Text GLabel 2050 4100 0    60   Input ~ 0
MISO
Wire Wire Line
	2600 3700 3150 3700
Text GLabel 4800 3600 2    60   Input ~ 0
SCK
Wire Wire Line
	4800 3600 4650 3600
Text GLabel 4800 2450 2    60   Input ~ 0
GND
Connection ~ 4650 2450
$Comp
L R R8
U 1 1 52AE3931
P 2350 4100
F 0 "R8" V 2430 4100 40  0000 C CNN
F 1 "1K" V 2357 4101 40  0000 C CNN
F 2 "~" V 2280 4100 30  0000 C CNN
F 3 "~" H 2350 4100 30  0000 C CNN
	1    2350 4100
	0    -1   -1   0   
$EndComp
$Comp
L R R9
U 1 1 52AE39A6
P 2900 4100
F 0 "R9" V 2980 4100 40  0000 C CNN
F 1 "2.2K" V 2907 4101 40  0000 C CNN
F 2 "~" V 2830 4100 30  0000 C CNN
F 3 "~" H 2900 4100 30  0000 C CNN
	1    2900 4100
	0    -1   -1   0   
$EndComp
$Comp
L GND #PWR01
U 1 1 52AE39BA
P 3150 4300
F 0 "#PWR01" H 3150 4300 30  0001 C CNN
F 1 "GND" H 3150 4230 30  0001 C CNN
F 2 "" H 3150 4300 60  0000 C CNN
F 3 "" H 3150 4300 60  0000 C CNN
	1    3150 4300
	1    0    0    -1  
$EndComp
Wire Wire Line
	3150 4100 3150 4300
$Comp
L GND #PWR02
U 1 1 52AE3A71
P 2900 2550
F 0 "#PWR02" H 2900 2550 30  0001 C CNN
F 1 "GND" H 2900 2480 30  0001 C CNN
F 2 "" H 2900 2550 60  0000 C CNN
F 3 "" H 2900 2550 60  0000 C CNN
	1    2900 2550
	1    0    0    -1  
$EndComp
Wire Wire Line
	2900 2450 2900 2550
Connection ~ 2900 2450
$Comp
L C C2
U 1 1 52AE372F
P 3300 2050
F 0 "C2" H 3300 2150 40  0000 L CNN
F 1 "2.2uF" H 3306 1965 40  0000 L CNN
F 2 "~" H 3338 1900 30  0000 C CNN
F 3 "~" H 3300 2050 60  0000 C CNN
	1    3300 2050
	1    0    0    -1  
$EndComp
Wire Wire Line
	3300 1650 3300 1850
Wire Wire Line
	3300 2250 3300 2450
Connection ~ 3300 2450
$Comp
L CONN_3X2 P1
U 1 1 52AE38AE
P 7550 1900
F 0 "P1" H 7550 2150 50  0000 C CNN
F 1 "CONN_3X2" V 7550 1950 40  0000 C CNN
F 2 "~" H 7550 1900 60  0000 C CNN
F 3 "~" H 7550 1900 60  0000 C CNN
	1    7550 1900
	1    0    0    -1  
$EndComp
$Comp
L CONN_5X2 P3
U 1 1 52AE38BD
P 7550 2550
F 0 "P3" H 7550 2850 60  0000 C CNN
F 1 "CONN_5X2" V 7550 2550 50  0000 C CNN
F 2 "~" H 7550 2550 60  0000 C CNN
F 3 "~" H 7550 2550 60  0000 C CNN
	1    7550 2550
	1    0    0    -1  
$EndComp
Text GLabel 7050 1750 0    60   Input ~ 0
MISO
Text GLabel 6700 1850 0    60   Input ~ 0
SCK
Text GLabel 7050 1950 0    60   Input ~ 0
RESET
Text GLabel 8400 1950 2    60   Input ~ 0
GND
Text GLabel 8050 1850 2    60   Input ~ 0
MOSI
Text GLabel 8400 1750 2    60   Input ~ 0
5V
Wire Wire Line
	8050 1850 7950 1850
Wire Wire Line
	7950 1750 8400 1750
Wire Wire Line
	8400 1950 7950 1950
Wire Wire Line
	7050 1750 7150 1750
Wire Wire Line
	6700 1850 7150 1850
Wire Wire Line
	7150 1950 7050 1950
Text GLabel 8050 2350 2    60   Input ~ 0
5V
Text GLabel 8050 2550 2    60   Input ~ 0
GND
Text GLabel 7050 2350 0    60   Input ~ 0
MOSI
Text GLabel 7050 2550 0    60   Input ~ 0
RESET
Text GLabel 6700 2650 0    60   Input ~ 0
SCK
Text GLabel 7050 2750 0    60   Input ~ 0
MISO
Wire Wire Line
	7050 2750 7150 2750
Wire Wire Line
	6700 2650 7150 2650
Wire Wire Line
	7050 2550 7150 2550
Wire Wire Line
	7150 2350 7050 2350
NoConn ~ 7150 2450
Wire Wire Line
	7950 2350 8050 2350
Wire Wire Line
	8050 2550 7950 2550
Wire Wire Line
	7950 2450 7950 2750
Connection ~ 7950 2550
Connection ~ 7950 2650
Wire Wire Line
	2050 4100 2100 4100
Wire Wire Line
	2600 4100 2650 4100
Wire Wire Line
	2600 4100 2600 3700
$Comp
L CP1 C1
U 1 1 52AE4514
P 4800 1950
F 0 "C1" H 4850 2050 50  0000 L CNN
F 1 "4.7uF" H 4850 1850 50  0000 L CNN
F 2 "~" H 4800 1950 60  0000 C CNN
F 3 "~" H 4800 1950 60  0000 C CNN
	1    4800 1950
	1    0    0    -1  
$EndComp
Connection ~ 4800 1550
Wire Wire Line
	4800 2150 4650 2150
$Comp
L LED D3
U 1 1 52AE4D48
P 4100 4200
F 0 "D3" H 4100 4300 50  0000 C CNN
F 1 "GRN" H 4100 4100 50  0000 C CNN
F 2 "~" H 4100 4200 60  0000 C CNN
F 3 "~" H 4100 4200 60  0000 C CNN
	1    4100 4200
	0    1    1    0   
$EndComp
$Comp
L LED D2
U 1 1 52AE4D57
P 3650 4200
F 0 "D2" H 3650 4300 50  0000 C CNN
F 1 "RED" H 3650 4100 50  0000 C CNN
F 2 "~" H 3650 4200 60  0000 C CNN
F 3 "~" H 3650 4200 60  0000 C CNN
	1    3650 4200
	0    1    1    0   
$EndComp
Wire Wire Line
	3150 3200 3000 3200
Wire Wire Line
	3000 3200 3000 4000
$Comp
L R R6
U 1 1 52AE4DB6
P 3300 4000
F 0 "R6" V 3380 4000 40  0000 C CNN
F 1 "100" V 3307 4001 40  0000 C CNN
F 2 "~" V 3230 4000 30  0000 C CNN
F 3 "~" H 3300 4000 30  0000 C CNN
	1    3300 4000
	0    -1   -1   0   
$EndComp
Wire Wire Line
	3000 4000 3050 4000
Wire Wire Line
	3550 4000 3650 4000
$Comp
L R R7
U 1 1 52AE4EF4
P 4550 4000
F 0 "R7" V 4630 4000 40  0000 C CNN
F 1 "100" V 4557 4001 40  0000 C CNN
F 2 "~" V 4480 4000 30  0000 C CNN
F 3 "~" H 4550 4000 30  0000 C CNN
	1    4550 4000
	0    -1   -1   0   
$EndComp
Wire Wire Line
	4650 3700 5000 3700
$Comp
L CONN_2 P4
U 1 1 52AE506A
P 1600 3050
F 0 "P4" V 1550 3050 40  0000 C CNN
F 1 "UART" V 1650 3050 40  0000 C CNN
F 2 "~" H 1600 3050 60  0000 C CNN
F 3 "~" H 1600 3050 60  0000 C CNN
	1    1600 3050
	-1   0    0    1   
$EndComp
Wire Wire Line
	3150 2700 3700 2700
$Comp
L SW_PUSH SW1
U 1 1 52AE5305
P 2500 3250
F 0 "SW1" H 2650 3360 50  0000 C CNN
F 1 "RESET_AVR" H 2500 3170 50  0000 C CNN
F 2 "~" H 2500 3250 60  0000 C CNN
F 3 "~" H 2500 3250 60  0000 C CNN
	1    2500 3250
	1    0    0    -1  
$EndComp
Wire Wire Line
	2950 3500 2950 3250
Wire Wire Line
	2950 3250 2800 3250
Connection ~ 2950 3500
Wire Wire Line
	2200 3250 1950 3250
Wire Wire Line
	1950 3250 1950 3400
$Comp
L GND #PWR03
U 1 1 52AE53C2
P 1950 3400
F 0 "#PWR03" H 1950 3400 30  0001 C CNN
F 1 "GND" H 1950 3330 30  0001 C CNN
F 2 "" H 1950 3400 60  0000 C CNN
F 3 "" H 1950 3400 60  0000 C CNN
	1    1950 3400
	1    0    0    -1  
$EndComp
Wire Wire Line
	4800 3500 4650 3500
NoConn ~ 4650 3400
$Comp
L SW_PUSH SW2
U 1 1 52AE57B3
P 5450 4050
F 0 "SW2" H 5600 4160 50  0000 C CNN
F 1 "RST_MSP" H 5450 3970 50  0000 C CNN
F 2 "~" H 5450 4050 60  0000 C CNN
F 3 "~" H 5450 4050 60  0000 C CNN
	1    5450 4050
	1    0    0    -1  
$EndComp
$Comp
L GND #PWR04
U 1 1 52AE5827
P 5750 4300
F 0 "#PWR04" H 5750 4300 30  0001 C CNN
F 1 "GND" H 5750 4230 30  0001 C CNN
F 2 "" H 5750 4300 60  0000 C CNN
F 3 "" H 5750 4300 60  0000 C CNN
	1    5750 4300
	1    0    0    -1  
$EndComp
Wire Wire Line
	5750 4050 5750 4300
Wire Wire Line
	4750 3500 4750 4050
Connection ~ 4750 4050
Connection ~ 4750 3500
Wire Wire Line
	4750 4050 5150 4050
Wire Wire Line
	4300 4000 4100 4000
Wire Wire Line
	3650 4400 4100 4400
$Comp
L GND #PWR05
U 1 1 52AE5C45
P 3850 4500
F 0 "#PWR05" H 3850 4500 30  0001 C CNN
F 1 "GND" H 3850 4430 30  0001 C CNN
F 2 "" H 3850 4500 60  0000 C CNN
F 3 "" H 3850 4500 60  0000 C CNN
	1    3850 4500
	1    0    0    -1  
$EndComp
Wire Wire Line
	3850 4400 3850 4500
Connection ~ 3850 4400
Wire Wire Line
	5000 3700 5000 4000
Wire Wire Line
	5000 4000 4800 4000
$Comp
L R R4
U 1 1 52AE61CD
P 2250 2950
F 0 "R4" V 2330 2950 40  0000 C CNN
F 1 "1K" V 2257 2951 40  0000 C CNN
F 2 "~" V 2180 2950 30  0000 C CNN
F 3 "~" H 2250 2950 30  0000 C CNN
	1    2250 2950
	0    -1   -1   0   
$EndComp
$Comp
L R R5
U 1 1 52AE61DC
P 2850 2950
F 0 "R5" V 2930 2950 40  0000 C CNN
F 1 "2.2K" V 2857 2951 40  0000 C CNN
F 2 "~" V 2780 2950 30  0000 C CNN
F 3 "~" H 2850 2950 30  0000 C CNN
	1    2850 2950
	0    -1   -1   0   
$EndComp
Wire Wire Line
	1950 2950 2000 2950
Wire Wire Line
	2500 2950 2600 2950
Wire Wire Line
	3100 2950 3100 2450
Connection ~ 3100 2450
Wire Wire Line
	2550 2950 2550 3050
Wire Wire Line
	2550 3050 3100 3050
Wire Wire Line
	3100 3050 3100 3400
Wire Wire Line
	3100 3400 3150 3400
Connection ~ 2550 2950
Wire Wire Line
	3150 3300 3050 3300
Wire Wire Line
	3050 3300 3050 3150
Wire Wire Line
	3050 3150 1950 3150
$EndSCHEMATC
