<?xml version="1.0" standalone="no"?>
 <!DOCTYPE svg PUBLIC "-//W3C//DTD SVG 1.1//EN" 
 "http://www.w3.org/Graphics/SVG/1.1/DTD/svg11.dtd"> 
<svg xmlns="http://www.w3.org/2000/svg" version="1.1" 
    width="41.9989cm" height="29.7002cm" viewBox="0 0 165350 116930 ">
<title>SVG Picture created as bridgeboard-B_Cu.svg date 2014/01/21 20:21:00 </title>
  <desc>Picture generated by PCBNEW </desc>
<g style="fill:#000000; fill-opacity:1;stroke:#000000; stroke-opacity:1;
stroke-linecap:round; stroke-linejoin:round; "
 transform="translate(0 0) scale(1 1)">
</g>
<g style="fill:#000000; fill-opacity:0.0; 
stroke:#000000; stroke-width:39.3701; stroke-opacity:1; 
stroke-linecap:round; stroke-linejoin:round;">
<path d="M96250 54500
L95750 54500
" />
<path d="M96250 37250
L96250 54500
" />
<path d="M95750 37250
L96250 37250
" />
<path d="M84500 37250
L85000 37250
" />
<path d="M84500 37500
L84500 37250
" />
<path d="M95750 37250
L85000 37250
" />
<path d="M84500 38500
L84500 37500
" />
<path d="M84500 54500
L95750 54500
" />
<path d="M84500 53000
L84500 54500
" />
<path d="M84500 53000
L84500 38500
" />
</g>
<g style="fill:#000000; fill-opacity:0.0; 
stroke:#000000; stroke-width:59.0551; stroke-opacity:1; 
stroke-linecap:round; stroke-linejoin:round;">
</g>
<g style="fill:#000000; fill-opacity:1.0; 
stroke:#000000; stroke-width:59.0551; stroke-opacity:1; 
stroke-linecap:round; stroke-linejoin:round;">
<circle cx="88250" cy="43750" r="363.972" /> 
<circle cx="87250" cy="43750" r="363.972" /> 
<polyline style="fill-rule:evenodd;"
points="85979,51403
85979,50596
86520,50596
86520,51403
85979,51403
" /> 
</g>
<g style="fill:#000000; fill-opacity:1.0; 
stroke:#000000; stroke-width:600; stroke-opacity:1; 
stroke-linecap:round; stroke-linejoin:round;">
<path d="M87250 50867
L87250 51133
" />
<path d="M88250 50867
L88250 51133
" />
</g>
<g style="fill:#000000; fill-opacity:1.0; 
stroke:#000000; stroke-width:59.0551; stroke-opacity:1; 
stroke-linecap:round; stroke-linejoin:round;">
<circle cx="94000" cy="49250" r="314.972" /> 
<circle cx="95000" cy="48500" r="314.972" /> 
<circle cx="94000" cy="47750" r="314.972" /> 
<circle cx="94000" cy="51750" r="314.972" /> 
<circle cx="95000" cy="51000" r="314.972" /> 
<circle cx="94000" cy="50250" r="314.972" /> 
<circle cx="94250" cy="42750" r="363.972" /> 
<circle cx="94250" cy="46750" r="363.972" /> 
<circle cx="85750" cy="43750" r="363.972" /> 
<circle cx="85750" cy="47750" r="363.972" /> 
<circle cx="87000" cy="49500" r="363.972" /> 
<circle cx="87000" cy="45500" r="363.972" /> 
<circle cx="88250" cy="45500" r="363.972" /> 
<circle cx="88250" cy="49500" r="363.972" /> 
<circle cx="94750" cy="40000" r="314.972" /> 
<circle cx="93750" cy="40750" r="314.972" /> 
<circle cx="94750" cy="41500" r="314.972" /> 
<circle cx="88500" cy="42000" r="265.972" /> 
<circle cx="88500" cy="40000" r="265.972" /> 
</g>
<g style="fill:#000000; fill-opacity:1.0; 
stroke:#000000; stroke-width:591; stroke-opacity:1; 
stroke-linecap:round; stroke-linejoin:round;">
<path d="M89887 42750
L89612 42750
" />
<path d="M89887 43750
L89612 43750
" />
<path d="M89887 44750
L89612 44750
" />
<path d="M89887 45750
L89612 45750
" />
<path d="M89887 46750
L89612 46750
" />
<path d="M89887 47750
L89612 47750
" />
<path d="M89887 48750
L89612 48750
" />
<path d="M89887 49750
L89612 49750
" />
<path d="M89887 50750
L89612 50750
" />
<path d="M89887 51750
L89612 51750
" />
<path d="M92887 51750
L92612 51750
" />
<path d="M92887 50750
L92612 50750
" />
<path d="M92887 49750
L92612 49750
" />
<path d="M92887 48750
L92612 48750
" />
<path d="M92887 47750
L92612 47750
" />
<path d="M92887 46750
L92612 46750
" />
<path d="M92887 45750
L92612 45750
" />
<path d="M92887 44750
L92612 44750
" />
<path d="M92887 43750
L92612 43750
" />
<path d="M92887 42750
L92612 42750
" />
</g>
<g style="fill:#000000; fill-opacity:1.0; 
stroke:#000000; stroke-width:59.0551; stroke-opacity:1; 
stroke-linecap:round; stroke-linejoin:round;">
<polyline style="fill-rule:evenodd;"
points="93020,40346
93020,41153
92479,41153
92479,40346
93020,40346
" /> 
</g>
<g style="fill:#000000; fill-opacity:1.0; 
stroke:#000000; stroke-width:600; stroke-opacity:1; 
stroke-linecap:round; stroke-linejoin:round;">
<path d="M91750 40883
L91750 40617
" />
<path d="M90750 40883
L90750 40617
" />
<path d="M89750 40883
L89750 40617
" />
</g>
<g style="fill:#000000; fill-opacity:1.0; 
stroke:#000000; stroke-width:59.0551; stroke-opacity:1; 
stroke-linecap:round; stroke-linejoin:round;">
<circle cx="85750" cy="38500" r="560.972" /> 
<circle cx="95000" cy="53250" r="560.972" /> 
</g>
<g style="fill:#000000; fill-opacity:1.0; 
stroke:#000000; stroke-width:150; stroke-opacity:1; 
stroke-linecap:round; stroke-linejoin:round;">
<path d="M89750 43750
L88250 43750
" />
<path d="M92750 46750
L94250 46750
" />
<path d="M88250 45500
L87000 45500
" />
<path d="M89750 44750
L89000 44750
" />
<path d="M89000 44750
L88250 45500
" />
<path d="M90000 41500
L90750 42250
" />
<path d="M88000 47750
L85750 47750
" />
<path d="M89000 46750
L88000 47750
" />
<path d="M89000 45500
L89000 46750
" />
<path d="M89250 45250
L89000 45500
" />
<path d="M90500 45250
L89250 45250
" />
<path d="M90750 45000
L90500 45250
" />
<path d="M90750 42250
L90750 45000
" />
<path d="M92750 40750
L92750 40500
" />
<path d="M88500 41000
L88500 40000
" />
<path d="M89000 41500
L88500 41000
" />
<path d="M90000 41500
L89000 41500
" />
<path d="M90250 41250
L90000 41500
" />
<path d="M90250 40000
L90250 41250
" />
<path d="M90500 39750
L90250 40000
" />
<path d="M92000 39750
L90500 39750
" />
<path d="M92750 40500
L92000 39750
" />
<path d="M92750 40750
L93750 40750
" />
<path d="M92750 40750
L92750 42750
" />
<path d="M85750 47750
L85750 49500
" />
<path d="M85750 49500
L86500 50250
" />
<path d="M86250 51000
L86250 50500
" />
<path d="M87500 50250
L88250 49500
" />
<path d="M86500 50250
L87500 50250
" />
<path d="M86250 50500
L86500 50250
" />
<path d="M87250 43750
L85750 43750
" />
<path d="M94000 50250
L93500 49750
" />
<path d="M93500 49500
L92750 48750
" />
<path d="M93500 49750
L93500 49500
" />
<path d="M94000 47750
L92750 47750
" />
<path d="M87000 49500
L87000 49000
" />
<path d="M91750 46500
L91750 40750
" />
<path d="M91000 47250
L91750 46500
" />
<path d="M89250 47250
L91000 47250
" />
<path d="M89000 47500
L89250 47250
" />
<path d="M87750 48750
L89000 47500
" />
<path d="M87250 48750
L87750 48750
" />
<path d="M87000 49000
L87250 48750
" />
<path d="M88250 51000
L89000 51000
" />
<path d="M93500 51250
L94000 51750
" />
<path d="M89250 51250
L93500 51250
" />
<path d="M89000 51000
L89250 51250
" />
<path d="M94000 49250
L94000 48750
" />
<path d="M88000 50250
L87250 51000
" />
<path d="M88750 50250
L88000 50250
" />
<path d="M89000 50000
L88750 50250
" />
<path d="M89000 48500
L89000 50000
" />
<path d="M89250 48250
L89000 48500
" />
<path d="M93500 48250
L89250 48250
" />
<path d="M94000 48750
L93500 48250
" />
<path d="M90750 40750
L90750 41000
" />
<path d="M90750 45750
L89750 45750
" />
<path d="M91250 45250
L90750 45750
" />
<path d="M91250 41500
L91250 45250
" />
<path d="M90750 41000
L91250 41500
" />
<path d="M94750 41500
L95500 40750
" />
<path d="M87500 41000
L88500 42000
" />
<path d="M87500 39500
L87500 41000
" />
<path d="M88250 38750
L87500 39500
" />
<path d="M95250 38750
L88250 38750
" />
<path d="M95500 39000
L95250 38750
" />
<path d="M95500 40750
L95500 39000
" />
<path d="M95000 48500
L95000 43500
" />
<path d="M95000 43500
L94250 42750
" />
<path d="M95000 48500
L95000 51000
" />
<path d="M94750 41500
L94750 42250
" />
<path d="M94750 42250
L94250 42750
" />
<path d="M88500 42000
L89000 42000
" />
<path d="M89000 42000
L89750 42750
" />
<path d="M89750 40750
L89750 39500
" />
<path d="M94000 39250
L94750 40000
" />
<path d="M90000 39250
L94000 39250
" />
<path d="M89750 39500
L90000 39250
" />
</g>
<g style="fill:#FFFFFF; fill-opacity:1.0; 
stroke:#FFFFFF; stroke-width:59.0551; stroke-opacity:1; 
stroke-linecap:round; stroke-linejoin:round;">
<circle cx="88250" cy="43750" r="127.972" /> 
<circle cx="87250" cy="43750" r="127.972" /> 
<circle cx="86250" cy="51000" r="167.472" /> 
<circle cx="87250" cy="51000" r="167.472" /> 
<circle cx="88250" cy="51000" r="167.472" /> 
<circle cx="94000" cy="49250" r="127.972" /> 
<circle cx="95000" cy="48500" r="127.972" /> 
<circle cx="94000" cy="47750" r="127.972" /> 
<circle cx="94000" cy="51750" r="127.972" /> 
<circle cx="95000" cy="51000" r="127.972" /> 
<circle cx="94000" cy="50250" r="127.972" /> 
<circle cx="94250" cy="42750" r="127.972" /> 
<circle cx="94250" cy="46750" r="127.972" /> 
<circle cx="85750" cy="43750" r="127.972" /> 
<circle cx="85750" cy="47750" r="127.972" /> 
<circle cx="87000" cy="49500" r="127.972" /> 
<circle cx="87000" cy="45500" r="127.972" /> 
<circle cx="88250" cy="45500" r="127.972" /> 
<circle cx="88250" cy="49500" r="127.972" /> 
<circle cx="94750" cy="40000" r="127.972" /> 
<circle cx="93750" cy="40750" r="127.972" /> 
<circle cx="94750" cy="41500" r="127.972" /> 
<circle cx="88500" cy="42000" r="127.972" /> 
<circle cx="88500" cy="40000" r="127.972" /> 
<circle cx="89750" cy="42750" r="127.972" /> 
<circle cx="89750" cy="43750" r="127.972" /> 
<circle cx="89750" cy="44750" r="127.972" /> 
<circle cx="89750" cy="45750" r="127.972" /> 
<circle cx="89750" cy="46750" r="127.972" /> 
<circle cx="89750" cy="47750" r="127.972" /> 
<circle cx="89750" cy="48750" r="127.972" /> 
<circle cx="89750" cy="49750" r="127.972" /> 
<circle cx="89750" cy="50750" r="127.972" /> 
<circle cx="89750" cy="51750" r="127.972" /> 
<circle cx="92750" cy="51750" r="127.972" /> 
<circle cx="92750" cy="50750" r="127.972" /> 
<circle cx="92750" cy="49750" r="127.972" /> 
<circle cx="92750" cy="48750" r="127.972" /> 
<circle cx="92750" cy="47750" r="127.972" /> 
<circle cx="92750" cy="46750" r="127.972" /> 
<circle cx="92750" cy="45750" r="127.972" /> 
<circle cx="92750" cy="44750" r="127.972" /> 
<circle cx="92750" cy="43750" r="127.972" /> 
<circle cx="92750" cy="42750" r="127.972" /> 
<circle cx="92750" cy="40750" r="167.472" /> 
<circle cx="91750" cy="40750" r="167.472" /> 
<circle cx="90750" cy="40750" r="167.472" /> 
<circle cx="89750" cy="40750" r="167.472" /> 
<circle cx="85750" cy="38500" r="560.972" /> 
<circle cx="95000" cy="53250" r="560.972" /> 
</g> 
</svg>
