EESchema Schematic File Version 2  date Tue 21 Jan 2014 08:54:57 PM PST
LIBS:power
LIBS:device
LIBS:transistors
LIBS:conn
LIBS:linear
LIBS:regul
LIBS:74xx
LIBS:cmos4000
LIBS:adc-dac
LIBS:memory
LIBS:xilinx
LIBS:special
LIBS:microcontrollers
LIBS:dsp
LIBS:microchip
LIBS:analog_switches
LIBS:motorola
LIBS:texas
LIBS:intel
LIBS:audio
LIBS:interface
LIBS:digital-audio
LIBS:philips
LIBS:display
LIBS:cypress
LIBS:siliconi
LIBS:opto
LIBS:atmel
LIBS:contrib
LIBS:valves
LIBS:MSP430G2231
LIBS:PWMTester-cache
EELAYER 24 0
EELAYER END
$Descr A4 11693 8268
encoding utf-8
Sheet 1 1
Title ""
Date "22 jan 2014"
Rev ""
Comp ""
Comment1 ""
Comment2 ""
Comment3 ""
Comment4 ""
$EndDescr
$Comp
L MSP430G2231 U2
U 1 1 52AE065D
P 4300 3200
F 0 "U2" H 4300 3100 50  0000 C CNN
F 1 "MSP430G2231" H 4300 3300 50  0000 C CNN
F 2 "dil_14-300" H 4300 3200 50  0001 C CNN
F 3 "DOCUMENTATION" H 4300 3200 50  0001 C CNN
	1    4300 3200
	1    0    0    -1  
$EndComp
$Comp
L C C1
U 1 1 52AE0CA7
P 4300 2500
F 0 "C1" H 4300 2600 40  0000 L CNN
F 1 "0.1uF" H 4306 2415 40  0000 L CNN
F 2 "cnp_6mm_disc" H 4338 2350 30  0000 C CNN
F 3 "~" H 4300 2500 60  0000 C CNN
	1    4300 2500
	0    -1   -1   0   
$EndComp
Wire Wire Line
	3550 2500 4100 2500
Wire Wire Line
	4500 2500 5050 2500
$Comp
L R R1
U 1 1 52AE0CF1
P 5450 2700
F 0 "R1" V 5530 2700 40  0000 C CNN
F 1 "10k" V 5457 2701 40  0000 C CNN
F 2 "RC05" V 5380 2700 30  0000 C CNN
F 3 "~" H 5450 2700 30  0000 C CNN
	1    5450 2700
	1    0    0    -1  
$EndComp
Wire Wire Line
	5050 3300 5450 3300
Wire Wire Line
	5450 3300 5450 2950
$Comp
L CONN_2 P1
U 1 1 52AE0D0A
P 2700 1200
F 0 "P1" V 2650 1200 40  0000 C CNN
F 1 "CONN_2" V 2750 1200 40  0000 C CNN
F 2 "pin_strip_2-90" H 2700 1200 60  0000 C CNN
F 3 "~" H 2700 1200 60  0000 C CNN
	1    2700 1200
	-1   0    0    1   
$EndComp
Connection ~ 3550 2500
Connection ~ 5050 2500
$Comp
L CONN_3 K1
U 1 1 52AE0D48
P 6500 2400
F 0 "K1" V 6450 2400 50  0000 C CNN
F 1 "CONN_3" V 6550 2400 40  0000 C CNN
F 2 "pin_strip_3-90" H 6500 2400 60  0000 C CNN
F 3 "~" H 6500 2400 60  0000 C CNN
	1    6500 2400
	1    0    0    -1  
$EndComp
Wire Wire Line
	6150 2300 5800 2300
Wire Wire Line
	3550 2900 3550 2150
Wire Wire Line
	5050 2300 5050 2900
Wire Wire Line
	5450 2450 5450 1700
Wire Wire Line
	4700 1700 5650 1700
Wire Wire Line
	3550 2150 4700 2150
Wire Wire Line
	4700 2150 4700 1700
Wire Wire Line
	5050 2300 4300 2300
Wire Wire Line
	4300 2300 4300 2000
Wire Wire Line
	3050 1300 3500 1300
Wire Wire Line
	3500 1300 3500 2000
Wire Wire Line
	3500 2000 6000 2000
Wire Wire Line
	6150 2500 6000 2500
Wire Wire Line
	6000 2500 6000 2000
Connection ~ 4300 2000
$Comp
L DIODE D2
U 1 1 52AE1027
P 4900 1350
F 0 "D2" H 4900 1450 40  0000 C CNN
F 1 "DIODE" H 4900 1250 40  0000 C CNN
F 2 "diode_do35" H 4900 1350 60  0000 C CNN
F 3 "~" H 4900 1350 60  0000 C CNN
	1    4900 1350
	-1   0    0    1   
$EndComp
$Comp
L DIODE D1
U 1 1 52AE1036
P 3400 1100
F 0 "D1" H 3400 1200 40  0000 C CNN
F 1 "DIODE" H 3400 1000 40  0000 C CNN
F 2 "diode_do35" H 3400 1100 60  0000 C CNN
F 3 "~" H 3400 1100 60  0000 C CNN
	1    3400 1100
	1    0    0    -1  
$EndComp
Wire Wire Line
	3050 1100 3200 1100
Wire Wire Line
	3600 1100 3700 1100
Wire Wire Line
	3700 1100 3700 1700
Wire Wire Line
	3700 1700 3900 1700
Wire Wire Line
	4700 1350 3900 1350
Wire Wire Line
	3900 1350 3900 1700
Wire Wire Line
	5100 1350 5900 1350
Wire Wire Line
	5900 1350 5900 2400
Wire Wire Line
	5900 2400 6150 2400
$Comp
L POT RV1
U 1 1 52AE1121
P 3150 3500
F 0 "RV1" H 3150 3400 50  0000 C CNN
F 1 "POT" H 3150 3500 50  0000 C CNN
F 2 "pin_strip_3" H 3150 3500 60  0000 C CNN
F 3 "~" H 3150 3500 60  0000 C CNN
	1    3150 3500
	0    1    1    0   
$EndComp
Wire Wire Line
	3150 3250 3150 2900
Wire Wire Line
	3150 3750 3150 3850
Wire Wire Line
	5200 3850 5200 2900
Wire Wire Line
	5200 2900 5050 2900
$Comp
L LED D3
U 1 1 52AE12A2
P 2550 3450
F 0 "D3" H 2550 3550 50  0000 C CNN
F 1 "LED" H 2550 3350 50  0000 C CNN
F 2 "led_5mm_red" H 2550 3450 60  0000 C CNN
F 3 "~" H 2550 3450 60  0000 C CNN
	1    2550 3450
	0    1    1    0   
$EndComp
Connection ~ 3150 3850
Connection ~ 3150 2900
Wire Wire Line
	2550 3650 2550 3850
Wire Wire Line
	2550 3850 5200 3850
$Comp
L C C2
U 1 1 52AE1892
P 5050 2150
F 0 "C2" H 5050 2250 40  0000 L CNN
F 1 "BIG" H 5056 2065 40  0000 L CNN
F 2 "cnp_12mm_disc" H 5088 2000 30  0000 C CNN
F 3 "~" H 5050 2150 60  0000 C CNN
	1    5050 2150
	0    -1   -1   0   
$EndComp
Wire Wire Line
	5450 2150 5250 2150
Connection ~ 5450 2150
Wire Wire Line
	4850 2150 4850 2000
Connection ~ 4850 2000
$Comp
L LP2950 U1
U 1 1 52AE19E3
P 4300 1750
F 0 "U1" H 4450 1554 60  0000 C CNN
F 1 "LP2950" H 4300 1950 60  0000 C CNN
F 2 "~" H 4300 1750 60  0000 C CNN
F 3 "~" H 4300 1750 60  0000 C CNN
	1    4300 1750
	1    0    0    -1  
$EndComp
$Comp
L R R2
U 1 1 52AE11F0
P 2800 3000
F 0 "R2" V 2880 3000 40  0000 C CNN
F 1 "150" V 2807 3001 40  0000 C CNN
F 2 "RC05" V 2730 3000 30  0000 C CNN
F 3 "~" H 2800 3000 30  0000 C CNN
	1    2800 3000
	0    -1   -1   0   
$EndComp
Wire Wire Line
	2550 3000 2550 3250
Wire Wire Line
	3050 3000 3550 3000
Wire Wire Line
	3150 2900 3550 2900
Wire Wire Line
	3300 3500 3400 3500
Wire Wire Line
	3400 3500 3400 3700
Wire Wire Line
	3400 3700 5100 3700
Wire Wire Line
	5100 3700 5100 3400
Wire Wire Line
	5100 3400 5050 3400
$Comp
L IRF540N Q1
U 1 1 52DF4973
P 5900 3400
F 0 "Q1" H 5900 3252 40  0000 R CNN
F 1 "2N7000" H 5900 3549 40  0000 R CNN
F 2 "to92" H 5721 3501 29  0000 C CNN
F 3 "~" H 5900 3400 60  0000 C CNN
	1    5900 3400
	0    1    1    0   
$EndComp
Wire Wire Line
	5700 3500 5050 3500
$Comp
L R R3
U 1 1 52DF4ACD
P 5650 2900
F 0 "R3" V 5730 2900 40  0000 C CNN
F 1 "10k" V 5657 2901 40  0000 C CNN
F 2 "~" V 5580 2900 30  0000 C CNN
F 3 "~" H 5650 2900 30  0000 C CNN
	1    5650 2900
	1    0    0    1   
$EndComp
Wire Wire Line
	5650 3500 5650 3150
Connection ~ 5650 3500
Wire Wire Line
	5850 3200 5850 2650
Wire Wire Line
	5850 2650 5650 2650
Wire Wire Line
	5650 2650 5650 1700
Connection ~ 5450 1700
$Comp
L R R4
U 1 1 52DF4D1C
P 6250 2900
F 0 "R4" V 6330 2900 40  0000 C CNN
F 1 "10k" V 6257 2901 40  0000 C CNN
F 2 "~" V 6180 2900 30  0000 C CNN
F 3 "~" H 6250 2900 30  0000 C CNN
	1    6250 2900
	1    0    0    -1  
$EndComp
Wire Wire Line
	6250 2650 7050 2650
Wire Wire Line
	7050 2650 7050 1200
Wire Wire Line
	7050 1200 3700 1200
Connection ~ 3700 1200
Wire Wire Line
	6250 3150 6250 3500
Wire Wire Line
	6250 3500 6100 3500
Wire Wire Line
	6250 3150 5900 3150
Wire Wire Line
	5900 3150 5900 2500
Wire Wire Line
	5900 2500 5800 2500
Wire Wire Line
	5800 2500 5800 2300
$EndSCHEMATC
