EESchema Schematic File Version 2  date Fri 10 May 2013 01:40:47 PM PDT
LIBS:power
LIBS:device
LIBS:transistors
LIBS:conn
LIBS:linear
LIBS:regul
LIBS:74xx
LIBS:cmos4000
LIBS:adc-dac
LIBS:memory
LIBS:xilinx
LIBS:special
LIBS:microcontrollers
LIBS:dsp
LIBS:microchip
LIBS:analog_switches
LIBS:motorola
LIBS:texas
LIBS:intel
LIBS:audio
LIBS:interface
LIBS:digital-audio
LIBS:philips
LIBS:display
LIBS:cypress
LIBS:siliconi
LIBS:opto
LIBS:atmel
LIBS:contrib
LIBS:valves
LIBS:coseldcdc
LIBS:powerblock-cache
EELAYER 24 0
EELAYER END
$Descr A4 11693 8268
encoding utf-8
Sheet 1 1
Title ""
Date "10 may 2013"
Rev ""
Comp ""
Comment1 ""
Comment2 ""
Comment3 ""
Comment4 ""
$EndDescr
Wire Wire Line
	2250 7100 2250 6400
Connection ~ 800  1050
Wire Wire Line
	800  1050 800  1100
Wire Wire Line
	800  1100 1450 1100
Connection ~ 800  4300
Wire Wire Line
	1450 4300 800  4300
Connection ~ 1000 4900
Wire Wire Line
	1000 4900 3600 4900
Connection ~ 1000 1700
Wire Wire Line
	1000 1700 3600 1700
Connection ~ 7050 5800
Wire Wire Line
	5300 5800 7500 5800
Connection ~ 9050 4200
Wire Wire Line
	5300 4200 9450 4200
Connection ~ 7200 3400
Wire Wire Line
	7700 3500 7500 3500
Wire Wire Line
	7500 3500 7500 3400
Wire Wire Line
	7500 3400 5300 3400
Connection ~ 7350 1000
Wire Wire Line
	5300 1000 7700 1000
Wire Wire Line
	5500 1800 5700 1800
Connection ~ 1350 6500
Wire Wire Line
	3600 6850 3600 6750
Wire Wire Line
	3600 3700 3600 3550
Connection ~ 5700 6600
Wire Wire Line
	5700 6600 5700 6700
Connection ~ 5700 3400
Wire Wire Line
	5700 3400 5700 3500
Connection ~ 1350 4900
Connection ~ 1350 1700
Connection ~ 6300 6600
Wire Wire Line
	7050 6400 7050 6500
Wire Wire Line
	6450 6400 6450 6500
Connection ~ 6450 5800
Wire Wire Line
	6450 5800 6450 5900
Wire Wire Line
	7050 5800 7050 5900
Connection ~ 8750 4200
Wire Wire Line
	9050 4200 9050 4300
Wire Wire Line
	8450 4200 8450 4300
Connection ~ 6750 4200
Wire Wire Line
	7000 4200 7000 4300
Wire Wire Line
	6450 4200 6450 4300
Wire Wire Line
	8750 4800 8750 4900
Wire Wire Line
	6750 4800 6750 4900
Connection ~ 8300 5000
Connection ~ 6850 5000
Connection ~ 6300 5000
Wire Wire Line
	7050 3200 7050 3300
Wire Wire Line
	6450 3200 6450 3300
Connection ~ 6750 2600
Wire Wire Line
	7350 2600 7350 2700
Wire Wire Line
	6450 2600 6450 2700
Connection ~ 6600 3400
Connection ~ 5500 3400
Wire Wire Line
	5500 3400 5500 3200
Wire Wire Line
	5500 3200 5300 3200
Wire Wire Line
	5900 2600 5900 2800
Wire Wire Line
	5900 3400 5900 3200
Wire Wire Line
	5300 2800 5500 2800
Wire Wire Line
	5500 2800 5500 2600
Connection ~ 5500 2600
Connection ~ 6300 3400
Connection ~ 6900 3400
Wire Wire Line
	6750 2600 6750 2700
Connection ~ 6450 2600
Wire Wire Line
	7050 2700 7050 2600
Connection ~ 7050 2600
Wire Wire Line
	6750 3200 6750 3300
Wire Wire Line
	7350 3200 7350 3300
Wire Wire Line
	7350 1600 7350 1700
Wire Wire Line
	6750 1600 6750 1700
Connection ~ 7050 1000
Wire Wire Line
	7050 1000 7050 1100
Connection ~ 6450 1000
Wire Wire Line
	6750 1000 6750 1100
Connection ~ 6900 1800
Connection ~ 6300 1800
Connection ~ 5500 5800
Wire Wire Line
	5500 5800 5500 6000
Wire Wire Line
	5500 6000 5300 6000
Wire Wire Line
	5900 6600 5900 6400
Connection ~ 5500 5000
Wire Wire Line
	5900 5000 5900 4800
Connection ~ 5500 4200
Wire Wire Line
	5500 4200 5500 4400
Wire Wire Line
	5500 4400 5300 4400
Connection ~ 5500 1000
Wire Wire Line
	5500 1000 5500 1200
Wire Wire Line
	5500 1200 5300 1200
Wire Wire Line
	5900 1800 5900 1600
Wire Wire Line
	3600 3550 3450 3550
Wire Wire Line
	3450 4950 3450 4500
Wire Wire Line
	3600 6750 3450 6750
Wire Wire Line
	3450 1750 3450 1300
Connection ~ 3000 6500
Wire Wire Line
	3000 6500 3000 6400
Wire Wire Line
	3600 6200 3450 6200
Connection ~ 3450 1700
Connection ~ 3150 1700
Wire Wire Line
	3150 1100 3150 1200
Wire Wire Line
	2750 1600 2750 1700
Wire Wire Line
	2250 1100 2250 1200
Connection ~ 2750 1700
Connection ~ 2750 1100
Connection ~ 2250 1100
Connection ~ 2250 1700
Wire Wire Line
	2250 1600 2250 1700
Wire Wire Line
	2750 1100 2750 1200
Wire Wire Line
	3150 1700 3150 1600
Connection ~ 3150 1100
Wire Wire Line
	3600 1100 1950 1100
Wire Wire Line
	3450 1300 3600 1300
Wire Wire Line
	3600 2900 3450 2900
Wire Wire Line
	3600 2700 1950 2700
Connection ~ 3150 2700
Wire Wire Line
	3150 3300 3150 3200
Wire Wire Line
	2750 2700 2750 2800
Wire Wire Line
	2250 3300 2250 3200
Connection ~ 2250 3300
Connection ~ 2250 2700
Connection ~ 2750 2700
Connection ~ 2750 3300
Wire Wire Line
	2250 2700 2250 2800
Wire Wire Line
	2750 3300 2750 3200
Wire Wire Line
	3150 2800 3150 2700
Connection ~ 3150 3300
Connection ~ 3450 3300
Connection ~ 3450 6500
Wire Wire Line
	2250 5900 2250 6000
Connection ~ 2250 5900
Connection ~ 2250 6500
Wire Wire Line
	3600 5900 1950 5900
Wire Wire Line
	3450 4500 3600 4500
Wire Wire Line
	3600 4300 1950 4300
Connection ~ 3150 4300
Wire Wire Line
	3150 4900 3150 4800
Wire Wire Line
	2750 4300 2750 4400
Wire Wire Line
	2250 4800 2250 4900
Connection ~ 2250 4900
Connection ~ 2250 4300
Connection ~ 2750 4300
Connection ~ 2750 4900
Wire Wire Line
	2250 4300 2250 4400
Wire Wire Line
	2750 4800 2750 4900
Wire Wire Line
	3150 4400 3150 4300
Connection ~ 3150 4900
Connection ~ 3450 4900
Wire Wire Line
	3000 6000 3000 5900
Connection ~ 3000 5900
Wire Wire Line
	3450 1950 3600 1950
Wire Wire Line
	3450 6200 3450 6550
Wire Wire Line
	3450 5150 3600 5150
Wire Wire Line
	3450 2900 3450 3350
Wire Wire Line
	5900 1000 5900 1200
Wire Wire Line
	5300 1600 5500 1600
Wire Wire Line
	5500 1600 5500 1800
Connection ~ 5500 1800
Wire Wire Line
	5900 4200 5900 4400
Wire Wire Line
	5300 4800 5500 4800
Wire Wire Line
	5500 4800 5500 5000
Wire Wire Line
	5900 5800 5900 6000
Wire Wire Line
	5300 6400 5500 6400
Wire Wire Line
	5500 6400 5500 6600
Connection ~ 5500 6600
Connection ~ 6600 1800
Wire Wire Line
	6450 1000 6450 1100
Wire Wire Line
	7350 1000 7350 1100
Connection ~ 6750 1000
Wire Wire Line
	6450 1600 6450 1700
Wire Wire Line
	7050 1600 7050 1700
Connection ~ 6600 5000
Connection ~ 8600 5000
Wire Wire Line
	6450 4900 6450 4800
Wire Wire Line
	7000 4800 7000 4900
Wire Wire Line
	8450 4800 8450 4900
Wire Wire Line
	9050 4800 9050 4900
Wire Wire Line
	6750 4200 6750 4300
Connection ~ 6450 4200
Connection ~ 7000 4200
Wire Wire Line
	8750 4200 8750 4300
Connection ~ 8450 4200
Wire Wire Line
	6750 5800 6750 5900
Connection ~ 6750 5800
Wire Wire Line
	6750 6400 6750 6500
Connection ~ 6600 6600
Connection ~ 1350 3300
Connection ~ 5900 5800
Connection ~ 5900 6600
Connection ~ 5900 5000
Connection ~ 5900 4200
Connection ~ 5900 1000
Connection ~ 5900 1800
Connection ~ 5900 2600
Connection ~ 5900 3400
Wire Wire Line
	5700 1800 5700 1900
Connection ~ 5700 1800
Wire Wire Line
	5700 5000 5700 5100
Connection ~ 5700 5000
Wire Wire Line
	3600 1950 3600 2050
Wire Wire Line
	3600 5150 3600 5250
Wire Wire Line
	5300 1800 7500 1800
Wire Wire Line
	7500 1800 7500 1900
Wire Wire Line
	7500 1900 7700 1900
Connection ~ 7200 1800
Wire Wire Line
	5300 2600 7700 2600
Connection ~ 7350 2600
Wire Wire Line
	5300 5000 9200 5000
Wire Wire Line
	9200 5000 9200 5100
Wire Wire Line
	9200 5100 9450 5100
Connection ~ 8900 5000
Wire Wire Line
	7500 6700 7250 6700
Wire Wire Line
	7250 6700 7250 6600
Wire Wire Line
	7250 6600 5300 6600
Connection ~ 6900 6600
Wire Wire Line
	1000 1000 1000 6500
Wire Wire Line
	1000 6500 3600 6500
Wire Wire Line
	1000 3300 3600 3300
Connection ~ 1000 3300
Wire Wire Line
	800  5900 1450 5900
Wire Wire Line
	1450 2700 800  2700
Connection ~ 800  2700
Wire Wire Line
	800  1000 800  7100
Wire Wire Line
	800  7100 1350 7100
Connection ~ 800  5900
$Comp
L R R4
U 1 1 5185B1CC
P 7500 6050
F 0 "R4" V 7580 6050 50  0000 C CNN
F 1 "470" V 7650 6050 50  0000 C CNN
F 2 "RC03" H 7500 6050 60  0001 C CNN
F 3 "" H 7500 6050 60  0001 C CNN
	1    7500 6050
	1    0    0    -1  
$EndComp
$Comp
L LED D8
U 1 1 5185B1CB
P 7500 6500
F 0 "D8" H 7500 6600 50  0000 C CNN
F 1 "LED" H 7500 6400 50  0000 C CNN
F 2 "led_5mm_green" H 7500 6500 60  0001 C CNN
F 3 "" H 7500 6500 60  0001 C CNN
	1    7500 6500
	0    1    1    0   
$EndComp
$Comp
L LED D6
U 1 1 5185B1BC
P 9450 4900
F 0 "D6" H 9450 5000 50  0000 C CNN
F 1 "LED" H 9450 4800 50  0000 C CNN
F 2 "led_5mm_green" H 9450 4900 60  0001 C CNN
F 3 "" H 9450 4900 60  0001 C CNN
	1    9450 4900
	0    1    1    0   
$EndComp
$Comp
L R R3
U 1 1 5185B1BB
P 9450 4450
F 0 "R3" V 9530 4450 50  0000 C CNN
F 1 "470" V 9600 4450 50  0000 C CNN
F 2 "RC03" H 9450 4450 60  0001 C CNN
F 3 "" H 9450 4450 60  0001 C CNN
	1    9450 4450
	1    0    0    -1  
$EndComp
$Comp
L R R2
U 1 1 5185B1A8
P 7700 2850
F 0 "R2" V 7780 2850 50  0000 C CNN
F 1 "1k" V 7850 2850 50  0000 C CNN
F 2 "RC03" H 7700 2850 60  0001 C CNN
F 3 "" H 7700 2850 60  0001 C CNN
	1    7700 2850
	1    0    0    -1  
$EndComp
$Comp
L LED D4
U 1 1 5185B1A7
P 7700 3300
F 0 "D4" H 7700 3400 50  0000 C CNN
F 1 "LED" H 7700 3200 50  0000 C CNN
F 2 "led_5mm_green" H 7700 3300 60  0001 C CNN
F 3 "" H 7700 3300 60  0001 C CNN
	1    7700 3300
	0    1    1    0   
$EndComp
$Comp
L LED D2
U 1 1 5185B187
P 7700 1700
F 0 "D2" H 7700 1800 50  0000 C CNN
F 1 "LED" H 7700 1600 50  0000 C CNN
F 2 "led_5mm_green" H 7700 1700 60  0001 C CNN
F 3 "" H 7700 1700 60  0001 C CNN
	1    7700 1700
	0    1    1    0   
$EndComp
$Comp
L R R1
U 1 1 5185B186
P 7700 1250
F 0 "R1" V 7780 1250 50  0000 C CNN
F 1 "1k" V 7850 1250 50  0000 C CNN
F 2 "RC03" H 7700 1250 60  0001 C CNN
F 3 "" H 7700 1250 60  0001 C CNN
	1    7700 1250
	1    0    0    -1  
$EndComp
$Comp
L R R5
U 1 1 5185B145
P 1600 7100
F 0 "R5" V 1680 7100 50  0000 C CNN
F 1 "2.2k" V 1750 7100 50  0000 C CNN
F 2 "RC03" H 1600 7100 60  0001 C CNN
F 3 "" H 1600 7100 60  0001 C CNN
	1    1600 7100
	0    -1   -1   0   
$EndComp
$Comp
L LED D9
U 1 1 5185B133
P 2050 7100
F 0 "D9" H 2050 7200 50  0000 C CNN
F 1 "LED" H 2050 7000 50  0000 C CNN
F 2 "led_5mm_green" H 2050 7100 60  0001 C CNN
F 3 "" H 2050 7100 60  0001 C CNN
	1    2050 7100
	1    0    0    -1  
$EndComp
$Comp
L AGND #PWR01
U 1 1 516CFDA3
P 3600 2050
F 0 "#PWR01" H 3600 2050 40  0001 C CNN
F 1 "AGND" H 3600 1980 50  0000 C CNN
F 2 "" H 3600 2050 60  0001 C CNN
F 3 "" H 3600 2050 60  0001 C CNN
	1    3600 2050
	1    0    0    -1  
$EndComp
$Comp
L AGND #PWR02
U 1 1 516CFD9D
P 3600 3700
F 0 "#PWR02" H 3600 3700 40  0001 C CNN
F 1 "AGND" H 3600 3630 50  0000 C CNN
F 2 "" H 3600 3700 60  0001 C CNN
F 3 "" H 3600 3700 60  0001 C CNN
	1    3600 3700
	1    0    0    -1  
$EndComp
$Comp
L AGND #PWR03
U 1 1 516CFD9A
P 3600 6850
F 0 "#PWR03" H 3600 6850 40  0001 C CNN
F 1 "AGND" H 3600 6780 50  0000 C CNN
F 2 "" H 3600 6850 60  0001 C CNN
F 3 "" H 3600 6850 60  0001 C CNN
	1    3600 6850
	1    0    0    -1  
$EndComp
$Comp
L AGND #PWR04
U 1 1 516CFD94
P 3600 5250
F 0 "#PWR04" H 3600 5250 40  0001 C CNN
F 1 "AGND" H 3600 5180 50  0000 C CNN
F 2 "" H 3600 5250 60  0001 C CNN
F 3 "" H 3600 5250 60  0001 C CNN
	1    3600 5250
	1    0    0    -1  
$EndComp
$Comp
L GND #PWR05
U 1 1 516CFD81
P 5700 1900
F 0 "#PWR05" H 5700 1900 30  0001 C CNN
F 1 "GND" H 5700 1830 30  0001 C CNN
F 2 "" H 5700 1900 60  0001 C CNN
F 3 "" H 5700 1900 60  0001 C CNN
	1    5700 1900
	1    0    0    -1  
$EndComp
$Comp
L GND #PWR06
U 1 1 516CFD77
P 5700 3500
F 0 "#PWR06" H 5700 3500 30  0001 C CNN
F 1 "GND" H 5700 3430 30  0001 C CNN
F 2 "" H 5700 3500 60  0001 C CNN
F 3 "" H 5700 3500 60  0001 C CNN
	1    5700 3500
	1    0    0    -1  
$EndComp
$Comp
L GND #PWR07
U 1 1 516CFD73
P 5700 5100
F 0 "#PWR07" H 5700 5100 30  0001 C CNN
F 1 "GND" H 5700 5030 30  0001 C CNN
F 2 "" H 5700 5100 60  0001 C CNN
F 3 "" H 5700 5100 60  0001 C CNN
	1    5700 5100
	1    0    0    -1  
$EndComp
$Comp
L GND #PWR08
U 1 1 516CFD6D
P 5700 6700
F 0 "#PWR08" H 5700 6700 30  0001 C CNN
F 1 "GND" H 5700 6630 30  0001 C CNN
F 2 "" H 5700 6700 60  0001 C CNN
F 3 "" H 5700 6700 60  0001 C CNN
	1    5700 6700
	1    0    0    -1  
$EndComp
NoConn ~ 5300 6200
NoConn ~ 5300 4600
NoConn ~ 5300 3000
NoConn ~ 5300 1400
$Comp
L CONN_2 P1
U 1 1 516CEC9B
P 900 650
F 0 "P1" V 850 650 40  0000 C CNN
F 1 "48V IN" V 950 650 40  0000 C CNN
F 2 "terminal-1x2-large" H 900 650 60  0001 C CNN
F 3 "" H 900 650 60  0001 C CNN
	1    900  650 
	0    -1   -1   0   
$EndComp
$Comp
L THERMISTOR TH20
U 1 1 516CEC2E
P 7050 6150
F 0 "TH20" V 7150 6200 50  0000 C CNN
F 1 "AHRF200" V 6950 6150 50  0000 C CNN
F 2 "AHRF200" H 7050 6150 60  0001 C CNN
F 3 "" H 7050 6150 60  0001 C CNN
	1    7050 6150
	1    0    0    -1  
$EndComp
$Comp
L THERMISTOR TH19
U 1 1 516CEC2C
P 6750 6150
F 0 "TH19" V 6850 6200 50  0000 C CNN
F 1 "AHRF200" V 6650 6150 50  0000 C CNN
F 2 "AHRF200" H 6750 6150 60  0001 C CNN
F 3 "" H 6750 6150 60  0001 C CNN
	1    6750 6150
	1    0    0    -1  
$EndComp
$Comp
L THERMISTOR TH18
U 1 1 516CEC1A
P 6450 6150
F 0 "TH18" V 6550 6200 50  0000 C CNN
F 1 "AHRF200" V 6350 6150 50  0000 C CNN
F 2 "AHRF200" H 6450 6150 60  0001 C CNN
F 3 "" H 6450 6150 60  0001 C CNN
	1    6450 6150
	1    0    0    -1  
$EndComp
$Comp
L CONN_3X2_STACK P7
U 1 1 516CEBF4
P 6700 6900
F 0 "P7" H 6700 7400 50  0000 C CNN
F 1 "LOGIC_12V" V 6750 6900 40  0000 C CNN
F 2 "terminal-2x3-medium" H 6700 6900 60  0001 C CNN
F 3 "" H 6700 6900 60  0001 C CNN
	1    6700 6900
	0    1    1    0   
$EndComp
$Comp
L THERMISTOR TH17
U 1 1 516CEB73
P 9050 4550
F 0 "TH17" V 9150 4600 50  0000 C CNN
F 1 "RGEF800" V 8950 4550 50  0000 C CNN
F 2 "RGEF800" H 9050 4550 60  0001 C CNN
F 3 "" H 9050 4550 60  0001 C CNN
	1    9050 4550
	1    0    0    -1  
$EndComp
$Comp
L THERMISTOR TH16
U 1 1 516CEB72
P 8750 4550
F 0 "TH16" V 8850 4600 50  0000 C CNN
F 1 "RGEF800" V 8650 4550 50  0000 C CNN
F 2 "RGEF800" H 8750 4550 60  0001 C CNN
F 3 "" H 8750 4550 60  0001 C CNN
	1    8750 4550
	1    0    0    -1  
$EndComp
$Comp
L THERMISTOR TH15
U 1 1 516CEB71
P 8450 4550
F 0 "TH15" V 8550 4600 50  0000 C CNN
F 1 "RGEF800" V 8350 4550 50  0000 C CNN
F 2 "RGEF800" H 8450 4550 60  0001 C CNN
F 3 "" H 8450 4550 60  0001 C CNN
	1    8450 4550
	1    0    0    -1  
$EndComp
$Comp
L THERMISTOR TH14
U 1 1 516CEB4A
P 8050 4550
F 0 "TH14" V 8150 4600 50  0000 C CNN
F 1 "RGEF800" V 7950 4550 50  0000 C CNN
F 2 "RGEF800" H 8050 4550 60  0001 C CNN
F 3 "" H 8050 4550 60  0001 C CNN
	1    8050 4550
	1    0    0    -1  
$EndComp
$Comp
L THERMISTOR TH13
U 1 1 516CEB47
P 7750 4550
F 0 "TH13" V 7850 4600 50  0000 C CNN
F 1 "RGEF800" V 7650 4550 50  0000 C CNN
F 2 "RGEF800" H 7750 4550 60  0001 C CNN
F 3 "" H 7750 4550 60  0001 C CNN
	1    7750 4550
	1    0    0    -1  
$EndComp
$Comp
L THERMISTOR TH12
U 1 1 516CEB46
P 7450 4550
F 0 "TH12" V 7550 4600 50  0000 C CNN
F 1 "RGEF800" V 7350 4550 50  0000 C CNN
F 2 "RGEF800" H 7450 4550 60  0001 C CNN
F 3 "" H 7450 4550 60  0001 C CNN
	1    7450 4550
	1    0    0    -1  
$EndComp
$Comp
L THERMISTOR TH11
U 1 1 516CEB44
P 7000 4550
F 0 "TH11" V 7100 4600 50  0000 C CNN
F 1 "RGEF800" V 6900 4550 50  0000 C CNN
F 2 "RGEF800" H 7000 4550 60  0001 C CNN
F 3 "" H 7000 4550 60  0001 C CNN
	1    7000 4550
	1    0    0    -1  
$EndComp
$Comp
L THERMISTOR TH10
U 1 1 516CEB43
P 6750 4550
F 0 "TH10" V 6850 4600 50  0000 C CNN
F 1 "RGEF800" V 6650 4550 50  0000 C CNN
F 2 "RGEF800" H 6750 4550 60  0001 C CNN
F 3 "" H 6750 4550 60  0001 C CNN
	1    6750 4550
	1    0    0    -1  
$EndComp
$Comp
L CP1 C7
U 1 1 516CEB40
P 5900 3000
F 0 "C7" H 5950 3100 50  0000 L CNN
F 1 "220uF" H 5950 2900 50  0000 L CNN
F 2 "CP_10x21mm" H 5900 3000 60  0001 C CNN
F 3 "" H 5900 3000 60  0001 C CNN
	1    5900 3000
	1    0    0    -1  
$EndComp
$Comp
L THERMISTOR TH5
U 1 1 516CEB3F
P 6450 2950
F 0 "TH5" V 6550 3000 50  0000 C CNN
F 1 "RUEF800" V 6350 2950 50  0000 C CNN
F 2 "RUEF800" H 6450 2950 60  0001 C CNN
F 3 "" H 6450 2950 60  0001 C CNN
	1    6450 2950
	1    0    0    -1  
$EndComp
$Comp
L CONN_4X2_STACK P3
U 1 1 516CEB3E
P 6850 3700
F 0 "P3" H 6850 4350 50  0000 C CNN
F 1 "THRUSTER_24V" V 6900 3650 40  0000 C CNN
F 2 "terminal-2x4-medium" H 6850 3700 60  0001 C CNN
F 3 "" H 6850 3700 60  0001 C CNN
	1    6850 3700
	0    1    1    0   
$EndComp
$Comp
L THERMISTOR TH6
U 1 1 516CEB3D
P 6750 2950
F 0 "TH6" V 6850 3000 50  0000 C CNN
F 1 "RUEF800" V 6650 2950 50  0000 C CNN
F 2 "RUEF800" H 6750 2950 60  0001 C CNN
F 3 "" H 6750 2950 60  0001 C CNN
	1    6750 2950
	1    0    0    -1  
$EndComp
$Comp
L THERMISTOR TH7
U 1 1 516CEB3C
P 7050 2950
F 0 "TH7" V 7150 3000 50  0000 C CNN
F 1 "RUEF800" V 6950 2950 50  0000 C CNN
F 2 "RUEF800" H 7050 2950 60  0001 C CNN
F 3 "" H 7050 2950 60  0001 C CNN
	1    7050 2950
	1    0    0    -1  
$EndComp
$Comp
L THERMISTOR TH8
U 1 1 516CEB3B
P 7350 2950
F 0 "TH8" V 7450 3000 50  0000 C CNN
F 1 "RUEF800" V 7250 2950 50  0000 C CNN
F 2 "RUEF800" H 7350 2950 60  0001 C CNN
F 3 "" H 7350 2950 60  0001 C CNN
	1    7350 2950
	1    0    0    -1  
$EndComp
$Comp
L THERMISTOR TH4
U 1 1 516CEB1B
P 7350 1350
F 0 "TH4" V 7450 1400 50  0000 C CNN
F 1 "RUEF800" V 7250 1350 50  0000 C CNN
F 2 "RUEF800" H 7350 1350 60  0001 C CNN
F 3 "" H 7350 1350 60  0001 C CNN
	1    7350 1350
	1    0    0    -1  
$EndComp
$Comp
L THERMISTOR TH3
U 1 1 516CEB1A
P 7050 1350
F 0 "TH3" V 7150 1400 50  0000 C CNN
F 1 "RUEF800" V 6950 1350 50  0000 C CNN
F 2 "RUEF800" H 7050 1350 60  0001 C CNN
F 3 "" H 7050 1350 60  0001 C CNN
	1    7050 1350
	1    0    0    -1  
$EndComp
$Comp
L THERMISTOR TH2
U 1 1 516CEB19
P 6750 1350
F 0 "TH2" V 6850 1400 50  0000 C CNN
F 1 "RUEF800" V 6650 1350 50  0000 C CNN
F 2 "RUEF800" H 6750 1350 60  0001 C CNN
F 3 "" H 6750 1350 60  0001 C CNN
	1    6750 1350
	1    0    0    -1  
$EndComp
$Comp
L THERMISTOR TH9
U 1 1 516CEAD1
P 6450 4550
F 0 "TH9" V 6550 4600 50  0000 C CNN
F 1 "RGEF800" V 6350 4550 50  0000 C CNN
F 2 "RGEF800" H 6450 4550 60  0001 C CNN
F 3 "" H 6450 4550 60  0001 C CNN
	1    6450 4550
	1    0    0    -1  
$EndComp
$Comp
L CONN_3X2_STACK P5
U 1 1 516CEAC4
P 8700 5300
F 0 "P5" H 8700 5800 50  0000 C CNN
F 1 "POWER_12V" V 8750 5300 40  0000 C CNN
F 2 "terminal-2x3-medium" H 8700 5300 60  0001 C CNN
F 3 "" H 8700 5300 60  0001 C CNN
	1    8700 5300
	0    1    1    0   
$EndComp
$Comp
L CONN_4X2_STACK P2
U 1 1 516CE89F
P 6850 2100
F 0 "P2" H 6850 2750 50  0000 C CNN
F 1 "THRUSTER_24V" V 6900 2050 40  0000 C CNN
F 2 "terminal-2x4-medium" H 6850 2100 60  0001 C CNN
F 3 "" H 6850 2100 60  0001 C CNN
	1    6850 2100
	0    1    1    0   
$EndComp
$Comp
L THERMISTOR TH1
U 1 1 516CE57B
P 6450 1350
F 0 "TH1" V 6550 1400 50  0000 C CNN
F 1 "RUEF800" V 6350 1350 50  0000 C CNN
F 2 "RUEF800" H 6450 1350 60  0001 C CNN
F 3 "" H 6450 1350 60  0001 C CNN
	1    6450 1350
	1    0    0    -1  
$EndComp
$Comp
L CP1 C14
U 1 1 516CE43A
P 5900 6200
F 0 "C14" H 5950 6300 50  0000 L CNN
F 1 "470uF" H 5950 6100 50  0000 L CNN
F 2 "CP_13x21mm" H 5900 6200 60  0001 C CNN
F 3 "" H 5900 6200 60  0001 C CNN
	1    5900 6200
	1    0    0    -1  
$EndComp
$Comp
L CP1 C11
U 1 1 516CE434
P 5900 4600
F 0 "C11" H 5950 4700 50  0000 L CNN
F 1 "470uF" H 5950 4500 50  0000 L CNN
F 2 "CP_13x21mm" H 5900 4600 60  0001 C CNN
F 3 "" H 5900 4600 60  0001 C CNN
	1    5900 4600
	1    0    0    -1  
$EndComp
$Comp
L CP1 C3
U 1 1 516CE3D7
P 5900 1400
F 0 "C3" H 5950 1500 50  0000 L CNN
F 1 "220uF" H 5950 1300 50  0000 L CNN
F 2 "CP_10x21mm" H 5900 1400 60  0001 C CNN
F 3 "" H 5900 1400 60  0001 C CNN
	1    5900 1400
	1    0    0    -1  
$EndComp
$Comp
L CMINI C15
U 1 1 516CE368
P 3450 6650
F 0 "C15" H 3200 6650 50  0000 L CNN
F 1 "4.7nF" H 3150 6550 50  0000 L CNN
F 2 "cnp_6mm_disc" H 3450 6650 60  0001 C CNN
F 3 "" H 3450 6650 60  0001 C CNN
	1    3450 6650
	1    0    0    -1  
$EndComp
$Comp
L CMINI C12
U 1 1 516CE365
P 3450 5050
F 0 "C12" H 3200 5050 50  0000 L CNN
F 1 "4.7nF" H 3150 4950 50  0000 L CNN
F 2 "cnp_6mm_disc" H 3450 5050 60  0001 C CNN
F 3 "" H 3450 5050 60  0001 C CNN
	1    3450 5050
	1    0    0    -1  
$EndComp
$Comp
L CMINI C8
U 1 1 516CE361
P 3450 3450
F 0 "C8" H 3200 3450 50  0000 L CNN
F 1 "4.7nF" H 3150 3350 50  0000 L CNN
F 2 "cnp_6mm_disc" H 3450 3450 60  0001 C CNN
F 3 "" H 3450 3450 60  0001 C CNN
	1    3450 3450
	1    0    0    -1  
$EndComp
$Comp
L CMINI C4
U 1 1 516CE32C
P 3450 1850
F 0 "C4" H 3200 1850 50  0000 L CNN
F 1 "4.7nF" H 3150 1750 50  0000 L CNN
F 2 "cnp_6mm_disc" H 3450 1850 60  0001 C CNN
F 3 "" H 3450 1850 60  0001 C CNN
	1    3450 1850
	1    0    0    -1  
$EndComp
$Comp
L QW050B1 PS4
U 1 1 516CDD7E
P 4450 6200
F 0 "PS4" H 3950 6800 60  0000 C CNN
F 1 "QW050B1 48V-12V" H 4450 5450 60  0000 C CNN
F 2 "QW050B1" H 4450 6200 60  0001 C CNN
F 3 "" H 4450 6200 60  0001 C CNN
	1    4450 6200
	1    0    0    -1  
$EndComp
$Comp
L FUSE F3
U 1 1 516CDD53
P 1700 4300
F 0 "F3" H 1800 4350 40  0000 C CNN
F 1 "10A" H 1600 4250 40  0000 C CNN
F 2 "Fuse-Holder-3AG" H 1700 4300 60  0001 C CNN
F 3 "" H 1700 4300 60  0001 C CNN
	1    1700 4300
	1    0    0    -1  
$EndComp
$Comp
L CP1 C9
U 1 1 516CDD52
P 2750 4600
F 0 "C9" H 2800 4700 50  0000 L CNN
F 1 "100uF" H 2800 4500 50  0000 L CNN
F 2 "CP_13x21mm" H 2750 4600 60  0001 C CNN
F 3 "" H 2750 4600 60  0001 C CNN
	1    2750 4600
	1    0    0    -1  
$EndComp
$Comp
L CP1 C10
U 1 1 516CDD51
P 3150 4600
F 0 "C10" H 3200 4700 50  0000 L CNN
F 1 "100uF" H 3200 4500 50  0000 L CNN
F 2 "CP_13x21mm" H 3150 4600 60  0001 C CNN
F 3 "" H 3150 4600 60  0001 C CNN
	1    3150 4600
	1    0    0    -1  
$EndComp
$Comp
L ZENER D5
U 1 1 516CDD50
P 2250 4600
F 0 "D5" H 2250 4700 50  0000 C CNN
F 1 "58V TVS" H 2250 4500 40  0000 C CNN
F 2 "diode_5kp58a" H 2250 4600 60  0001 C CNN
F 3 "" H 2250 4600 60  0001 C CNN
	1    2250 4600
	0    -1   -1   0   
$EndComp
$Comp
L COSELDCDC PS3
U 1 1 516CDD4F
P 4450 4600
F 0 "PS3" H 3950 5200 60  0000 C CNN
F 1 "CBS350 48V-12V" H 4450 3850 60  0000 C CNN
F 2 "CBS350-450" H 4450 4600 60  0001 C CNN
F 3 "" H 4450 4600 60  0001 C CNN
	1    4450 4600
	1    0    0    -1  
$EndComp
$Comp
L ZENER D7
U 1 1 516CDD4D
P 2250 6200
F 0 "D7" H 2250 6300 50  0000 C CNN
F 1 "58V TVS" H 2250 6100 40  0000 C CNN
F 2 "diode_5kp58a" H 2250 6200 60  0001 C CNN
F 3 "" H 2250 6200 60  0001 C CNN
	1    2250 6200
	0    -1   -1   0   
$EndComp
$Comp
L CP1 C13
U 1 1 516CDD4B
P 3000 6200
F 0 "C13" H 3050 6300 50  0000 L CNN
F 1 "47uF" H 3050 6100 50  0000 L CNN
F 2 "CP_10x16mm" H 3000 6200 60  0001 C CNN
F 3 "" H 3000 6200 60  0001 C CNN
	1    3000 6200
	1    0    0    -1  
$EndComp
$Comp
L FUSE F4
U 1 1 516CDD4A
P 1700 5900
F 0 "F4" H 1800 5950 40  0000 C CNN
F 1 "10A" H 1600 5850 40  0000 C CNN
F 2 "Fuse-Holder-3AG" H 1700 5900 60  0001 C CNN
F 3 "" H 1700 5900 60  0001 C CNN
	1    1700 5900
	1    0    0    -1  
$EndComp
$Comp
L FUSE F2
U 1 1 516CDD40
P 1700 2700
F 0 "F2" H 1800 2750 40  0000 C CNN
F 1 "15A" H 1600 2650 40  0000 C CNN
F 2 "Fuse-Holder-3AG" H 1700 2700 60  0001 C CNN
F 3 "" H 1700 2700 60  0001 C CNN
	1    1700 2700
	1    0    0    -1  
$EndComp
$Comp
L CP1 C5
U 1 1 516CDD3F
P 2750 3000
F 0 "C5" H 2800 3100 50  0000 L CNN
F 1 "100uF" H 2800 2900 50  0000 L CNN
F 2 "CP_13x21mm" H 2750 3000 60  0001 C CNN
F 3 "" H 2750 3000 60  0001 C CNN
	1    2750 3000
	1    0    0    -1  
$EndComp
$Comp
L CP1 C6
U 1 1 516CDD3E
P 3150 3000
F 0 "C6" H 3200 3100 50  0000 L CNN
F 1 "100uF" H 3200 2900 50  0000 L CNN
F 2 "CP_13x21mm" H 3150 3000 60  0001 C CNN
F 3 "" H 3150 3000 60  0001 C CNN
	1    3150 3000
	1    0    0    -1  
$EndComp
$Comp
L ZENER D3
U 1 1 516CDD3D
P 2250 3000
F 0 "D3" H 2250 3100 50  0000 C CNN
F 1 "58V TVS" H 2250 2900 40  0000 C CNN
F 2 "diode_5kp58a" H 2250 3000 60  0001 C CNN
F 3 "" H 2250 3000 60  0001 C CNN
	1    2250 3000
	0    -1   -1   0   
$EndComp
$Comp
L COSELDCDC PS2
U 1 1 516CDD3C
P 4450 3000
F 0 "PS2" H 3950 3600 60  0000 C CNN
F 1 "CBS450 48V-24V" H 4450 2250 60  0000 C CNN
F 2 "CBS350-450" H 4450 3000 60  0001 C CNN
F 3 "" H 4450 3000 60  0001 C CNN
	1    4450 3000
	1    0    0    -1  
$EndComp
$Comp
L COSELDCDC PS1
U 1 1 516CDC82
P 4450 1400
F 0 "PS1" H 3950 2000 60  0000 C CNN
F 1 "CBS450 48V-24V" H 4450 650 60  0000 C CNN
F 2 "CBS350-450" H 4450 1400 60  0001 C CNN
F 3 "" H 4450 1400 60  0001 C CNN
	1    4450 1400
	1    0    0    -1  
$EndComp
$Comp
L ZENER D1
U 1 1 516CD5E3
P 2250 1400
F 0 "D1" H 2250 1500 50  0000 C CNN
F 1 "58V TVS" H 2250 1300 40  0000 C CNN
F 2 "diode_5kp58a" H 2250 1400 60  0001 C CNN
F 3 "" H 2250 1400 60  0001 C CNN
	1    2250 1400
	0    -1   -1   0   
$EndComp
$Comp
L CP1 C2
U 1 1 516CD57F
P 3150 1400
F 0 "C2" H 3200 1500 50  0000 L CNN
F 1 "100uF" H 3200 1300 50  0000 L CNN
F 2 "CP_13x21mm" H 3150 1400 60  0001 C CNN
F 3 "" H 3150 1400 60  0001 C CNN
	1    3150 1400
	1    0    0    -1  
$EndComp
$Comp
L CP1 C1
U 1 1 516CD563
P 2750 1400
F 0 "C1" H 2800 1500 50  0000 L CNN
F 1 "100uF" H 2800 1300 50  0000 L CNN
F 2 "CP_13x21mm" H 2750 1400 60  0001 C CNN
F 3 "" H 2750 1400 60  0001 C CNN
	1    2750 1400
	1    0    0    -1  
$EndComp
$Comp
L FUSE F1
U 1 1 516CD51C
P 1700 1100
F 0 "F1" H 1800 1150 40  0000 C CNN
F 1 "15A" H 1600 1050 40  0000 C CNN
F 2 "Fuse-Holder-3AG" H 1700 1100 60  0001 C CNN
F 3 "" H 1700 1100 60  0001 C CNN
	1    1700 1100
	1    0    0    -1  
$EndComp
$Comp
L PWR_FLAG #FLG09
U 1 1 518C74EF
P 800 1050
F 0 "#FLG09" H 800 1145 30  0001 C CNN
F 1 "PWR_FLAG" H 800 1230 30  0000 C CNN
F 2 "" H 800 1050 60  0000 C CNN
F 3 "" H 800 1050 60  0000 C CNN
	1    800  1050
	0    -1   -1   0   
$EndComp
$Comp
L CONN_3X2_STACK P4
U 1 1 518CA670
P 6700 5300
F 0 "P4" H 6700 5800 50  0000 C CNN
F 1 "POWER_12V" V 6750 5300 40  0000 C CNN
F 2 "terminal-2x3-medium" H 6700 5300 60  0001 C CNN
F 3 "" H 6700 5300 60  0001 C CNN
	1    6700 5300
	0    1    1    0   
$EndComp
$Comp
L CONN_3X2_STACK P6
U 1 1 518CA676
P 7700 5450
F 0 "P6" H 7700 5950 50  0000 C CNN
F 1 "POWER_12V" V 7750 5450 40  0000 C CNN
F 2 "terminal-2x3-medium" H 7700 5450 60  0001 C CNN
F 3 "" H 7700 5450 60  0001 C CNN
	1    7700 5450
	0    1    1    0   
$EndComp
Wire Wire Line
	7300 5000 7300 5150
Connection ~ 7300 5000
Wire Wire Line
	7450 4800 7450 5050
Wire Wire Line
	7600 5000 7600 5150
Connection ~ 7600 5000
Wire Wire Line
	7750 4800 7750 5050
Wire Wire Line
	7900 5000 7900 5150
Connection ~ 7900 5000
Wire Wire Line
	8050 4800 8050 5050
Wire Wire Line
	8050 4300 8050 4200
Connection ~ 8050 4200
Wire Wire Line
	7750 4300 7750 4200
Connection ~ 7750 4200
Wire Wire Line
	7450 4300 7450 4200
Connection ~ 7450 4200
$EndSCHEMATC
