EESchema Schematic File Version 2  date Tue 08 Oct 2013 08:47:04 PM PDT
LIBS:power
LIBS:device
LIBS:transistors
LIBS:conn
LIBS:linear
LIBS:regul
LIBS:74xx
LIBS:cmos4000
LIBS:adc-dac
LIBS:memory
LIBS:xilinx
LIBS:special
LIBS:microcontrollers
LIBS:dsp
LIBS:microchip
LIBS:analog_switches
LIBS:motorola
LIBS:texas
LIBS:intel
LIBS:audio
LIBS:interface
LIBS:digital-audio
LIBS:philips
LIBS:display
LIBS:cypress
LIBS:siliconi
LIBS:opto
LIBS:atmel
LIBS:contrib
LIBS:valves
LIBS:powerblock-revised-cache
EELAYER 24 0
EELAYER END
$Descr A4 8268 11693 portrait
encoding utf-8
Sheet 1 1
Title "ROV Power Block"
Date "8 oct 2013"
Rev "2a"
Comp "Devon Goode"
Comment1 ""
Comment2 ""
Comment3 ""
Comment4 ""
$EndDescr
$Comp
L LED D6
U 1 1 5185B1BC
P 7450 4900
F 0 "D6" H 7450 5000 50  0000 C CNN
F 1 "12V1" H 7450 4800 50  0000 C CNN
F 2 "led_5mm_green" H 7450 4900 60  0001 C CNN
F 3 "" H 7450 4900 60  0001 C CNN
	1    7450 4900
	0    1    1    0   
$EndComp
$Comp
L R R3
U 1 1 5185B1BB
P 7450 4450
F 0 "R3" V 7530 4450 50  0000 C CNN
F 1 "470" V 7600 4450 50  0000 C CNN
F 2 "rc03_vert" H 7450 4450 60  0001 C CNN
F 3 "" H 7450 4450 60  0001 C CNN
	1    7450 4450
	1    0    0    -1  
$EndComp
$Comp
L R R2
U 1 1 5185B1A8
P 7550 2850
F 0 "R2" V 7630 2850 50  0000 C CNN
F 1 "1k" V 7700 2850 50  0000 C CNN
F 2 "rc03_vert" H 7550 2850 60  0001 C CNN
F 3 "" H 7550 2850 60  0001 C CNN
	1    7550 2850
	1    0    0    -1  
$EndComp
$Comp
L LED D4
U 1 1 5185B1A7
P 7550 3300
F 0 "D4" H 7550 3400 50  0000 C CNN
F 1 "24V2" H 7550 3200 50  0000 C CNN
F 2 "led_5mm_green" H 7550 3300 60  0001 C CNN
F 3 "" H 7550 3300 60  0001 C CNN
	1    7550 3300
	0    1    1    0   
$EndComp
$Comp
L LED D2
U 1 1 5185B187
P 7550 1700
F 0 "D2" H 7550 1800 50  0000 C CNN
F 1 "24V1" H 7550 1600 50  0000 C CNN
F 2 "led_5mm_green" H 7550 1700 60  0001 C CNN
F 3 "" H 7550 1700 60  0001 C CNN
	1    7550 1700
	0    1    1    0   
$EndComp
$Comp
L R R1
U 1 1 5185B186
P 7550 1250
F 0 "R1" V 7630 1250 50  0000 C CNN
F 1 "1k" V 7700 1250 50  0000 C CNN
F 2 "rc03_vert" H 7550 1250 60  0001 C CNN
F 3 "" H 7550 1250 60  0001 C CNN
	1    7550 1250
	1    0    0    -1  
$EndComp
$Comp
L R R5
U 1 1 5185B145
P 650 6350
F 0 "R5" V 730 6350 50  0000 C CNN
F 1 "2.2k" V 800 6350 50  0000 C CNN
F 2 "rc03_vert" H 650 6350 60  0001 C CNN
F 3 "" H 650 6350 60  0001 C CNN
	1    650  6350
	1    0    0    -1  
$EndComp
$Comp
L LED D9
U 1 1 5185B133
P 650 6800
F 0 "D9" H 650 6900 50  0000 C CNN
F 1 "LED" H 650 6700 50  0000 C CNN
F 2 "led_5mm_green" H 650 6800 60  0001 C CNN
F 3 "" H 650 6800 60  0001 C CNN
	1    650  6800
	0    1    1    0   
$EndComp
$Comp
L AGND #PWR01
U 1 1 516CFDA3
P 3450 2050
F 0 "#PWR01" H 3450 2050 40  0001 C CNN
F 1 "AGND" H 3450 1980 50  0000 C CNN
F 2 "" H 3450 2050 60  0001 C CNN
F 3 "" H 3450 2050 60  0001 C CNN
	1    3450 2050
	1    0    0    -1  
$EndComp
$Comp
L AGND #PWR02
U 1 1 516CFD9D
P 3450 3700
F 0 "#PWR02" H 3450 3700 40  0001 C CNN
F 1 "AGND" H 3450 3630 50  0000 C CNN
F 2 "" H 3450 3700 60  0001 C CNN
F 3 "" H 3450 3700 60  0001 C CNN
	1    3450 3700
	1    0    0    -1  
$EndComp
$Comp
L AGND #PWR03
U 1 1 516CFD94
P 3450 5250
F 0 "#PWR03" H 3450 5250 40  0001 C CNN
F 1 "AGND" H 3450 5180 50  0000 C CNN
F 2 "" H 3450 5250 60  0001 C CNN
F 3 "" H 3450 5250 60  0001 C CNN
	1    3450 5250
	1    0    0    -1  
$EndComp
$Comp
L GND #PWR04
U 1 1 516CFD81
P 5550 1900
F 0 "#PWR04" H 5550 1900 30  0001 C CNN
F 1 "GND" H 5550 1830 30  0001 C CNN
F 2 "" H 5550 1900 60  0001 C CNN
F 3 "" H 5550 1900 60  0001 C CNN
	1    5550 1900
	1    0    0    -1  
$EndComp
$Comp
L GND #PWR05
U 1 1 516CFD77
P 5550 3500
F 0 "#PWR05" H 5550 3500 30  0001 C CNN
F 1 "GND" H 5550 3430 30  0001 C CNN
F 2 "" H 5550 3500 60  0001 C CNN
F 3 "" H 5550 3500 60  0001 C CNN
	1    5550 3500
	1    0    0    -1  
$EndComp
$Comp
L GND #PWR06
U 1 1 516CFD73
P 5550 5100
F 0 "#PWR06" H 5550 5100 30  0001 C CNN
F 1 "GND" H 5550 5030 30  0001 C CNN
F 2 "" H 5550 5100 60  0001 C CNN
F 3 "" H 5550 5100 60  0001 C CNN
	1    5550 5100
	1    0    0    -1  
$EndComp
NoConn ~ 5150 4600
NoConn ~ 5150 3000
NoConn ~ 5150 1400
$Comp
L CONN_2 P1
U 1 1 516CEC9B
P 750 650
F 0 "P1" V 700 650 40  0000 C CNN
F 1 "48V IN" V 800 650 40  0000 C CNN
F 2 "terminal-1x2-large" H 750 650 60  0001 C CNN
F 3 "" H 750 650 60  0001 C CNN
	1    750  650 
	0    -1   -1   0   
$EndComp
$Comp
L THERMISTOR TH11
U 1 1 516CEB44
P 6900 4550
F 0 "TH11" V 7000 4600 50  0000 C CNN
F 1 "RGEF800" V 6800 4550 50  0000 C CNN
F 2 "RGEF800" H 6900 4550 60  0001 C CNN
F 3 "" H 6900 4550 60  0001 C CNN
	1    6900 4550
	1    0    0    -1  
$EndComp
$Comp
L THERMISTOR TH10
U 1 1 516CEB43
P 6600 4550
F 0 "TH10" V 6700 4600 50  0000 C CNN
F 1 "RGEF800" V 6500 4550 50  0000 C CNN
F 2 "RGEF800" H 6600 4550 60  0001 C CNN
F 3 "" H 6600 4550 60  0001 C CNN
	1    6600 4550
	1    0    0    -1  
$EndComp
$Comp
L CP1 C7
U 1 1 516CEB40
P 5750 3000
F 0 "C7" H 5800 3100 50  0000 L CNN
F 1 "220uF" H 5800 2900 50  0000 L CNN
F 2 "CP_10x21mm" H 5750 3000 60  0001 C CNN
F 3 "" H 5750 3000 60  0001 C CNN
	1    5750 3000
	1    0    0    -1  
$EndComp
$Comp
L THERMISTOR TH5
U 1 1 516CEB3F
P 6300 2950
F 0 "TH5" V 6400 3000 50  0000 C CNN
F 1 "RUEF800" V 6200 2950 50  0000 C CNN
F 2 "RUEF800" H 6300 2950 60  0001 C CNN
F 3 "" H 6300 2950 60  0001 C CNN
	1    6300 2950
	1    0    0    -1  
$EndComp
$Comp
L CONN_4X2_STACK P3
U 1 1 516CEB3E
P 6700 3700
F 0 "P3" H 6700 4350 50  0000 C CNN
F 1 "24V_OUT" V 6750 3650 40  0000 C CNN
F 2 "terminal-2x4-medium" H 6700 3700 60  0001 C CNN
F 3 "" H 6700 3700 60  0001 C CNN
	1    6700 3700
	0    1    1    0   
$EndComp
$Comp
L THERMISTOR TH6
U 1 1 516CEB3D
P 6600 2950
F 0 "TH6" V 6700 3000 50  0000 C CNN
F 1 "RUEF800" V 6500 2950 50  0000 C CNN
F 2 "RUEF800" H 6600 2950 60  0001 C CNN
F 3 "" H 6600 2950 60  0001 C CNN
	1    6600 2950
	1    0    0    -1  
$EndComp
$Comp
L THERMISTOR TH7
U 1 1 516CEB3C
P 6900 2950
F 0 "TH7" V 7000 3000 50  0000 C CNN
F 1 "RUEF800" V 6800 2950 50  0000 C CNN
F 2 "RUEF800" H 6900 2950 60  0001 C CNN
F 3 "" H 6900 2950 60  0001 C CNN
	1    6900 2950
	1    0    0    -1  
$EndComp
$Comp
L THERMISTOR TH8
U 1 1 516CEB3B
P 7200 2950
F 0 "TH8" V 7300 3000 50  0000 C CNN
F 1 "RUEF800" V 7100 2950 50  0000 C CNN
F 2 "RUEF800" H 7200 2950 60  0001 C CNN
F 3 "" H 7200 2950 60  0001 C CNN
	1    7200 2950
	1    0    0    -1  
$EndComp
$Comp
L THERMISTOR TH4
U 1 1 516CEB1B
P 7200 1350
F 0 "TH4" V 7300 1400 50  0000 C CNN
F 1 "RUEF800" V 7100 1350 50  0000 C CNN
F 2 "RUEF800" H 7200 1350 60  0001 C CNN
F 3 "" H 7200 1350 60  0001 C CNN
	1    7200 1350
	1    0    0    -1  
$EndComp
$Comp
L THERMISTOR TH3
U 1 1 516CEB1A
P 6900 1350
F 0 "TH3" V 7000 1400 50  0000 C CNN
F 1 "RUEF800" V 6800 1350 50  0000 C CNN
F 2 "RUEF800" H 6900 1350 60  0001 C CNN
F 3 "" H 6900 1350 60  0001 C CNN
	1    6900 1350
	1    0    0    -1  
$EndComp
$Comp
L THERMISTOR TH2
U 1 1 516CEB19
P 6600 1350
F 0 "TH2" V 6700 1400 50  0000 C CNN
F 1 "RUEF800" V 6500 1350 50  0000 C CNN
F 2 "RUEF800" H 6600 1350 60  0001 C CNN
F 3 "" H 6600 1350 60  0001 C CNN
	1    6600 1350
	1    0    0    -1  
$EndComp
$Comp
L THERMISTOR TH9
U 1 1 516CEAD1
P 6300 4550
F 0 "TH9" V 6400 4600 50  0000 C CNN
F 1 "RGEF800" V 6200 4550 50  0000 C CNN
F 2 "RGEF800" H 6300 4550 60  0001 C CNN
F 3 "" H 6300 4550 60  0001 C CNN
	1    6300 4550
	1    0    0    -1  
$EndComp
$Comp
L CONN_4X2_STACK P2
U 1 1 516CE89F
P 6700 2100
F 0 "P2" H 6700 2750 50  0000 C CNN
F 1 "24V_OUT" V 6750 2050 40  0000 C CNN
F 2 "terminal-2x4-medium" H 6700 2100 60  0001 C CNN
F 3 "" H 6700 2100 60  0001 C CNN
	1    6700 2100
	0    1    1    0   
$EndComp
$Comp
L THERMISTOR TH1
U 1 1 516CE57B
P 6300 1350
F 0 "TH1" V 6400 1400 50  0000 C CNN
F 1 "RUEF800" V 6200 1350 50  0000 C CNN
F 2 "RUEF800" H 6300 1350 60  0001 C CNN
F 3 "" H 6300 1350 60  0001 C CNN
	1    6300 1350
	1    0    0    -1  
$EndComp
$Comp
L CP1 C11
U 1 1 516CE434
P 5750 4600
F 0 "C11" H 5800 4700 50  0000 L CNN
F 1 "470uF" H 5800 4500 50  0000 L CNN
F 2 "CP_13x21mm" H 5750 4600 60  0001 C CNN
F 3 "" H 5750 4600 60  0001 C CNN
	1    5750 4600
	1    0    0    -1  
$EndComp
$Comp
L CP1 C3
U 1 1 516CE3D7
P 5750 1400
F 0 "C3" H 5800 1500 50  0000 L CNN
F 1 "220uF" H 5800 1300 50  0000 L CNN
F 2 "CP_10x21mm" H 5750 1400 60  0001 C CNN
F 3 "" H 5750 1400 60  0001 C CNN
	1    5750 1400
	1    0    0    -1  
$EndComp
$Comp
L CMINI C12
U 1 1 516CE365
P 3300 5050
F 0 "C12" H 3050 5050 50  0000 L CNN
F 1 "4.7nF" H 3000 4950 50  0000 L CNN
F 2 "cnp_6mm_disc" H 3300 5050 60  0001 C CNN
F 3 "" H 3300 5050 60  0001 C CNN
	1    3300 5050
	1    0    0    -1  
$EndComp
$Comp
L CMINI C8
U 1 1 516CE361
P 3300 3450
F 0 "C8" H 3050 3450 50  0000 L CNN
F 1 "4.7nF" H 3000 3350 50  0000 L CNN
F 2 "cnp_6mm_disc" H 3300 3450 60  0001 C CNN
F 3 "" H 3300 3450 60  0001 C CNN
	1    3300 3450
	1    0    0    -1  
$EndComp
$Comp
L CMINI C4
U 1 1 516CE32C
P 3300 1850
F 0 "C4" H 3050 1850 50  0000 L CNN
F 1 "4.7nF" H 3000 1750 50  0000 L CNN
F 2 "cnp_6mm_disc" H 3300 1850 60  0001 C CNN
F 3 "" H 3300 1850 60  0001 C CNN
	1    3300 1850
	1    0    0    -1  
$EndComp
$Comp
L FUSE F3
U 1 1 516CDD53
P 1550 4300
F 0 "F3" H 1650 4350 40  0000 C CNN
F 1 "20A" H 1450 4250 40  0000 C CNN
F 2 "Fuse-Holder-3AG" H 1550 4300 60  0001 C CNN
F 3 "" H 1550 4300 60  0001 C CNN
	1    1550 4300
	1    0    0    -1  
$EndComp
$Comp
L CP1 C9
U 1 1 516CDD52
P 2600 4600
F 0 "C9" H 2650 4700 50  0000 L CNN
F 1 "100uF" H 2650 4500 50  0000 L CNN
F 2 "CP_13x21mm" H 2600 4600 60  0001 C CNN
F 3 "" H 2600 4600 60  0001 C CNN
	1    2600 4600
	1    0    0    -1  
$EndComp
$Comp
L CP1 C10
U 1 1 516CDD51
P 3000 4600
F 0 "C10" H 3050 4700 50  0000 L CNN
F 1 "100uF" H 3050 4500 50  0000 L CNN
F 2 "CP_13x21mm" H 3000 4600 60  0001 C CNN
F 3 "" H 3000 4600 60  0001 C CNN
	1    3000 4600
	1    0    0    -1  
$EndComp
$Comp
L ZENER D5
U 1 1 516CDD50
P 2100 4600
F 0 "D5" H 2100 4700 50  0000 C CNN
F 1 "58V TVS" H 2100 4500 40  0000 C CNN
F 2 "diode_5kp58a" H 2100 4600 60  0001 C CNN
F 3 "" H 2100 4600 60  0001 C CNN
	1    2100 4600
	0    -1   -1   0   
$EndComp
$Comp
L COSELDCDC PS3
U 1 1 516CDD4F
P 4300 4600
F 0 "PS3" H 3800 5200 60  0000 C CNN
F 1 "CBS350 48V-12V" H 4300 3850 60  0000 C CNN
F 2 "CBS350-450" H 4300 4600 60  0001 C CNN
F 3 "" H 4300 4600 60  0001 C CNN
	1    4300 4600
	1    0    0    -1  
$EndComp
$Comp
L FUSE F2
U 1 1 516CDD40
P 1550 2700
F 0 "F2" H 1650 2750 40  0000 C CNN
F 1 "20A" H 1450 2650 40  0000 C CNN
F 2 "Fuse-Holder-3AG" H 1550 2700 60  0001 C CNN
F 3 "" H 1550 2700 60  0001 C CNN
	1    1550 2700
	1    0    0    -1  
$EndComp
$Comp
L CP1 C5
U 1 1 516CDD3F
P 2600 3000
F 0 "C5" H 2650 3100 50  0000 L CNN
F 1 "100uF" H 2650 2900 50  0000 L CNN
F 2 "CP_13x21mm" H 2600 3000 60  0001 C CNN
F 3 "" H 2600 3000 60  0001 C CNN
	1    2600 3000
	1    0    0    -1  
$EndComp
$Comp
L CP1 C6
U 1 1 516CDD3E
P 3000 3000
F 0 "C6" H 3050 3100 50  0000 L CNN
F 1 "100uF" H 3050 2900 50  0000 L CNN
F 2 "CP_13x21mm" H 3000 3000 60  0001 C CNN
F 3 "" H 3000 3000 60  0001 C CNN
	1    3000 3000
	1    0    0    -1  
$EndComp
$Comp
L ZENER D3
U 1 1 516CDD3D
P 2100 3000
F 0 "D3" H 2100 3100 50  0000 C CNN
F 1 "58V TVS" H 2100 2900 40  0000 C CNN
F 2 "diode_5kp58a" H 2100 3000 60  0001 C CNN
F 3 "" H 2100 3000 60  0001 C CNN
	1    2100 3000
	0    -1   -1   0   
$EndComp
$Comp
L COSELDCDC PS2
U 1 1 516CDD3C
P 4300 3000
F 0 "PS2" H 3800 3600 60  0000 C CNN
F 1 "CBS450 48V-24V" H 4300 2250 60  0000 C CNN
F 2 "CBS350-450" H 4300 3000 60  0001 C CNN
F 3 "" H 4300 3000 60  0001 C CNN
	1    4300 3000
	1    0    0    -1  
$EndComp
$Comp
L COSELDCDC PS1
U 1 1 516CDC82
P 4300 1400
F 0 "PS1" H 3800 2000 60  0000 C CNN
F 1 "CBS450 48V-24V" H 4300 650 60  0000 C CNN
F 2 "CBS350-450" H 4300 1400 60  0001 C CNN
F 3 "" H 4300 1400 60  0001 C CNN
	1    4300 1400
	1    0    0    -1  
$EndComp
$Comp
L ZENER D1
U 1 1 516CD5E3
P 2100 1400
F 0 "D1" H 2100 1500 50  0000 C CNN
F 1 "58V TVS" H 2100 1300 40  0000 C CNN
F 2 "diode_5kp58a" H 2100 1400 60  0001 C CNN
F 3 "" H 2100 1400 60  0001 C CNN
	1    2100 1400
	0    -1   -1   0   
$EndComp
$Comp
L CP1 C2
U 1 1 516CD57F
P 3000 1400
F 0 "C2" H 3050 1500 50  0000 L CNN
F 1 "100uF" H 3050 1300 50  0000 L CNN
F 2 "CP_13x21mm" H 3000 1400 60  0001 C CNN
F 3 "" H 3000 1400 60  0001 C CNN
	1    3000 1400
	1    0    0    -1  
$EndComp
$Comp
L CP1 C1
U 1 1 516CD563
P 2600 1400
F 0 "C1" H 2650 1500 50  0000 L CNN
F 1 "100uF" H 2650 1300 50  0000 L CNN
F 2 "CP_13x21mm" H 2600 1400 60  0001 C CNN
F 3 "" H 2600 1400 60  0001 C CNN
	1    2600 1400
	1    0    0    -1  
$EndComp
$Comp
L FUSE F1
U 1 1 516CD51C
P 1550 1100
F 0 "F1" H 1650 1150 40  0000 C CNN
F 1 "20A" H 1450 1050 40  0000 C CNN
F 2 "Fuse-Holder-3AG" H 1550 1100 60  0001 C CNN
F 3 "" H 1550 1100 60  0001 C CNN
	1    1550 1100
	1    0    0    -1  
$EndComp
$Comp
L PWR_FLAG #FLG07
U 1 1 518C74EF
P 650 1050
F 0 "#FLG07" H 650 1145 30  0001 C CNN
F 1 "PWR_FLAG" H 650 1230 30  0000 C CNN
F 2 "" H 650 1050 60  0000 C CNN
F 3 "" H 650 1050 60  0000 C CNN
	1    650  1050
	0    -1   -1   0   
$EndComp
$Comp
L CONN_4X2_STACK P4
U 1 1 52548726
P 6700 5300
F 0 "P4" H 6700 5950 50  0000 C CNN
F 1 "12V_OUT" V 6750 5250 40  0000 C CNN
F 2 "~" H 6700 5300 60  0000 C CNN
F 3 "~" H 6700 5300 60  0000 C CNN
	1    6700 5300
	0    1    1    0   
$EndComp
$Comp
L THERMISTOR TH12
U 1 1 52548733
P 7200 4550
F 0 "TH12" V 7300 4600 50  0000 C CNN
F 1 "RGEF800" V 7100 4550 50  0000 C CNN
F 2 "RGEF800" H 7200 4550 60  0001 C CNN
F 3 "" H 7200 4550 60  0001 C CNN
	1    7200 4550
	1    0    0    -1  
$EndComp
Connection ~ 650  1050
Wire Wire Line
	650  1000 650  6100
Wire Wire Line
	650  1100 1300 1100
Connection ~ 650  4300
Wire Wire Line
	650  4300 1300 4300
Connection ~ 850  4900
Wire Wire Line
	850  4900 3450 4900
Connection ~ 850  1700
Wire Wire Line
	850  1700 3450 1700
Connection ~ 7050 3400
Wire Wire Line
	7550 3500 7350 3500
Wire Wire Line
	7350 3500 7350 3400
Wire Wire Line
	7350 3400 5150 3400
Connection ~ 7200 1000
Wire Wire Line
	5150 1000 7550 1000
Wire Wire Line
	5150 1800 7350 1800
Wire Wire Line
	3450 3700 3450 3550
Connection ~ 5550 3400
Wire Wire Line
	5550 3400 5550 3500
Connection ~ 6600 4200
Wire Wire Line
	6300 4200 6300 4300
Wire Wire Line
	6900 3200 6900 3300
Wire Wire Line
	6300 3200 6300 3300
Connection ~ 6600 2600
Wire Wire Line
	7200 2600 7200 2700
Wire Wire Line
	6300 2600 6300 2700
Connection ~ 6450 3400
Connection ~ 5350 3400
Wire Wire Line
	5350 3400 5350 3200
Wire Wire Line
	5350 3200 5150 3200
Wire Wire Line
	5750 2600 5750 2800
Wire Wire Line
	5750 3400 5750 3200
Wire Wire Line
	5150 2800 5350 2800
Wire Wire Line
	5350 2800 5350 2600
Connection ~ 5350 2600
Connection ~ 6150 3400
Connection ~ 6750 3400
Wire Wire Line
	6600 2600 6600 2700
Connection ~ 6300 2600
Wire Wire Line
	6900 2600 6900 2700
Connection ~ 6900 2600
Wire Wire Line
	6600 3200 6600 3300
Wire Wire Line
	7200 3200 7200 3300
Wire Wire Line
	7200 1600 7200 1700
Wire Wire Line
	6600 1600 6600 1700
Connection ~ 6900 1000
Wire Wire Line
	6900 1000 6900 1100
Connection ~ 6300 1000
Wire Wire Line
	6600 1000 6600 1100
Connection ~ 6750 1800
Connection ~ 6150 1800
Connection ~ 5350 5000
Wire Wire Line
	5750 5000 5750 4800
Connection ~ 5350 4200
Wire Wire Line
	5350 4200 5350 4400
Wire Wire Line
	5350 4400 5150 4400
Connection ~ 5350 1000
Wire Wire Line
	5350 1000 5350 1200
Wire Wire Line
	5350 1200 5150 1200
Wire Wire Line
	5750 1800 5750 1600
Wire Wire Line
	3450 3550 3300 3550
Wire Wire Line
	3300 4500 3300 4950
Wire Wire Line
	3300 1300 3300 1750
Connection ~ 3300 1700
Connection ~ 3000 1700
Wire Wire Line
	3000 1100 3000 1200
Wire Wire Line
	2600 1600 2600 1700
Wire Wire Line
	2100 1100 2100 1200
Connection ~ 2600 1700
Connection ~ 2600 1100
Connection ~ 2100 1100
Connection ~ 2100 1700
Wire Wire Line
	2100 1600 2100 1700
Wire Wire Line
	2600 1100 2600 1200
Wire Wire Line
	3000 1700 3000 1600
Connection ~ 3000 1100
Wire Wire Line
	1800 1100 3450 1100
Wire Wire Line
	3300 1300 3450 1300
Wire Wire Line
	3450 2900 3300 2900
Wire Wire Line
	1800 2700 3450 2700
Connection ~ 3000 2700
Wire Wire Line
	3000 3300 3000 3200
Wire Wire Line
	2600 2700 2600 2800
Wire Wire Line
	2100 3300 2100 3200
Connection ~ 2100 3300
Connection ~ 2100 2700
Connection ~ 2600 2700
Connection ~ 2600 3300
Wire Wire Line
	2100 2700 2100 2800
Wire Wire Line
	2600 3300 2600 3200
Wire Wire Line
	3000 2800 3000 2700
Connection ~ 3000 3300
Connection ~ 3300 3300
Wire Wire Line
	3300 4500 3450 4500
Wire Wire Line
	1800 4300 3450 4300
Connection ~ 3000 4300
Wire Wire Line
	3000 4900 3000 4800
Wire Wire Line
	2600 4300 2600 4400
Wire Wire Line
	2100 4800 2100 4900
Connection ~ 2100 4900
Connection ~ 2100 4300
Connection ~ 2600 4300
Connection ~ 2600 4900
Wire Wire Line
	2100 4300 2100 4400
Wire Wire Line
	2600 4800 2600 4900
Wire Wire Line
	3000 4400 3000 4300
Connection ~ 3000 4900
Connection ~ 3300 4900
Wire Wire Line
	3300 1950 3450 1950
Wire Wire Line
	3300 5150 3450 5150
Wire Wire Line
	3300 2900 3300 3350
Wire Wire Line
	5750 1000 5750 1200
Wire Wire Line
	5150 1600 5350 1600
Wire Wire Line
	5350 1600 5350 1800
Connection ~ 5350 1800
Wire Wire Line
	5750 4200 5750 4400
Wire Wire Line
	5150 4800 5350 4800
Wire Wire Line
	5350 4800 5350 5000
Connection ~ 6450 1800
Wire Wire Line
	6300 1000 6300 1100
Wire Wire Line
	7200 1000 7200 1100
Connection ~ 6600 1000
Wire Wire Line
	6300 1600 6300 1700
Wire Wire Line
	6900 1600 6900 1700
Wire Wire Line
	6600 4200 6600 4300
Connection ~ 6300 4200
Connection ~ 5750 5000
Connection ~ 5750 4200
Connection ~ 5750 1000
Connection ~ 5750 1800
Connection ~ 5750 2600
Connection ~ 5750 3400
Wire Wire Line
	5550 1800 5550 1900
Connection ~ 5550 1800
Wire Wire Line
	5550 5000 5550 5100
Connection ~ 5550 5000
Wire Wire Line
	3450 1950 3450 2050
Wire Wire Line
	3450 5150 3450 5250
Wire Wire Line
	7350 1800 7350 1900
Wire Wire Line
	7350 1900 7550 1900
Connection ~ 7050 1800
Wire Wire Line
	5150 2600 7550 2600
Connection ~ 7200 2600
Wire Wire Line
	850  3300 3450 3300
Connection ~ 850  3300
Wire Wire Line
	650  2700 1300 2700
Connection ~ 650  2700
Wire Wire Line
	5150 4200 7450 4200
Wire Wire Line
	5150 5000 7300 5000
Connection ~ 6150 5000
Connection ~ 6450 5000
Connection ~ 6750 5000
Wire Wire Line
	6300 4800 6300 4900
Wire Wire Line
	6600 4800 6600 4900
Wire Wire Line
	6900 4800 6900 4900
Wire Wire Line
	7200 4800 7200 4900
Wire Wire Line
	6900 4200 6900 4300
Connection ~ 6900 4200
Wire Wire Line
	7200 4200 7200 4300
Connection ~ 7200 4200
Wire Wire Line
	7450 5100 7300 5100
Wire Wire Line
	7300 5100 7300 5000
Connection ~ 7050 5000
Wire Wire Line
	850  1000 850  7000
Connection ~ 650  1100
$Comp
L LED D8
U 1 1 5254A139
P 7450 6600
F 0 "D8" H 7450 6700 50  0000 C CNN
F 1 "12V2" H 7450 6500 50  0000 C CNN
F 2 "led_5mm_green" H 7450 6600 60  0001 C CNN
F 3 "" H 7450 6600 60  0001 C CNN
	1    7450 6600
	0    1    1    0   
$EndComp
$Comp
L R R4
U 1 1 5254A13F
P 7450 6150
F 0 "R4" V 7530 6150 50  0000 C CNN
F 1 "470" V 7600 6150 50  0000 C CNN
F 2 "rc03_vert" H 7450 6150 60  0001 C CNN
F 3 "" H 7450 6150 60  0001 C CNN
	1    7450 6150
	1    0    0    -1  
$EndComp
$Comp
L AGND #PWR08
U 1 1 5254A145
P 3450 6950
F 0 "#PWR08" H 3450 6950 40  0001 C CNN
F 1 "AGND" H 3450 6880 50  0000 C CNN
F 2 "" H 3450 6950 60  0001 C CNN
F 3 "" H 3450 6950 60  0001 C CNN
	1    3450 6950
	1    0    0    -1  
$EndComp
$Comp
L GND #PWR09
U 1 1 5254A14B
P 5550 6800
F 0 "#PWR09" H 5550 6800 30  0001 C CNN
F 1 "GND" H 5550 6730 30  0001 C CNN
F 2 "" H 5550 6800 60  0001 C CNN
F 3 "" H 5550 6800 60  0001 C CNN
	1    5550 6800
	1    0    0    -1  
$EndComp
NoConn ~ 5150 6300
$Comp
L THERMISTOR TH15
U 1 1 5254A152
P 6900 6250
F 0 "TH15" V 7000 6300 50  0000 C CNN
F 1 "RGEF800" V 6800 6250 50  0000 C CNN
F 2 "RGEF800" H 6900 6250 60  0001 C CNN
F 3 "" H 6900 6250 60  0001 C CNN
	1    6900 6250
	1    0    0    -1  
$EndComp
$Comp
L THERMISTOR TH14
U 1 1 5254A158
P 6600 6250
F 0 "TH14" V 6700 6300 50  0000 C CNN
F 1 "RGEF800" V 6500 6250 50  0000 C CNN
F 2 "RGEF800" H 6600 6250 60  0001 C CNN
F 3 "" H 6600 6250 60  0001 C CNN
	1    6600 6250
	1    0    0    -1  
$EndComp
$Comp
L THERMISTOR TH13
U 1 1 5254A15E
P 6300 6250
F 0 "TH13" V 6400 6300 50  0000 C CNN
F 1 "RGEF800" V 6200 6250 50  0000 C CNN
F 2 "RGEF800" H 6300 6250 60  0001 C CNN
F 3 "" H 6300 6250 60  0001 C CNN
	1    6300 6250
	1    0    0    -1  
$EndComp
$Comp
L CP1 C15
U 1 1 5254A164
P 5750 6300
F 0 "C15" H 5800 6400 50  0000 L CNN
F 1 "470uF" H 5800 6200 50  0000 L CNN
F 2 "CP_13x21mm" H 5750 6300 60  0001 C CNN
F 3 "" H 5750 6300 60  0001 C CNN
	1    5750 6300
	1    0    0    -1  
$EndComp
$Comp
L CMINI C16
U 1 1 5254A16A
P 3300 6750
F 0 "C16" H 3050 6750 50  0000 L CNN
F 1 "4.7nF" H 3000 6650 50  0000 L CNN
F 2 "cnp_6mm_disc" H 3300 6750 60  0001 C CNN
F 3 "" H 3300 6750 60  0001 C CNN
	1    3300 6750
	1    0    0    -1  
$EndComp
$Comp
L FUSE F4
U 1 1 5254A170
P 1550 6000
F 0 "F4" H 1650 6050 40  0000 C CNN
F 1 "20A" H 1450 5950 40  0000 C CNN
F 2 "Fuse-Holder-3AG" H 1550 6000 60  0001 C CNN
F 3 "" H 1550 6000 60  0001 C CNN
	1    1550 6000
	1    0    0    -1  
$EndComp
$Comp
L CP1 C13
U 1 1 5254A176
P 2600 6300
F 0 "C13" H 2650 6400 50  0000 L CNN
F 1 "100uF" H 2650 6200 50  0000 L CNN
F 2 "CP_13x21mm" H 2600 6300 60  0001 C CNN
F 3 "" H 2600 6300 60  0001 C CNN
	1    2600 6300
	1    0    0    -1  
$EndComp
$Comp
L CP1 C14
U 1 1 5254A17C
P 3000 6300
F 0 "C14" H 3050 6400 50  0000 L CNN
F 1 "100uF" H 3050 6200 50  0000 L CNN
F 2 "CP_13x21mm" H 3000 6300 60  0001 C CNN
F 3 "" H 3000 6300 60  0001 C CNN
	1    3000 6300
	1    0    0    -1  
$EndComp
$Comp
L ZENER D7
U 1 1 5254A182
P 2100 6300
F 0 "D7" H 2100 6400 50  0000 C CNN
F 1 "58V TVS" H 2100 6200 40  0000 C CNN
F 2 "diode_5kp58a" H 2100 6300 60  0001 C CNN
F 3 "" H 2100 6300 60  0001 C CNN
	1    2100 6300
	0    -1   -1   0   
$EndComp
$Comp
L COSELDCDC PS4
U 1 1 5254A188
P 4300 6300
F 0 "PS4" H 3800 6900 60  0000 C CNN
F 1 "CBS350 48V-12V" H 4300 5550 60  0000 C CNN
F 2 "CBS350-450" H 4300 6300 60  0001 C CNN
F 3 "" H 4300 6300 60  0001 C CNN
	1    4300 6300
	1    0    0    -1  
$EndComp
$Comp
L CONN_4X2_STACK P5
U 1 1 5254A18E
P 6700 7000
F 0 "P5" H 6700 7650 50  0000 C CNN
F 1 "12V_OUT" V 6750 6950 40  0000 C CNN
F 2 "~" H 6700 7000 60  0000 C CNN
F 3 "~" H 6700 7000 60  0000 C CNN
	1    6700 7000
	0    1    1    0   
$EndComp
$Comp
L THERMISTOR TH16
U 1 1 5254A194
P 7200 6250
F 0 "TH16" V 7300 6300 50  0000 C CNN
F 1 "RGEF800" V 7100 6250 50  0000 C CNN
F 2 "RGEF800" H 7200 6250 60  0001 C CNN
F 3 "" H 7200 6250 60  0001 C CNN
	1    7200 6250
	1    0    0    -1  
$EndComp
Wire Wire Line
	650  6000 1300 6000
Wire Wire Line
	850  6600 3450 6600
Connection ~ 6600 5900
Wire Wire Line
	6300 5900 6300 6000
Connection ~ 5350 6700
Wire Wire Line
	5750 6700 5750 6500
Connection ~ 5350 5900
Wire Wire Line
	5350 5900 5350 6100
Wire Wire Line
	5350 6100 5150 6100
Wire Wire Line
	3300 6200 3300 6650
Wire Wire Line
	3300 6200 3450 6200
Wire Wire Line
	1800 6000 3450 6000
Connection ~ 3000 6000
Wire Wire Line
	3000 6600 3000 6500
Wire Wire Line
	2600 6000 2600 6100
Wire Wire Line
	2100 6500 2100 6600
Connection ~ 2100 6600
Connection ~ 2100 6000
Connection ~ 2600 6000
Connection ~ 2600 6600
Wire Wire Line
	2100 6000 2100 6100
Wire Wire Line
	2600 6500 2600 6600
Wire Wire Line
	3000 6100 3000 6000
Connection ~ 3000 6600
Connection ~ 3300 6600
Wire Wire Line
	3300 6850 3450 6850
Wire Wire Line
	5750 5900 5750 6100
Wire Wire Line
	5150 6500 5350 6500
Wire Wire Line
	5350 6500 5350 6700
Wire Wire Line
	6600 5900 6600 6000
Connection ~ 6300 5900
Connection ~ 5750 6700
Connection ~ 5750 5900
Wire Wire Line
	5550 6700 5550 6800
Connection ~ 5550 6700
Wire Wire Line
	3450 6850 3450 6950
Wire Wire Line
	5150 5900 7450 5900
Wire Wire Line
	5150 6700 7300 6700
Connection ~ 6150 6700
Connection ~ 6450 6700
Connection ~ 6750 6700
Wire Wire Line
	6300 6500 6300 6600
Wire Wire Line
	6600 6500 6600 6600
Wire Wire Line
	6900 6500 6900 6600
Wire Wire Line
	7200 6500 7200 6600
Wire Wire Line
	6900 5900 6900 6000
Connection ~ 6900 5900
Wire Wire Line
	7200 5900 7200 6000
Connection ~ 7200 5900
Wire Wire Line
	7450 6800 7300 6800
Wire Wire Line
	7300 6800 7300 6700
Connection ~ 7050 6700
Connection ~ 650  6000
Wire Wire Line
	850  7000 650  7000
Connection ~ 850  6600
$EndSCHEMATC
