:020000020000FC
:10000000EBC461C01895189509945DC03AC0189565
:1000100042C018951895E5C018951895189518952B
:10002000189572C01895697A40744042405B0290FE
:10003000FFFF7F0000B99FB68A9409F4E5E29FBEF6
:1000400018959FB68A949FBE189520FD959A21FD1C
:10005000979A22FDC19AE1E3832C24BC1895A895B8
:1000600018958F12EECFA89511FDEFCFE0916500A6
:10007000852C20FD959821FD979822FDC19844BCC0
:1000800018959FB640916300415008F40E7F40934D
:1000900063009FBE18959FB64091640043954093BE
:1000A00064004F7019F4BB2019F0BA949FBE1895E4
:1000B00040916600439540936600409167004395E8
:1000C00040936700F3CF46B557B59EB496FE0DC07A
:1000D0009FB65A5659BD48BD41E84EBD48E048BF9D
:1000E0009FBE18959FB6BB240BC098B693FCFACF61
:1000F0009FB63A0148B559B55659641A750A106148
:1001000041EC4EBD9FBE18959FB641B1403669F196
:100110004038B1F1403A69F1483A41F0483B79F052
:10012000483F11F04F1321C045ED20C067FC0DC0C2
:10013000F3B94AEF10FD4FEF40937D0016C067FC06
:1001400007C040917D0043B9F6CF4CE840937F0053
:100150005E2FE0917F004191E0937F0043B9E43945
:10016000E52F09F002C045E801C045EC46BF9FBE3F
:10017000189540917E004F131461F0937E00F5CFE7
:1001800040917E00439540937E00413019F473B056
:100190006F2EEBCF423011F463B0E7CF433021F440
:1001A00043B1423001F7E1CF4A3061F05E2FE9E818
:1001B000E40F43B14083E52F50919300540F5093C7
:1001C0009300D3CF43B150918D0056FD006157FD90
:1001D0000062451B50E9450F50938D0040939300FA
:1001E000C4CF9FB64CB1453F59F006FF0DC030F467
:1001F000509180005A9531F4742E18610F7B04C021
:10020000006451E0509380009FBE189590E578EC13
:100210009398959A17D0E1F7089594E674EB929825
:10022000979A10D0E1F7089598E770EA9498C19AE8
:1002300009D0E1F708959CE87CE89298959A02D05D
:10024000E1F70895F2BF82B78032E8F39598979866
:10025000C19862B36C6162BB60E1F2BFA89582B7DE
:100260008717E8F36A95C9F79A95089500D000D0EA
:1002700000D09FE060E1F2BF81E088BFA89588B719
:1002800080FFFDCF6A95B9F79A95A1F708958091FF
:1002900084009091850089569A4739F0C4E8D0E0EF
:1002A000E6E285918993C439E1F70895F894EF93D4
:1002B000F5DFEF91789408958091600081BF0F7D04
:1002C000C4E8D0E080E890E0A895E199FDCF67B759
:1002D00060FDFACFC43981F09FBB8EBB0196E09AD6
:1002E0006DB317F06993F0CF79917DBBF894E29AE2
:1002F0006713E19A7894E8CFBCDF8FEF81BF089550
:10030000000C111CAA1C8A95D9F70895869FA12C70
:10031000969FA00CC11DDF1F879FA00CC11DDF1F72
:10032000979FC00DD11D089513FD91C012FD81C08E
:100330001F7EC6E8D0E007FD46C001C097DFB301CD
:10034000A895FF9FAA24C63831F4603C87E6780759
:10035000D0F18FE113C080918600681780918700EB
:10036000780768F7C83811F482E208C080918800E5
:10037000681780918900780710F380E2882EA8958D
:1003800014FFFDCF1F7EC301080E191EAF1E861B72
:10039000970B80569F4F8154914080F68A9479F74D
:1003A00083E0AEDF1992A9923FDFC83841F261DFE6
:1003B0003BDFCA3821F25DDF37DF7EDF51C013FD3E
:1003C00046C012FD36C01F76C30184369F0708F46D
:1003D0000895C0917B00D0917C008C1B9D0B60F434
:1003E0001068909581959F4F6091790070917A0087
:1003F00007C0CC27DD2710C060917700709178008E
:1004000080529340B2F3C8E3D0E080DFC73583E089
:10041000D80710F0C7E5D3E0C0937500D0937600FD
:1004200001FF03C082E0B82EA7C080E1B816BF1E4E
:100430000895E3011F7E8091920080FB17F9CC0F95
:10044000C295209649F3CE016DE373E0DCCFD72D42
:100450001F76C0E0D03001F3CE0160E074E0D3CF6E
:1004600080918A0090918B0080937B0090937C0018
:100470006091860070918700681B790B14D080937F
:1004800077009093780060918A0070918B00809142
:10049000880090918900681B790B05D080937900C2
:1004A00090937A0008956052734085E595E0019637
:1004B000A8959F3F890721F0C0EEDCEF27DFB9F751
:1004C0000895F8948CB59DB56091640078B77894E0
:1004D000903872FD6F1FC0916800D0916900A090A4
:1004E0006A00809368009093690060936A000090AE
:1004F0006B0010906C0070916D00C0936B00D093F6
:100500006C00A0926D0080199109670B97306F07FE
:1005100028F480E097E060E0D694C7946130A7E5C6
:10052000B3E058F06230ACEAB1E038F0643018F073
:1005300080E090E064E0A6EDD0E07D0180936E0065
:1005400090936F0060937000669597958795C09122
:100550006800D0916900A0906A0070E435D0C09323
:100560007100D0937200A092730049D014FD27CF80
:10057000C0917500D0917600CE15DF0508F0E70137
:10058000CC15DD0508F0E60187E593E08C1B9D0B9B
:10059000B1F02096B1F01D7F116016FF04C0880FE6
:1005A000991FCC0FDD1F75E29F137BE1C0958095ED
:1005B0001E01F8942C0170936500789408951360DF
:1005C000F2CF1C7F71E3F2CF879FC10DDF1FAF1EFB
:1005D000979FC00DD11DAF1E679FD00DA11C089520
:1005E00080916E0090916F0060917000C0917100D9
:1005F000D0917200A09073000895F2DFE5DF79B723
:10060000072E7B7E79BF70E1F894DBBDCABD78BF51
:100610008CB59DB5789401606091640078B790388E
:1006200072FD6F1FC81BD90BA60AA09263000AF4C3
:100630000E7F09BE0895279670E1F8948CB59DB59C
:10064000C80FD91FDBBDCABD78BFA092630001608F
:100650007894089514FDB3DE00FDFCCF0895F5BD38
:1006600080E488BFEFE282B38C6182BB9598979853
:10067000C1980895B09BF09366008091660085FF55
:100680000895E0E0F894FCE185919491F0E078948D
:1006900001960297A8F3F894F7BBF4BBF1BB88E18D
:1006A00081BDF1BD8091600081BFAACA82E582B997
:1006B00085EC86BF0895D4DE84E588BF89BFF0BD90
:1006C00089E189B9549A86E880BD8CB15F9A579ABE
:1006D000EDDF81EC8EBD89B7806289BFBB24137EBC
:1006E000F0936600F0936700A89514FD0AC0C2DF7E
:1006F000809167008837C1F78CE38093670094DDB1
:10070000F3CF12DEC0917500D0917600209631F7BC
:100710008AE0B81648F312FFF6BF13FF5498812FF2
:100720008C7019F089B78F7D89BF85DD84DD83DD0D
:1007300096DF0D7FF0936600F0936700A89514FD97
:100740000CC0BB20D9F796DF809167008E31B1F7DE
:1007500086DF8FDD69DD61DDAECF04FDA7DD05FD40
:10076000ABDD2DDE209631F3BB2021F378DF80B79F
:10077000886080BF3798CEE8D0E06E010260BAD0C2
:10078000F093740082E0B82E86E0809362008CE0E3
:100790008093610081E085BD17FD37C0AFD087E051
:1007A00087B9939A10FD9498A7D080E087B9F89400
:1007B000287F226088B3C19898B38913979A789458
:1007C0009DD086E087B9949A10FD929895D087E0E5
:1007D00087B9F894287F216082B3979892B38913E0
:1007E000959A78948BD080E087B9929A10FD93986F
:1007F00083D086E087B9F894287F246082B39598E7
:1008000092B38913C19A789436C076D080E087B9C4
:10081000F894287F216088B3C19898B38913959A7A
:1008200078946CD087E087B9939A10FD929864D041
:1008300086E087B9F894287F226082B3959892B3B6
:100840008913979A78945AD080E087B9929A10FDCC
:10085000949852D087E087B9F894287F246082B3B7
:10086000979892B38913C19A789448D086E087B953
:10087000949A10FD939880916100803010FFB9F038
:10088000E6012096A9F08C3038F4839580936100BE
:10089000629686ED90E004C01F7B6B9687E593E03F
:1008A000C817D90710F06C0177CF6E0175CF40CF14
:1008B0005DCFEFE295989798C19881E080936200B0
:1008C00068C016FD0FC0BC3068F0BBE0AB1708F481
:1008D000AB2F86DEC80FD91FA61EC80FD91FA61EB4
:1008E0008EDE4AC0F093610070917400715F16FD56
:1008F0007093740010644DC01F7D01C01062809120
:100900006200815050F08093620016FF18C0C0E072
:10091000DFEFAF2E90DEA3E02EC0EF3209F4E1E36B
:1009200016FD43C07BE169DE95DE79E566DE00FFFA
:10093000C0CF14FD44DD68B1612765FDF8CF50DEFE
:10094000A92FB62FB695A795B695A795A330BF0743
:1009500050F051F0AA31BF0708F0AAE1AC3020F006
:1009600073E34BDE08C0A3E0C80FD91FA61EC80F53
:10097000D91FA61E44DEBA2F00FFA3CF14FD1FDD32
:1009800068B1612765FD03C0AB17AF1FF5CFAA950E
:1009900099F797DD16FF5EDE809162008F131E7F50
:1009A000BF1208958F918F91C3CEC0E0D0E070E068
:1009B000A72E80916100823030F47091740080E045
:1009C00090E860E001DE37DE45DEC0E0D8EB7BE09A
:1009D000A72E31DEAFEFCFCF00240FBEEFE5F4E05E
:1009E000FEBFEDBF0292E036F00509F4EEE1E0153E
:1009F000F005C1F781B780936000A4B6F4BFF8BBDF
:100A000082E087BB80E385BBF4BB8EE182BB8EEBCB
:100A100081BB82E083BF81EC8EBDF5BD88E181BDE5
:100A200088E081BD26DC48DC32DC40DE7894A0FA28
:100A3000AF1226F4EBDBF1DBF7DB3DCEA2FE04C008
:100A4000F3DBE4DB006837CEA1FE02C0F4DB33CE7B
:100A5000F894A3FE05C0DADBD9DBE6DBE5DBFBCFF0
:100A600005DC4A2D58E040FFD8DB40FDE4DBFFDB2E
:080A700046955A95C1F7F4CF39
:101C0000E4E0FFE5FEBFEDBF00E0ECEBFEE0C0E886
:101C1000D0E0A0E6B0E042E045BD5CEE539571F047
:101C200040EC04BD48BFA03619F0E8B6E6FC46C05B
:101C3000B099F9CF04BD48BFE8B6E6FCE1C1B09B5E
:101C4000FBCF04BD48BFE8B6E6FCE8CFB099FBCFB8
:101C500034B404BD48BFE8B6E6FCD2C1B09BFBCFAC
:101C600024B4022C030C802C07940694402C069478
:101C70008008809420943094409460EE83E084BC8B
:101C800048BFE8B6E6FCBCC1B09BFBCF84BC48BFF4
:101C9000E8B6E6FCC3CFB099FBCF0894E8B6E6FC03
:101CA00023C0B09BFBCFE8B6E6FCB8CFB099FBCF22
:101CB0008894E8B6E6FC18C0B09BFBCF43BC87E134
:101CC000C09AB89A34BC48BFE8B6E6FEFDCFC098CB
:101CD00024BC48BFE8B6E6FEFDCF8A9589F7C0E68A
:101CE000D0E060E081E00BC0679548F6815068F570
:101CF0005CEE0994CA17DB07D1F0699188E066951C
:101D0000C09A34BC48BFE8B610F0E7FC08BBE6FE5A
:101D1000FACFC09808F0C09A24BC48BFE8B610F0CB
:101D2000E7FC08BBE6FEFACF8A9549F7E3CFC09AF5
:101D300034BC48BFC0E8D0E0A0E6B0E0E8B6E7FEBB
:101D4000FDCFB89808BB6ACF80E060E898CFECEB95
:101D5000FEE0C0E8D0E0F8CF009000000090000066
:101D60000090000000900000009000000090000033
:101D70000090000000900000000000006B3121F78F
:101D8000562E3796E1CF962E56263496DDCF762EF8
:101D900056263496D9CF662E56263496D5CF6E3039
:101DA000B1F656263596D0CF69935626CF3584E0C6
:101DB000D80768F681E0681A700A09F43C96C4CF27
:101DC0006511C5CFC0E8D0E0699199918991FD0175
:101DD0007BE170839182028372E073837EE074837F
:101DE0006583068317966130A1F48BE0838388E0D6
:101DF0008D93EF01ECEDFFE185918D93E43EE1F7EA
:101E0000FE01819161918627EA17FB07D9F78D932F
:101E10009ECF6D3151F5792F90E0039683839283A5
:101E200003970D938A95E9F789916991603380074B
:101E300094E0790779F460878991803059F4699149
:101E400060308EE131F0613083E919F0623087E073
:101E500009F482870D93D5CF8017900709F5D990A3
:101E6000C9905601AA0CBB1CCCCF6330E1F06230A4
:101E700041F2603131F2613121F2663069F3623151
:101E8000F1F1833F73E0970758F4643109F166314B
:101E900069F127966531C1F16331F9F10000000065
:101EA00080EC8683AECF90398FE071F0913982E07B
:101EB00059F092398AE041F0943982E329F0903860
:101EC00080E011F0913861F78D9383E0838399CF9F
:101ED00049D0EF01F5018FD076FDFDCF65916D936F
:101EE0000197E1F75F01FE010D938BCF3BD011E02D
:101EF0003ED06DB36D930197D9F70D9382CF47D044
:101F0000000080E092E0689416E06FEF0EF06991B7
:101F10002ED00197D1F7E89474CF8F7F61E07F01D5
:101F2000F5010990199068D032960297D1F70F0108
:101F3000F501500163E0E03C7FE1F70719F058D06C
:101F4000F7015FCF0BD065E009D061E107D0F8CF92
:101F500077B770FDFDCFE199FECF0895F9DF67BF38
:101F6000E8950895039692838383039708953AD062
:101F7000DFBACEBA0894C01ED01E762FE09A6DB399
:101F8000671312FF08957DBBE29A1CBB08957F0181
:101F9000E0E0FEE063E0B0972FD0E9F76F01F701D2
:101FA0000895000000000000000000000000000094
:101FB0000000000000000000000000000000000021
:101FC000687474703A2F2F6769746875622E636F36
:101FD0006D2F73696D2D2F7467792F00415652490B
:101FE00053505F3277B770FDFDCFE199FECF089572
:101FF00003D065E001D061E1F5DF67BFE8950895A2
:00000001FF
