:020000020000FC
:1000000025C45DC018951895099459C036C0189537
:100010003EC01895189573C01895189518951895A1
:1000200018956DC01895697A40744042405B9FB640
:100030008A9409F4E1E29FBE18959FB68A949FBE08
:10004000189520FD919A21FD909A22FD939AEDE258
:10005000832C24BC1895A89518958F12EECFA895DF
:1000600011FDEFCFE0916500852C20FD919821FDD9
:10007000909822FD939844BC18959FB640916300D8
:10008000415008F40E7F409363009FBE18959FB6C1
:10009000409164004395409364004F7019F4BB2075
:1000A00019F0BA949FBE189540916600439540930D
:1000B000660040916700439540936700F3CF4CB5CD
:1000C0005DB582990DC09FB65A5659BD48BD43E0F3
:1000D00045BF48E048BF9FBE18959FB6BB240BC0E4
:1000E00098B693FCFACF9FB63A0148B559B5565920
:1000F000641A750A106142E045BF9FBE189590E5ED
:1001000078EC979A919A17D0E1F7089594E674EBFA
:10011000959A909A10D0E1F7089598E770EA949A2A
:10012000939A09D0E1F708959CE87CE8959A919A12
:1001300002D0E1F70895F2BF82B78032E8F362B3EC
:10014000647F62BB62B36F7462BB60E1F2BFA8956B
:1001500082B78717E8F36A95C9F79A95089500D092
:1001600000D000D09FE060E1F2BF81E088BFA89599
:1001700088B780FFFDCF6A95B9F79A95A1F70895E2
:10018000809181009091820089569A4739F0C1E8A8
:10019000D0E0E6E285918993C938E1F7089580912E
:1001A000600081BF0F7DC1E8D0E080E890E0A895B5
:1001B000E199FDCF67B760FDFACFC93881F09FBBE9
:1001C0008EBB0196E09A6DB317F06993F0CF7991E9
:1001D0007DBBF894E29A6713E19A7894E8CFC2DF86
:1001E0008FEF81BF0895000C111CAA1C8A95D9F7C6
:1001F0000895869FA12C969FA00CC11DDF1F879F8D
:10020000A00CC11DDF1F979FC00DD11D08951F7E3B
:10021000C3E8D0E007FD42C001C0A1DFB301A8954B
:10022000FF9FAA24C33831F4603C87E67807B0F119
:100230008FE113C080918300681780918400780754
:1002400068F7C53811F482E208C08091850068170C
:1002500080918600780710F380E2882EA89514FF1D
:10026000FDCF1F7EC301080E191EAF1E861B970B04
:1002700080569F4F8154914080F68A9479F783E0AD
:10028000B2DF1992A99249DFC53841F26BDF45DF31
:10029000C73821F267DF41DF82DF36C01F76C30136
:1002A00084369F0708F40895C0917B00D0917C00AC
:1002B0008C1B9D0B60F41068909581959F4F609109
:1002C000790070917A0007C0CC27DD2710C06091BB
:1002D00077007091780080529340B2F3C8E3D0E089
:1002E00088DFC73583E0D80710F0C7E5D3E0C093B7
:1002F0007500D093760001FF03C082E0B82E90C055
:1003000080E1B816BF1E0895809187009091880003
:1003100080937B0090937C006091830070918400B7
:10032000681B790B14D080937700909378006091CC
:100330008700709188008091850090918600681BED
:10034000790B05D08093790090937A0008956052DC
:10035000734085E595E00196A8959F3F890721F0B8
:10036000C0EEDCEF46DFB9F70895F8948CB59DB583
:100370006091640078B77894903872FD6F1FC091D7
:100380006800D0916900A0906A0080936800909303
:10039000690060936A0000906B0010906C0070918F
:1003A0006D00C0936B00D0936C00A0926D0080191B
:1003B0009109670B97306F0728F480E097E060E0C1
:1003C000D694C7946130A7E5B3E058F06230ACEA48
:1003D000B1E038F0643018F080E090E064E0A6ED21
:1003E000D0E07D0180936E0090936F006093700069
:1003F000669597958795C0916800D0916900A09007
:100400006A0073E335D0C0937100D0937200A0925C
:10041000730049D014FD42CFC0917500D091760091
:10042000CE15DF0508F0E701CC15DD0508F0E60183
:1004300087E593E08C1B9D0BB1F02096B1F01D7FFA
:10044000116016FF04C0880F991FCC0FDD1F71E2E9
:100450009F1377E1C09580951E01F8942C0170934D
:100460006500789408951360F2CF1C7F7DE2F2CF8F
:10047000879FC10DDF1FAF1E979FC00DD11DAF1EFF
:10048000679FD00DA11C089580916E0090916F0020
:1004900060917000C0917100D0917200A0907300C3
:1004A0000895F2DFE5DF79B7072E7B7E79BF70E133
:1004B000F894DBBDCABD78BF8CB59DB5789401605A
:1004C0006091640078B7903872FD6F1FC81BD90B1C
:1004D000A60AA09263000AF40E7F09BE089527962B
:1004E00070E1F8948CB59DB5C80FD91FDBBDCABDAE
:1004F00078BFA092630001607894089514FDCEDE69
:1005000000FDFCCF0895F5BD80E488BFEBE282B327
:100510008F7482BB82B3847F82BB08958299F093EB
:1005200066008091660085FF0895E0E0F894FCE1A4
:1005300085919491F0E0789401960297A8F3F8944D
:10054000F7BBF4BBF1BB88E181BDF1BD80916000D8
:1005500081BF56CBD9DE84E588BF89BF82E085BFE5
:1005600080E48BBFBB24137EF0936600F09367009A
:10057000A89514FD0AC0D2DF809167008837C1F7C3
:100580008CE380936700C9DDF3CF41DEC091750035
:10059000D0917600209631F78AE0B81648F3812F83
:1005A0008C7009F0FBBFC0DDBFDDBEDDACDF0D7FB1
:1005B000F0936600F0936700A89514FD0CC0BB2073
:1005C000D9F7ACDF809167008E31B1F79CDFCADDCF
:1005D000A4DD9CDDBFCF62DE209651F3BB2041F34A
:1005E00092DF80B7886080BF3798CEE8D0E06E0198
:1005F0000260BAD0F093740082E0B82E86E0809357
:1006000062008CE08093610081E085BD17FD37C0FA
:10061000AFD083E087B9979810FD949AA7D084E073
:1006200087B9F894287F226082B3939892B3891394
:10063000909A78949DD082E087B9949810FD959A0D
:1006400095D083E087B9F894287F216082B3909891
:1006500092B38913919A78948BD084E087B9959856
:1006600010FD979A83D082E087B9F894287F2460A0
:1006700082B3919892B38913939A789436C076D0C6
:1006800084E087B9F894287F216082B3939892B36D
:100690008913919A78946CD083E087B9979810FD6C
:1006A000959A64D082E087B9F894287F226082B35B
:1006B000919892B38913909A78945AD084E087B92C
:1006C000959810FD949A52D083E087B9F894287FCA
:1006D000246082B3909892B38913939A789448D007
:1006E00082E087B9949810FD979A809161008030DC
:1006F00010FFB9F0E6012096A9F08C3038F483950C
:1007000080936100629686ED90E004C01F7B6B963B
:1007100087E593E0C817D90710F06C0177CF6E0119
:1007200075CF44CF5DCFEBE282B3847F82BB81E0A3
:100730008093620068C016FD0FC0BC3068F0BBE05B
:10074000AB1708F4AB2FA0DEC80FD91FA61EC80F29
:10075000D91FA61EA8DE4AC0F093610070917400F4
:10076000715F16FD7093740010644DC01F7D01C051
:10077000106280916200815050F08093620016FFF9
:1007800018C0C0E0DFEFAF2EAADEA3E02EC0EB3230
:1007900009F4EDE216FD43C07BE183DEAFDE79E5CF
:1007A00080DE00FFC0CF14FD79DD68B1612765FDF3
:1007B000F8CF6ADEA92FB62FB695A795B695A7955F
:1007C000A330BF0750F051F0AA31BF0708F0AAE1EB
:1007D000AC3020F073E365DE08C0A3E0C80FD91F7A
:1007E000A61EC80FD91FA61E5EDEBA2F00FFA3CF1C
:1007F00014FD54DD68B1612765FD03C0AB17AF1F61
:10080000F5CFAA9599F7B1DD16FF78DE80916200E9
:100810008F131E7FBF1208958F918F91C7CEC0E0B6
:10082000D0E070E0A72E80916100823030F47091AA
:10083000740080E090E860E01BDE51DE5FDEC0E027
:10084000D8EB7BE0A72E4BDEAFEFCFCF00240FBE5F
:10085000EFE5F4E0FEBFEDBF0292E036F00509F4EB
:10086000EEE1E015F005C1F781B780936000A4B612
:10087000F4BFF8BBF7BBF5BBF4BBF2BB8BEB81BBA2
:1008800082E083BF81E08EBDF5BD88E181BD88E057
:1008900081BD68DC84DC74DC7894A0FAAF1226F4A5
:1008A0002EDC34DC3ADC56CEA2FE04C036DC27DC7B
:1008B000006850CEA1FE02C037DC4CCEF894A3FEF7
:1008C00005C01DDC1CDC29DC28DCFBCF48DC4A2D04
:1008D00058E040FF1BDC40FD27DC42DC46955A9582
:0408E000C1F7F4CF99
:101C0000E4E0FFE5FEBFEDBF00E0ECEBFEE0C0E886
:101C1000D0E0A0E6B0E042E045BD5CEE539571F047
:101C200040EC04BD48BFA03619F0E8B6E6FC46C05B
:101C30008299F9CF04BD48BFE8B6E6FCE1C1829BBA
:101C4000FBCF04BD48BFE8B6E6FCE8CF8299FBCFE6
:101C500034B404BD48BFE8B6E6FCD2C1829BFBCFDA
:101C600024B4022C030C802C07940694402C069478
:101C70008008809420943094409460EE83E084BC8B
:101C800048BFE8B6E6FCBCC1829BFBCF84BC48BF22
:101C9000E8B6E6FCC3CF8299FBCF0894E8B6E6FC31
:101CA00023C0829BFBCFE8B6E6FCB8CF8299FBCF7E
:101CB0008894E8B6E6FC18C0829BFBCF43BC87E162
:101CC000929A8A9A34BC48BFE8B6E6FEFDCF929855
:101CD00024BC48BFE8B6E6FEFDCF8A9589F7C0E68A
:101CE000D0E060E081E00BC0679548F6815068F570
:101CF0005CEE0994CA17DB07D1F0699188E066951C
:101D0000929A34BC48BFE8B610F0E7FC02BBE6FE8E
:101D1000FACF929808F0929A24BC48BFE8B610F027
:101D2000E7FC02BBE6FEFACF8A9549F7E3CF929A29
:101D300034BC48BFC0E8D0E0A0E6B0E0E8B6E7FEBB
:101D4000FDCF8A9802BB6ACF80E060E898CFECEBC9
:101D5000FEE0C0E8D0E0F8CF009000000090000066
:101D60000090000000900000009000000090000033
:101D70000090000000900000000000006B3121F78F
:101D8000562E3796E1CF962E56263496DDCF762EF8
:101D900056263496D9CF662E56263496D5CF6E3039
:101DA000B1F656263596D0CF69935626CF3584E0C6
:101DB000D80768F681E0681A700A09F43C96C4CF27
:101DC0006511C5CFC0E8D0E0699199918991FD0175
:101DD0007BE170839182028372E073837EE074837F
:101DE0006583068317966130A1F48BE0838388E0D6
:101DF0008D93EF01ECEDFFE185918D93E43EE1F7EA
:101E0000FE01819161918627EA17FB07D9F78D932F
:101E10009ECF6D3151F5792F90E0039683839283A5
:101E200003970D938A95E9F789916991603380074B
:101E300094E0790779F460878991803059F4699149
:101E400060308EE131F0613083E919F0623087E073
:101E500009F482870D93D5CF8017900709F5D990A3
:101E6000C9905601AA0CBB1CCCCF6330E1F06230A4
:101E700041F2603131F2613121F2663069F3623151
:101E8000F1F1833F73E0970758F4643109F166314B
:101E900069F127966531C1F16331F9F10000000065
:101EA00080EC8683AECF90398FE071F0913982E07B
:101EB00059F092398AE041F0943982E329F0903860
:101EC00080E011F0913861F78D9383E0838399CF9F
:101ED00049D0EF01F5018FD076FDFDCF65916D936F
:101EE0000197E1F75F01FE010D938BCF3BD011E02D
:101EF0003ED06DB36D930197D9F70D9382CF47D044
:101F0000000080E092E0689416E06FEF0EF06991B7
:101F10002ED00197D1F7E89474CF8F7F61E07F01D5
:101F2000F5010990199068D032960297D1F70F0108
:101F3000F501500163E0E03C7FE1F70719F058D06C
:101F4000F7015FCF0BD065E009D061E107D0F8CF92
:101F500077B770FDFDCFE199FECF0895F9DF67BF38
:101F6000E8950895039692838383039708953AD062
:101F7000DFBACEBA0894C01ED01E762FE09A6DB399
:101F8000671312FF08957DBBE29A1CBB08957F0181
:101F9000E0E0FEE063E0B0972FD0E9F76F01F701D2
:101FA0000895000000000000000000000000000094
:101FB0000000000000000000000000000000000021
:101FC000687474703A2F2F6769746875622E636F36
:101FD0006D2F73696D2D2F7467792F00415652490B
:101FE00053505F3277B770FDFDCFE199FECF089572
:101FF00003D065E001D061E1F5DF67BFE8950895A2
:00000001FF
