:020000020000FC
:100000002BC461C01895189509945DC03AC0189525
:1000100042C018951895C4C018951895189518954C
:10002000189551C01895697A40744042405B02901F
:10003000FFFF7F0000B99FB68A9409F4E5E29FBEF6
:1000400018959FB68A949FBE189520FD909A21FD21
:10005000919A22FD939AE1E3832C24BC1895A895EC
:1000600018958F12EECFA89511FDEFCFE0916500A6
:10007000852C20FD909821FD919822FD939844BCF9
:1000800018959FB640916300415008F40E7F40934D
:1000900063009FBE18959FB64091640043954093BE
:1000A00064004F7019F4BB2019F0BA949FBE1895E4
:1000B00040916600439540936600409167004395E8
:1000C00040936700F3CF9FB641B1403669F14038A5
:1000D000B1F1403A69F1483A41F0483B79F0483F84
:1000E00011F04F1321C045ED20C067FC0DC0F3B9DE
:1000F0004AEF10FD4FEF40937D0016C067FC07C02C
:1001000040917D0043B9F6CF4CE840937F005E2FCD
:10011000E0917F004191E0937F0043B9E439E52FFE
:1001200009F002C045E801C045EC46BF9FBE1895E6
:1001300040917E004F131461F0937E00F5CF409103
:100140007E00439540937E00413019F473B06F2ECA
:10015000EBCF423011F463B0E7CF433021F443B129
:10016000423001F7E1CF4A3061F05E2FE9E8E40F59
:1001700043B14083E52F50919300540F5093930067
:10018000D3CF43B150918D0056FD006157FD006201
:10019000451B50E9450F50938D0040939300C4CF09
:1001A00090E578EC979A909A17D0E1F7089594E645
:1001B00074EB949A919A10D0E1F7089598E770EA59
:1001C000959A939A09D0E1F708959CE87CE8949A6F
:1001D000909A02D0E1F70895F2BF82B78032E8F337
:1001E00062B3647F62BB62B36F7462BB60E1F2BFF3
:1001F000A89582B78717E8F36A95C9F79A95089585
:1002000000D000D000D09FE060E1F2BF81E088BF65
:10021000A89588B780FFFDCF6A95B9F79A95A1F7A1
:100220000895809184009091850089569A4739F00D
:10023000C4E8D0E0E6E285918993C439E1F70895F6
:10024000F894EF93F5DFEF91789408958091600032
:1002500081BF0F7DC4E8D0E080E890E0A895E199E7
:10026000FDCF67B760FDFACFC43981F09FBB8EBB6D
:100270000196E09A6DB317F06993F0CF79917DBB49
:10028000F894E29A6713E19A7894E8CFBCDF8FEF95
:1002900081BF0895000C111CAA1C8A95D9F70895F6
:1002A000869FA12C969FA00CC11DDF1F879FA00CCD
:1002B000C11DDF1F979FC00DD11D089512FD18C0ED
:1002C00012FD16C0C8E3D0E0EBDFC73583E0D807E6
:1002D00010F0C7E5D3E0C0937500D093760001FF1E
:1002E00003C082E0B82E9EC080E1B816BF1E0895FC
:1002F000E3011F7E8091920080FB17F9CC0FC2951D
:10030000209649F3CE016DE373E0DCCF80918A0043
:1003100090918B0080937B0090937C00609186008D
:1003200070918700681B790B14D0809377009093AD
:10033000780060918A0070918B0080918800909184
:100340008900681B790B05D08093790090937A001F
:1003500008956052734085E595E00196A8959F3F0A
:10036000890721F0C0EEDCEF9BDFB9F70895F89420
:100370008CB59DB56091640078B77894903872FD23
:100380006F1FC0916800D0916900A0906A008093AF
:1003900068009093690060936A0000906B00109071
:1003A0006C0070916D00C0936B00D0936C00A092B4
:1003B0006D0080199109670B97306F0728F480E072
:1003C00097E060E0D694C7946130A7E5B3E058F0B9
:1003D0006230ACEAB1E038F0643018F080E090E0D0
:1003E00064E0A6EDD0E07D0180936E0090936F00F5
:1003F00060937000669597958795C0916800D0913D
:100400006900A0906A0073E335D0C0937100D09367
:100410007200A092730049D014FD52CFC0917500B4
:10042000D0917600CE15DF0508F0E701CC15DD058B
:1004300008F0E60187E593E08C1B9D0BB1F0209658
:10044000B1F01D7F116016FF04C0880F991FCC0FFB
:10045000DD1F75E29F137BE1C09580951E01F89426
:100460002C0170936500789408951360F2CF1C7F7F
:1004700071E3F2CF879FC10DDF1FAF1E979FC00DA5
:10048000D11DAF1E679FD00DA11C089580916E00F5
:1004900090916F0060917000C0917100D0917200D6
:1004A000A09073000895F2DFE5DF79B7072E7B7E19
:1004B00079BF70E1F894DBBDCABD78BF8CB59DB53E
:1004C000789401606091640078B7903872FD6F1F76
:1004D000C81BD90BA60AA09263000AF40E7F09BEBE
:1004E0000895279670E1F8948CB59DB5C80FD91F73
:1004F000DBBDCABD78BFA092630001607894089507
:1005000014FDDEDE00FDFCCF0895F5BD80E488BF5C
:10051000EFE282B38F7482BB82B3847F82BB089583
:100520008299F09366008091660085FF0895E0E06F
:10053000F894FCE185919491F0E07894019602970B
:10054000A8F3F894F7BBF4BBF1BB88E181BDF1BD22
:100550008091600081BF54CB82E582B985EC86BF73
:100560000895D4DE84E588BF89BFF6DFBB24137EFF
:10057000F0936600F0936700A89514FD0AC0D0DFE1
:10058000809167008837C1F78CE38093670016DE9F
:10059000F3CF94DEC0917500D0917600209631F7AC
:1005A0008AE0B81648F312FFF6BF0FDE0EDE0DDE4E
:1005B000ACDF0D7FF0936600F0936700A89514FD03
:1005C0000CC0BB20D9F7ACDF809167008E31B1F74A
:1005D0009CDF19DEF3DDEBDDC4CF04FD31DE05FD6C
:1005E00035DE6EDE209631F3BB2021F38EDF80B73F
:1005F000886080BF3798CEE8D0E06E010260BAD044
:10060000F093740082E0B82E86E0809362008CE064
:100610008093610081E085BD17FD37C0AFD083E0D6
:1006200087B9979810FD959AA7D081E087B9F8947B
:10063000287F226082B3939892B38913919A789419
:100640009DD082E087B9959810FD949A95D083E06B
:1006500087B9F894287F216082B3919892B3891367
:10066000909A78948BD081E087B9949810FD979AEE
:1006700083D082E087B9F894287F246082B3909871
:1006800092B38913939A789436C076D081E087B973
:10069000F894287F216082B3939892B38913909A3B
:1006A00078946CD083E087B9979810FD949A64D0C1
:1006B00082E087B9F894287F226082B3909892B341
:1006C0008913919A78945AD081E087B9949810FD53
:1006D000959A52D083E087B9F894287F246082B33A
:1006E000919892B38913939A789448D082E087B90D
:1006F000959810FD979A80916100803010FFB9F0B5
:10070000E6012096A9F08C3038F48395809361003F
:10071000629686ED90E004C01F7B6B9687E593E0C0
:10072000C817D90710F06C0177CF6E0175CF40CF95
:100730005DCFEFE282B3847F82BB81E08093620071
:1007400068C016FD0FC0BC3068F0BBE0AB1708F402
:10075000AB2F9CDEC80FD91FA61EC80FD91FA61E1F
:10076000A4DE4AC0F093610070917400715F16FDC1
:100770007093740010644DC01F7D01C010628091A1
:100780006200815050F08093620016FF18C0C0E0F4
:10079000DFEFAF2EA6DEA3E02EC0EF3209F4E1E3D7
:1007A00016FD43C07BE17FDEABDE79E57CDE00FF3A
:1007B000C0CF14FD85DD68B1612765FDF8CF66DE29
:1007C000A92FB62FB695A795B695A795A330BF07C5
:1007D00050F051F0AA31BF0708F0AAE1AC3020F088
:1007E00073E361DE08C0A3E0C80FD91FA61EC80FBF
:1007F000D91FA61E5ADEBA2F00FFA3CF14FD60DD5D
:1008000068B1612765FD03C0AB17AF1FF5CFAA958F
:1008100099F7ADDD16FF74DE809162008F131E7FA5
:10082000BF1208958F918F91C3CEC0E0D0E070E0E9
:10083000A72E80916100823030F47091740080E0C6
:1008400090E860E017DE4DDE5BDEC0E0D8EB7BE0D9
:10085000A72E47DEAFEFCFCF00240FBEEFE5F4E0C9
:10086000FEBFEDBF0292E036F00509F4EEE1E015BF
:10087000F005C1F781B780936000A4B6F4BFF8BB60
:10088000F7BB80E385BBF4BBF2BB8BEB81BB82E0A3
:1008900083BF81E08EBDF5BD88E181BD88E081BD6B
:1008A000B2DCD4DCBEDC58DE7894A0FAAF1226F4B9
:1008B00077DC7DDC83DC55CEA2FE04C07FDC70DCFF
:1008C00000684FCEA1FE02C080DC4BCEF894A3FEA0
:1008D00005C066DC65DC72DC71DCFBCF91DC4A2D87
:1008E00058E040FF64DC40FD70DC8BDC46955A9597
:0408F000C1F7F4CF89
:101C0000E4E0FFE5FEBFEDBF00E0ECEBFEE0C0E886
:101C1000D0E0A0E6B0E042E045BD5CEE539571F047
:101C200040EC04BD48BFA03619F0E8B6E6FC46C05B
:101C30008299F9CF04BD48BFE8B6E6FCE1C1829BBA
:101C4000FBCF04BD48BFE8B6E6FCE8CF8299FBCFE6
:101C500034B404BD48BFE8B6E6FCD2C1829BFBCFDA
:101C600024B4022C030C802C07940694402C069478
:101C70008008809420943094409460EE83E084BC8B
:101C800048BFE8B6E6FCBCC1829BFBCF84BC48BF22
:101C9000E8B6E6FCC3CF8299FBCF0894E8B6E6FC31
:101CA00023C0829BFBCFE8B6E6FCB8CF8299FBCF7E
:101CB0008894E8B6E6FC18C0829BFBCF43BC87E162
:101CC000929A8A9A34BC48BFE8B6E6FEFDCF929855
:101CD00024BC48BFE8B6E6FEFDCF8A9589F7C0E68A
:101CE000D0E060E081E00BC0679548F6815068F570
:101CF0005CEE0994CA17DB07D1F0699188E066951C
:101D0000929A34BC48BFE8B610F0E7FC02BBE6FE8E
:101D1000FACF929808F0929A24BC48BFE8B610F027
:101D2000E7FC02BBE6FEFACF8A9549F7E3CF929A29
:101D300034BC48BFC0E8D0E0A0E6B0E0E8B6E7FEBB
:101D4000FDCF8A9802BB6ACF80E060E898CFECEBC9
:101D5000FEE0C0E8D0E0F8CF009000000090000066
:101D60000090000000900000009000000090000033
:101D70000090000000900000000000006B3121F78F
:101D8000562E3796E1CF962E56263496DDCF762EF8
:101D900056263496D9CF662E56263496D5CF6E3039
:101DA000B1F656263596D0CF69935626CF3584E0C6
:101DB000D80768F681E0681A700A09F43C96C4CF27
:101DC0006511C5CFC0E8D0E0699199918991FD0175
:101DD0007BE170839182028372E073837EE074837F
:101DE0006583068317966130A1F48BE0838388E0D6
:101DF0008D93EF01ECEDFFE185918D93E43EE1F7EA
:101E0000FE01819161918627EA17FB07D9F78D932F
:101E10009ECF6D3151F5792F90E0039683839283A5
:101E200003970D938A95E9F789916991603380074B
:101E300094E0790779F460878991803059F4699149
:101E400060308EE131F0613083E919F0623087E073
:101E500009F482870D93D5CF8017900709F5D990A3
:101E6000C9905601AA0CBB1CCCCF6330E1F06230A4
:101E700041F2603131F2613121F2663069F3623151
:101E8000F1F1833F73E0970758F4643109F166314B
:101E900069F127966531C1F16331F9F10000000065
:101EA00080EC8683AECF90398FE071F0913982E07B
:101EB00059F092398AE041F0943982E329F0903860
:101EC00080E011F0913861F78D9383E0838399CF9F
:101ED00049D0EF01F5018FD076FDFDCF65916D936F
:101EE0000197E1F75F01FE010D938BCF3BD011E02D
:101EF0003ED06DB36D930197D9F70D9382CF47D044
:101F0000000080E092E0689416E06FEF0EF06991B7
:101F10002ED00197D1F7E89474CF8F7F61E07F01D5
:101F2000F5010990199068D032960297D1F70F0108
:101F3000F501500163E0E03C7FE1F70719F058D06C
:101F4000F7015FCF0BD065E009D061E107D0F8CF92
:101F500077B770FDFDCFE199FECF0895F9DF67BF38
:101F6000E8950895039692838383039708953AD062
:101F7000DFBACEBA0894C01ED01E762FE09A6DB399
:101F8000671312FF08957DBBE29A1CBB08957F0181
:101F9000E0E0FEE063E0B0972FD0E9F76F01F701D2
:101FA0000895000000000000000000000000000094
:101FB0000000000000000000000000000000000021
:101FC000687474703A2F2F6769746875622E636F36
:101FD0006D2F73696D2D2F7467792F00415652490B
:101FE00053505F3277B770FDFDCFE199FECF089572
:101FF00003D065E001D061E1F5DF67BFE8950895A2
:00000001FF
