\relax 
\@writefile{toc}{\contentsline {section}{\numberline {1}Introduction}{1}}
\@writefile{toc}{\contentsline {section}{\numberline {2}Requirements}{1}}
\@writefile{toc}{\contentsline {section}{\numberline {3}Design}{2}}
\@writefile{toc}{\contentsline {subsection}{\numberline {3.1}Electrical Design}{2}}
\@writefile{toc}{\contentsline {subsubsection}{\numberline {3.1.1}Power Output Requirements}{2}}
\@writefile{toc}{\contentsline {subsubsection}{\numberline {3.1.2}Electrical Protection}{2}}
\@writefile{toc}{\contentsline {subsubsection}{\numberline {3.1.3}Other Electrical Considerations}{3}}
\@writefile{toc}{\contentsline {subsection}{\numberline {3.2}Mechanical}{4}}
\@writefile{toc}{\contentsline {subsubsection}{\numberline {3.2.1}Thermal Considerations}{4}}
\@writefile{toc}{\contentsline {subsubsection}{\numberline {3.2.2}Waterproofing}{4}}
\@writefile{toc}{\contentsline {subsubsection}{\numberline {3.2.3}Connectors}{4}}
\@writefile{toc}{\contentsline {subsubsection}{\numberline {3.2.4}Printed Circuit Board}{5}}
\@writefile{toc}{\contentsline {section}{\numberline {4}Evaluation}{5}}
\@writefile{toc}{\contentsline {section}{\numberline {5}Block Diagram}{6}}
