PCBNEW-LibModule-V1  Sun 15 Dec 2013 01:10:33 PM PST
# encoding utf-8
Units mm
$INDEX
to92
$EndINDEX
$MODULE to92
Po 0 0 0 15 52AE1AAF 00000000 ~~
Li to92
Cd TO92
Sc 0
AR to92_3
Op 0 0 0
T0 0 3.175 1.524 1.524 0 0.3048 N V 21 N "TO92"
T1 0 -4.445 1.524 1.524 0 0.3048 N V 21 N "Q***"
DS 2.54 0 -2.54 0 0.381 21
DS 2.54 0 1.905 1.27 0.381 21
DS 1.905 1.27 -1.905 1.27 0.381 21
DS -1.905 1.27 -2.54 0 0.381 21
DA 0 0 0 -2.54 900 0.381 21
DA 0 0 -2.54 0 900 0.381 21
$PAD
Sh "3" C 1.75006 1.75006 0 0 0
Dr 0.8001 0 0
At STD N 00E0FFFF
Ne 0 ""
Po 1.905 0.635
$EndPAD
$PAD
Sh "2" C 1.75006 1.75006 0 0 0
Dr 0.8001 0 0
At STD N 00E0FFFF
Ne 0 ""
Po 0 -1.905
$EndPAD
$PAD
Sh "1" C 1.75006 1.75006 0 0 0
Dr 0.8001 0 0
At STD N 00E0FFFF
Ne 0 ""
Po -1.905 0.635
$EndPAD
$SHAPE3D
Na "walter/to/to92_3.wrl"
Sc 1 1 1
Of 0 0 0
Ro 0 0 0
$EndSHAPE3D
$EndMODULE to92
$EndLIBRARY
